EESchema Schematic File Version 4
EELAYER 30 0
EELAYER END
$Descr A3 16535 11693
encoding utf-8
Sheet 1 1
Title "piduin-io"
Date ""
Rev ""
Comp ""
Comment1 ""
Comment2 ""
Comment3 ""
Comment4 ""
$EndDescr
$Comp
L Connector-ML:RPi_GPIO J1
U 1 1 5E3FF896
P 3000 1750
F 0 "J1" H 3750 2143 60  0000 C CNN
F 1 "RPi_GPIO" H 3750 2037 60  0000 C CNN
F 2 "lib_fp:Raspberry_Pi_ZeroW_Bonnet_MountingHoles" H 3750 1931 60  0000 C CNN
F 3 "" H 3000 1750 60  0000 C CNN
	1    3000 1750
	1    0    0    -1  
$EndComp
$Comp
L MCU_Microchip_ATmega:ATmega328-AU U1
U 1 1 5E4011EC
P 7850 2750
F 0 "U1" H 7400 1300 50  0000 C CNN
F 1 "ATmega328-AU" H 8350 1300 50  0000 C CNN
F 2 "Package_QFP:TQFP-32_7x7mm_P0.8mm" H 7850 2750 50  0001 C CIN
F 3 "http://ww1.microchip.com/downloads/en/DeviceDoc/ATmega328_P%20AVR%20MCU%20with%20picoPower%20Technology%20Data%20Sheet%2040001984A.pdf" H 7850 2750 50  0001 C CNN
	1    7850 2750
	1    0    0    -1  
$EndComp
$Comp
L Device:C_Small C6
U 1 1 5E40476A
P 6850 1750
F 0 "C6" H 6758 1704 50  0000 R CNN
F 1 "100n" H 6758 1795 50  0000 R CNN
F 2 "Capacitor_SMD:C_0603_1608Metric" H 6850 1750 50  0001 C CNN
F 3 "~" H 6850 1750 50  0001 C CNN
	1    6850 1750
	1    0    0    1   
$EndComp
$Comp
L Device:C_Small C7
U 1 1 5E404960
P 7650 1050
F 0 "C7" V 7421 1050 50  0000 C CNN
F 1 "100n" V 7512 1050 50  0000 C CNN
F 2 "Capacitor_SMD:C_0603_1608Metric" H 7650 1050 50  0001 C CNN
F 3 "~" H 7650 1050 50  0001 C CNN
	1    7650 1050
	0    1    1    0   
$EndComp
$Comp
L Device:Crystal_GND2_Small Y2
U 1 1 5E407158
P 9000 2200
F 0 "Y2" V 9046 2288 50  0000 L CNN
F 1 "Crystal_GND2_Small" V 8750 1600 50  0001 L CNN
F 2 "Crystal:Crystal_SMD_EuroQuartz_MT-4Pin_3.2x2.5mm" H 9000 2200 50  0001 C CNN
F 3 "~" H 9000 2200 50  0001 C CNN
	1    9000 2200
	0    -1   -1   0   
$EndComp
$Comp
L power:+5V #PWR0101
U 1 1 5E40FDD5
P 4900 1650
F 0 "#PWR0101" H 4900 1500 50  0001 C CNN
F 1 "+5V" H 4915 1823 50  0000 C CNN
F 2 "" H 4900 1650 50  0001 C CNN
F 3 "" H 4900 1650 50  0001 C CNN
	1    4900 1650
	1    0    0    -1  
$EndComp
$Comp
L power:+3V3 #PWR0102
U 1 1 5E41029B
P 2600 1650
F 0 "#PWR0102" H 2600 1500 50  0001 C CNN
F 1 "+3V3" H 2615 1823 50  0000 C CNN
F 2 "" H 2600 1650 50  0001 C CNN
F 3 "" H 2600 1650 50  0001 C CNN
	1    2600 1650
	1    0    0    -1  
$EndComp
$Comp
L Device:R_Small R1
U 1 1 5E410882
P 9850 2800
F 0 "R1" H 9800 2850 50  0000 R CNN
F 1 "10k" H 9800 2750 50  0000 R CNN
F 2 "Resistor_SMD:R_0603_1608Metric" H 9850 2800 50  0001 C CNN
F 3 "~" H 9850 2800 50  0001 C CNN
	1    9850 2800
	1    0    0    -1  
$EndComp
$Comp
L Device:LED_Small D1
U 1 1 5E410F35
P 9950 4250
F 0 "D1" V 9996 4182 50  0000 R CNN
F 1 "LED_Small" V 9905 4182 50  0000 R CNN
F 2 "LED_SMD:LED_1206_3216Metric_Pad1.42x1.75mm_HandSolder" V 9950 4250 50  0001 C CNN
F 3 "~" V 9950 4250 50  0001 C CNN
	1    9950 4250
	0    -1   -1   0   
$EndComp
$Comp
L wm8960:WM8960 DA1
U 1 1 5E414EE8
P 7950 7400
F 0 "DA1" H 7925 8947 50  0000 C CNN
F 1 "WM8960" H 7925 8856 50  0000 C CNN
F 2 "Package_QFP:TQFP-32_7x7mm_P0.8mm" H 8950 6150 50  0001 C CNN
F 3 "" H 8100 7900 50  0001 C CNN
F 4 "33" H 7650 8750 50  0001 C CNN "SolderPoints"
F 5 "0" H 7650 8650 50  0001 C CNN "SolderPoints_DIP"
F 6 "I2C addr" H 7925 8765 50  0000 C CNN "I2C"
F 7 "0x34" H 7925 8674 50  0000 C CNN "Addr"
	1    7950 7400
	1    0    0    -1  
$EndComp
$Comp
L Device:Speaker LS1
U 1 1 5E425262
P 10900 6550
F 0 "LS1" H 11070 6546 50  0000 L CNN
F 1 "Speaker" H 11070 6455 50  0000 L CNN
F 2 "Connector_JST:JST_EH_B2B-EH-A_1x02_P2.50mm_Vertical" H 10900 6350 50  0001 C CNN
F 3 "~" H 10890 6500 50  0001 C CNN
	1    10900 6550
	1    0    0    -1  
$EndComp
Wire Wire Line
	8450 2150 8750 2150
Wire Wire Line
	8750 2150 8750 2050
Wire Wire Line
	8750 2050 9000 2050
Wire Wire Line
	9000 2050 9000 2100
Wire Wire Line
	8450 2250 8750 2250
Wire Wire Line
	8750 2250 8750 2350
Wire Wire Line
	8750 2350 9000 2350
Wire Wire Line
	9000 2350 9000 2300
Wire Wire Line
	9100 2200 9200 2200
Wire Wire Line
	9200 2200 9200 2300
Wire Wire Line
	7850 4250 7850 4450
$Comp
L power:GNDREF #PWR0104
U 1 1 5E40F690
P 7850 4450
F 0 "#PWR0104" H 7850 4200 50  0001 C CNN
F 1 "GNDREF" H 7855 4277 50  0001 C CNN
F 2 "" H 7850 4450 50  0001 C CNN
F 3 "" H 7850 4450 50  0001 C CNN
	1    7850 4450
	1    0    0    -1  
$EndComp
$Comp
L power:GNDREF #PWR0105
U 1 1 5E44A783
P 7450 1150
F 0 "#PWR0105" H 7450 900 50  0001 C CNN
F 1 "GNDREF" H 7455 977 50  0001 C CNN
F 2 "" H 7450 1150 50  0001 C CNN
F 3 "" H 7450 1150 50  0001 C CNN
	1    7450 1150
	1    0    0    -1  
$EndComp
Wire Wire Line
	7850 950  7850 1050
Wire Wire Line
	7450 1150 7450 1050
Wire Wire Line
	7450 1050 7550 1050
Wire Wire Line
	7750 1050 7850 1050
Connection ~ 7850 1050
Wire Wire Line
	7850 1050 7850 1250
Wire Wire Line
	7850 1050 7950 1050
Wire Wire Line
	7950 1050 7950 1250
Text Label 8550 2450 0    50   ~ 0
A0
Text Label 8550 2550 0    50   ~ 0
A1
Text Label 8550 2650 0    50   ~ 0
A2
Text Label 8550 2750 0    50   ~ 0
A3
Text Label 8550 2850 0    50   ~ 0
SDA
Text Label 8550 2950 0    50   ~ 0
SCL
Text Label 8550 3050 0    50   ~ 0
RESET
Wire Wire Line
	8550 3050 8450 3050
Wire Wire Line
	8550 2950 8450 2950
Wire Wire Line
	8450 2850 8550 2850
Wire Wire Line
	8550 2750 8450 2750
Wire Wire Line
	8450 2650 8550 2650
Wire Wire Line
	8550 2550 8450 2550
Wire Wire Line
	8450 2450 8550 2450
$Comp
L Switch:SW_Push SW1
U 1 1 5E45B332
P 9950 1700
F 0 "SW1" V 9904 1848 50  0000 L CNN
F 1 "SW_Push" V 9995 1848 50  0000 L CNN
F 2 "Button_Switch_SMD:SW_SPST_EVQQ2" H 9950 1900 50  0001 C CNN
F 3 "~" H 9950 1900 50  0001 C CNN
	1    9950 1700
	0    1    1    0   
$EndComp
$Comp
L power:+3V3 #PWR0106
U 1 1 5E479CF8
P 7850 950
F 0 "#PWR0106" H 7850 800 50  0001 C CNN
F 1 "+3V3" H 7865 1123 50  0000 C CNN
F 2 "" H 7850 950 50  0001 C CNN
F 3 "" H 7850 950 50  0001 C CNN
	1    7850 950 
	1    0    0    -1  
$EndComp
$Comp
L power:+3V3 #PWR0107
U 1 1 5E47A125
P 9950 1000
F 0 "#PWR0107" H 9950 850 50  0001 C CNN
F 1 "+3V3" H 9965 1173 50  0000 C CNN
F 2 "" H 9950 1000 50  0001 C CNN
F 3 "" H 9950 1000 50  0001 C CNN
	1    9950 1000
	-1   0    0    -1  
$EndComp
$Comp
L power:GNDREF #PWR0108
U 1 1 5E47A5EC
P 9950 2000
F 0 "#PWR0108" H 9950 1750 50  0001 C CNN
F 1 "GNDREF" H 9955 1827 50  0001 C CNN
F 2 "" H 9950 2000 50  0001 C CNN
F 3 "" H 9950 2000 50  0001 C CNN
	1    9950 2000
	-1   0    0    -1  
$EndComp
Text Label 10050 1400 0    50   ~ 0
RESET
Text Label 9550 1400 2    50   ~ 0
DTR
Wire Wire Line
	9550 1400 9650 1400
Wire Wire Line
	9850 1400 9950 1400
Wire Wire Line
	9950 1300 9950 1400
Connection ~ 9950 1400
Wire Wire Line
	9950 1400 10050 1400
Wire Wire Line
	9950 1400 9950 1500
Wire Wire Line
	9950 1900 9950 2000
Wire Wire Line
	9950 1000 9950 1100
$Comp
L Device:R_Small R2
U 1 1 5E404D12
P 9950 1200
F 0 "R2" H 9891 1154 50  0000 R CNN
F 1 "10k" H 9891 1245 50  0000 R CNN
F 2 "Resistor_SMD:R_0603_1608Metric" H 9950 1200 50  0001 C CNN
F 3 "~" H 9950 1200 50  0001 C CNN
	1    9950 1200
	-1   0    0    1   
$EndComp
$Comp
L Device:C_Small C13
U 1 1 5E403A5C
P 9750 1400
F 0 "C13" V 9521 1400 50  0000 C CNN
F 1 "100n" V 9612 1400 50  0000 C CNN
F 2 "Capacitor_SMD:C_0603_1608Metric" H 9750 1400 50  0001 C CNN
F 3 "~" H 9750 1400 50  0001 C CNN
	1    9750 1400
	0    -1   1    0   
$EndComp
Wire Wire Line
	4700 1750 4900 1750
Wire Wire Line
	4900 1750 4900 1650
Wire Wire Line
	4700 1850 4900 1850
Wire Wire Line
	4900 1850 4900 1750
Connection ~ 4900 1750
Wire Wire Line
	2600 1650 2600 1750
Wire Wire Line
	2600 1750 2800 1750
$Comp
L power:GNDREF #PWR0109
U 1 1 5E492A36
P 2700 3750
F 0 "#PWR0109" H 2700 3500 50  0001 C CNN
F 1 "GNDREF" H 2705 3577 50  0001 C CNN
F 2 "" H 2700 3750 50  0001 C CNN
F 3 "" H 2700 3750 50  0001 C CNN
	1    2700 3750
	-1   0    0    -1  
$EndComp
Wire Wire Line
	2800 2150 2700 2150
Wire Wire Line
	2700 2150 2700 2950
Wire Wire Line
	2800 3650 2700 3650
Connection ~ 2700 3650
Wire Wire Line
	2700 3650 2700 3750
Wire Wire Line
	2800 2950 2700 2950
Connection ~ 2700 2950
Wire Wire Line
	2700 2950 2700 3650
$Comp
L power:GNDREF #PWR0110
U 1 1 5E4956F8
P 4800 3750
F 0 "#PWR0110" H 4800 3500 50  0001 C CNN
F 1 "GNDREF" H 4805 3577 50  0001 C CNN
F 2 "" H 4800 3750 50  0001 C CNN
F 3 "" H 4800 3750 50  0001 C CNN
	1    4800 3750
	-1   0    0    -1  
$EndComp
Wire Wire Line
	4700 2350 4800 2350
Wire Wire Line
	4800 2350 4800 2650
Wire Wire Line
	4700 2650 4800 2650
Connection ~ 4800 2650
Wire Wire Line
	4800 2650 4800 3150
Wire Wire Line
	4700 3150 4800 3150
Connection ~ 4800 3150
Wire Wire Line
	4800 3150 4800 3350
Wire Wire Line
	4700 3350 4800 3350
Connection ~ 4800 3350
Wire Wire Line
	4800 3350 4800 3750
Wire Wire Line
	4700 1950 4800 1950
Wire Wire Line
	4800 1950 4800 2350
Connection ~ 4800 2350
Wire Wire Line
	2800 2550 2600 2550
Wire Wire Line
	2600 2550 2600 1750
Connection ~ 2600 1750
Text Label 4900 2450 0    50   ~ 0
DTR
Wire Wire Line
	4900 2250 4700 2250
Text Label 7150 1750 2    50   ~ 0
A6
Text Label 7150 1850 2    50   ~ 0
A7
Wire Wire Line
	7150 1750 7250 1750
Wire Wire Line
	7250 1850 7150 1850
Text Label 8550 1550 0    50   ~ 0
D8
Text Label 8550 1650 0    50   ~ 0
D9
Text Label 8550 1750 0    50   ~ 0
D10
Text Label 8550 1950 0    50   ~ 0
MISO
Text Label 8550 2050 0    50   ~ 0
SCK
Text Label 8550 3250 0    50   ~ 0
ARD_RXI
Text Label 8550 3350 0    50   ~ 0
ARD_TXO
Text Label 8550 3450 0    50   ~ 0
D2
Text Label 8550 3550 0    50   ~ 0
D3
Text Label 8550 3650 0    50   ~ 0
D4
Text Label 8550 3750 0    50   ~ 0
D5
Text Label 8550 3850 0    50   ~ 0
D6
Text Label 8550 3950 0    50   ~ 0
D7
$Comp
L Device:R_Small R3
U 1 1 5E4E17E8
P 9950 3950
F 0 "R3" H 10009 3996 50  0000 L CNN
F 1 "10k" H 10009 3905 50  0000 L CNN
F 2 "Resistor_SMD:R_0603_1608Metric" H 9950 3950 50  0001 C CNN
F 3 "~" H 9950 3950 50  0001 C CNN
	1    9950 3950
	1    0    0    -1  
$EndComp
Wire Wire Line
	9950 4050 9950 4150
$Comp
L power:GNDREF #PWR0111
U 1 1 5E4E30D4
P 9950 4450
F 0 "#PWR0111" H 9950 4200 50  0001 C CNN
F 1 "GNDREF" H 9955 4277 50  0001 C CNN
F 2 "" H 9950 4450 50  0001 C CNN
F 3 "" H 9950 4450 50  0001 C CNN
	1    9950 4450
	1    0    0    -1  
$EndComp
Wire Wire Line
	9950 4350 9950 4450
Wire Wire Line
	8550 2050 8450 2050
Wire Wire Line
	8450 1950 8550 1950
Wire Wire Line
	8550 1850 8450 1850
Wire Wire Line
	8450 1750 8550 1750
Wire Wire Line
	8550 1650 8450 1650
Wire Wire Line
	8450 1550 8550 1550
Wire Wire Line
	8450 3250 8550 3250
Wire Wire Line
	8550 3350 8450 3350
Wire Wire Line
	8450 3450 8550 3450
Wire Wire Line
	8550 3550 8450 3550
Wire Wire Line
	8450 3650 8550 3650
Wire Wire Line
	8550 3750 8450 3750
Wire Wire Line
	8450 3850 8550 3850
Wire Wire Line
	8550 3950 8450 3950
Text Label 9850 3750 2    50   ~ 0
SCK
Wire Wire Line
	9850 3750 9950 3750
Wire Wire Line
	9950 3750 9950 3850
Wire Wire Line
	6850 1650 6850 1550
Wire Wire Line
	6850 1550 7250 1550
$Comp
L power:GNDREF #PWR0112
U 1 1 5E51A097
P 6850 1950
F 0 "#PWR0112" H 6850 1700 50  0001 C CNN
F 1 "GNDREF" H 6855 1777 50  0001 C CNN
F 2 "" H 6850 1950 50  0001 C CNN
F 3 "" H 6850 1950 50  0001 C CNN
	1    6850 1950
	-1   0    0    -1  
$EndComp
Wire Wire Line
	6850 1950 6850 1850
$Comp
L Device:R_Small R4
U 1 1 5E539BE6
P 10050 2800
F 0 "R4" H 10109 2846 50  0000 L CNN
F 1 "10k" H 10109 2755 50  0000 L CNN
F 2 "Resistor_SMD:R_0603_1608Metric" H 10050 2800 50  0001 C CNN
F 3 "~" H 10050 2800 50  0001 C CNN
	1    10050 2800
	1    0    0    -1  
$EndComp
Text Label 10150 3000 0    50   ~ 0
SCL
Text Label 9750 3000 2    50   ~ 0
SDA
Wire Wire Line
	9850 2900 9850 3000
Wire Wire Line
	9850 3000 9750 3000
Wire Wire Line
	10050 2900 10050 3000
Wire Wire Line
	10050 3000 10150 3000
$Comp
L power:+3V3 #PWR0113
U 1 1 5E564F0F
P 9950 2500
F 0 "#PWR0113" H 9950 2350 50  0001 C CNN
F 1 "+3V3" H 9965 2673 50  0000 C CNN
F 2 "" H 9950 2500 50  0001 C CNN
F 3 "" H 9950 2500 50  0001 C CNN
	1    9950 2500
	-1   0    0    -1  
$EndComp
Wire Wire Line
	9850 2700 9850 2600
Wire Wire Line
	9850 2600 9950 2600
Wire Wire Line
	9950 2600 9950 2500
Wire Wire Line
	9950 2600 10050 2600
Wire Wire Line
	10050 2600 10050 2700
Connection ~ 9950 2600
Text Label 4900 3550 0    50   ~ 0
I2S_ADC
Text Label 4900 3650 0    50   ~ 0
I2S_DAC
Text Label 2450 1850 2    50   ~ 0
SDA
Text Label 2450 1950 2    50   ~ 0
SCL
Text Label 2500 3350 2    50   ~ 0
I2S_LRCLK
Text Label 4900 2250 0    50   ~ 0
I2S_CLK
Wire Wire Line
	4900 2450 4700 2450
Text Label 4900 2050 0    50   ~ 0
ARD_RXI
Wire Wire Line
	4700 2050 4900 2050
Text Label 4900 2150 0    50   ~ 0
ARD_TXO
Wire Wire Line
	4700 2150 4900 2150
Text Label 8550 1850 0    50   ~ 0
MOSI
Wire Wire Line
	2450 1850 2800 1850
Wire Wire Line
	2800 1950 2450 1950
Wire Wire Line
	2500 3350 2800 3350
Text Label 6900 7100 2    50   ~ 0
SCL
Text Label 6900 7200 2    50   ~ 0
SDA
Text Label 6900 6300 2    50   ~ 0
MCLK
$Comp
L power:GNDREF #PWR0114
U 1 1 5E5C8948
P 7950 8900
F 0 "#PWR0114" H 7950 8650 50  0001 C CNN
F 1 "GNDREF" H 7955 8727 50  0001 C CNN
F 2 "" H 7950 8900 50  0001 C CNN
F 3 "" H 7950 8900 50  0001 C CNN
	1    7950 8900
	1    0    0    -1  
$EndComp
$Comp
L power:GNDREF #PWR0115
U 1 1 5E5C9530
P 8950 8600
F 0 "#PWR0115" H 8950 8350 50  0001 C CNN
F 1 "GNDREF" H 8955 8427 50  0001 C CNN
F 2 "" H 8950 8600 50  0001 C CNN
F 3 "" H 8950 8600 50  0001 C CNN
	1    8950 8600
	1    0    0    -1  
$EndComp
Wire Wire Line
	8850 8500 8950 8500
Wire Wire Line
	8950 8500 8950 8600
Wire Wire Line
	8850 8200 8950 8200
Wire Wire Line
	8950 8200 8950 8300
Connection ~ 8950 8500
Wire Wire Line
	8850 8400 8950 8400
Connection ~ 8950 8400
Wire Wire Line
	8950 8400 8950 8500
Wire Wire Line
	8850 8300 8950 8300
Connection ~ 8950 8300
Wire Wire Line
	8950 8300 8950 8400
Wire Wire Line
	7950 8800 7950 8900
$Comp
L power:+3V3 #PWR0116
U 1 1 5E5DBB83
P 9050 5600
F 0 "#PWR0116" H 9050 5450 50  0001 C CNN
F 1 "+3V3" H 9065 5773 50  0000 C CNN
F 2 "" H 9050 5600 50  0001 C CNN
F 3 "" H 9050 5600 50  0001 C CNN
	1    9050 5600
	1    0    0    -1  
$EndComp
Wire Wire Line
	8850 7550 9050 7550
Wire Wire Line
	8850 7650 9050 7650
Wire Wire Line
	9050 7650 9050 7550
Wire Wire Line
	8850 7750 9050 7750
Wire Wire Line
	9050 7750 9050 7650
Connection ~ 9050 7650
$Comp
L power:+5V #PWR0117
U 1 1 5E5E901F
P 9250 7750
F 0 "#PWR0117" H 9250 7600 50  0001 C CNN
F 1 "+5V" H 9265 7923 50  0000 C CNN
F 2 "" H 9250 7750 50  0001 C CNN
F 3 "" H 9250 7750 50  0001 C CNN
	1    9250 7750
	1    0    0    -1  
$EndComp
Wire Wire Line
	8850 7850 9250 7850
Wire Wire Line
	9250 7850 9250 7750
Wire Wire Line
	8850 7950 9250 7950
Wire Wire Line
	9250 7950 9250 7850
Connection ~ 9250 7850
$Comp
L Device:C_Small C10
U 1 1 5E5F401C
P 9450 8050
F 0 "C10" H 9358 8004 50  0000 R CNN
F 1 "100n" H 9358 8095 50  0000 R CNN
F 2 "Capacitor_SMD:C_0603_1608Metric" H 9450 8050 50  0001 C CNN
F 3 "~" H 9450 8050 50  0001 C CNN
	1    9450 8050
	1    0    0    1   
$EndComp
$Comp
L Device:C_Small C8
U 1 1 5E5F5F99
P 9250 5900
F 0 "C8" H 9158 5854 50  0000 R CNN
F 1 "100n" H 9158 5945 50  0000 R CNN
F 2 "Capacitor_SMD:C_0603_1608Metric" H 9250 5900 50  0001 C CNN
F 3 "~" H 9250 5900 50  0001 C CNN
	1    9250 5900
	1    0    0    1   
$EndComp
Wire Wire Line
	9050 7550 9050 5700
Wire Wire Line
	9250 7850 9450 7850
Wire Wire Line
	9450 7850 9450 7950
Wire Wire Line
	9050 5700 9250 5700
Wire Wire Line
	9250 5700 9250 5800
Connection ~ 9050 5700
Wire Wire Line
	9050 5700 9050 5600
$Comp
L power:GNDREF #PWR0118
U 1 1 5E6052CB
P 9450 8350
F 0 "#PWR0118" H 9450 8100 50  0001 C CNN
F 1 "GNDREF" H 9455 8177 50  0001 C CNN
F 2 "" H 9450 8350 50  0001 C CNN
F 3 "" H 9450 8350 50  0001 C CNN
	1    9450 8350
	1    0    0    -1  
$EndComp
$Comp
L power:GNDREF #PWR0119
U 1 1 5E6055B3
P 9250 6200
F 0 "#PWR0119" H 9250 5950 50  0001 C CNN
F 1 "GNDREF" H 9255 6027 50  0001 C CNN
F 2 "" H 9250 6200 50  0001 C CNN
F 3 "" H 9250 6200 50  0001 C CNN
	1    9250 6200
	1    0    0    -1  
$EndComp
Wire Wire Line
	9250 6200 9250 6100
Wire Wire Line
	9450 8150 9450 8250
$Comp
L Device:C_Small C5
U 1 1 5E60D636
P 6800 8700
F 0 "C5" H 6892 8746 50  0000 L CNN
F 1 "10uF" H 6892 8655 50  0000 L CNN
F 2 "Capacitor_SMD:C_0603_1608Metric" H 6800 8700 50  0001 C CNN
F 3 "~" H 6800 8700 50  0001 C CNN
	1    6800 8700
	1    0    0    -1  
$EndComp
$Comp
L Device:C_Small C4
U 1 1 5E60DCF5
P 6600 8700
F 0 "C4" H 6508 8654 50  0000 R CNN
F 1 "100n" H 6508 8745 50  0000 R CNN
F 2 "Capacitor_SMD:C_0603_1608Metric" H 6600 8700 50  0001 C CNN
F 3 "~" H 6600 8700 50  0001 C CNN
	1    6600 8700
	1    0    0    1   
$EndComp
Wire Wire Line
	6600 8600 6600 8500
Wire Wire Line
	6600 8500 6800 8500
Wire Wire Line
	6800 8600 6800 8500
Connection ~ 6800 8500
Wire Wire Line
	6800 8500 7000 8500
Wire Wire Line
	6600 8800 6600 8900
Wire Wire Line
	6600 8900 6800 8900
Wire Wire Line
	6800 8900 6800 8800
$Comp
L power:GNDREF #PWR0120
U 1 1 5E61AF0D
P 6800 9000
F 0 "#PWR0120" H 6800 8750 50  0001 C CNN
F 1 "GNDREF" H 6805 8827 50  0001 C CNN
F 2 "" H 6800 9000 50  0001 C CNN
F 3 "" H 6800 9000 50  0001 C CNN
	1    6800 9000
	1    0    0    -1  
$EndComp
Wire Wire Line
	6800 8900 6800 9000
Connection ~ 6800 8900
Wire Wire Line
	6900 7100 7000 7100
Wire Wire Line
	7000 7200 6900 7200
Wire Wire Line
	6900 6300 7000 6300
Wire Wire Line
	4700 3550 4900 3550
Wire Wire Line
	4900 3650 4700 3650
Text Label 6800 6800 2    50   ~ 0
I2S_ADC
Text Label 6800 6600 2    50   ~ 0
I2S_DAC
Text Label 6800 6700 2    50   ~ 0
I2S_LRCLK
Text Label 6900 6400 2    50   ~ 0
I2S_CLK
Wire Wire Line
	7000 6500 6900 6500
Wire Wire Line
	6900 6500 6900 6700
Wire Wire Line
	6900 6700 7000 6700
Wire Wire Line
	6800 6700 6900 6700
Connection ~ 6900 6700
Wire Wire Line
	6900 6400 7000 6400
Wire Wire Line
	6800 6600 7000 6600
Wire Wire Line
	7000 6800 6800 6800
$Comp
L Device:C_Small C15
U 1 1 5E668495
P 10250 7500
F 0 "C15" H 10158 7454 50  0000 R CNN
F 1 "100n" H 10158 7545 50  0000 R CNN
F 2 "Capacitor_SMD:C_0603_1608Metric" H 10250 7500 50  0001 C CNN
F 3 "~" H 10250 7500 50  0001 C CNN
	1    10250 7500
	1    0    0    1   
$EndComp
$Comp
L power:GNDREF #PWR0121
U 1 1 5E66914F
P 10250 7800
F 0 "#PWR0121" H 10250 7550 50  0001 C CNN
F 1 "GNDREF" H 10255 7627 50  0001 C CNN
F 2 "" H 10250 7800 50  0001 C CNN
F 3 "" H 10250 7800 50  0001 C CNN
	1    10250 7800
	1    0    0    -1  
$EndComp
Wire Wire Line
	10250 7600 10250 7700
Wire Wire Line
	8850 7300 10250 7300
Wire Wire Line
	10250 7300 10250 7400
$Comp
L Device:C_Small C9
U 1 1 5E67626F
P 9450 5900
F 0 "C9" H 9542 5946 50  0000 L CNN
F 1 "10uF" H 9542 5855 50  0000 L CNN
F 2 "Capacitor_SMD:C_0603_1608Metric" H 9450 5900 50  0001 C CNN
F 3 "~" H 9450 5900 50  0001 C CNN
	1    9450 5900
	1    0    0    -1  
$EndComp
Wire Wire Line
	9250 5700 9450 5700
Wire Wire Line
	9450 5700 9450 5800
Connection ~ 9250 5700
Wire Wire Line
	9250 6100 9450 6100
Wire Wire Line
	9450 6100 9450 6000
Connection ~ 9250 6100
Wire Wire Line
	9250 6100 9250 6000
$Comp
L Device:C_Small C17
U 1 1 5E6947C7
P 10500 7500
F 0 "C17" H 10592 7546 50  0000 L CNN
F 1 "10uF" H 10592 7455 50  0000 L CNN
F 2 "Capacitor_SMD:C_0603_1608Metric" H 10500 7500 50  0001 C CNN
F 3 "~" H 10500 7500 50  0001 C CNN
	1    10500 7500
	1    0    0    -1  
$EndComp
Wire Wire Line
	10250 7300 10500 7300
Wire Wire Line
	10500 7300 10500 7400
Connection ~ 10250 7300
Wire Wire Line
	10250 7700 10500 7700
Wire Wire Line
	10500 7700 10500 7600
Connection ~ 10250 7700
Wire Wire Line
	10250 7700 10250 7800
$Comp
L Device:C_Small C11
U 1 1 5E6D1915
P 9650 8050
F 0 "C11" H 9742 8096 50  0000 L CNN
F 1 "10uF" H 9742 8005 50  0000 L CNN
F 2 "Capacitor_SMD:C_0603_1608Metric" H 9650 8050 50  0001 C CNN
F 3 "~" H 9650 8050 50  0001 C CNN
	1    9650 8050
	1    0    0    -1  
$EndComp
Wire Wire Line
	9450 7850 9650 7850
Wire Wire Line
	9650 7850 9650 7950
Connection ~ 9450 7850
Wire Wire Line
	9450 8250 9650 8250
Wire Wire Line
	9650 8250 9650 8150
Connection ~ 9450 8250
Wire Wire Line
	9450 8250 9450 8350
NoConn ~ 8850 6850
NoConn ~ 8850 7050
NoConn ~ 8850 6950
NoConn ~ 8850 6300
NoConn ~ 8850 6400
Connection ~ 9050 7550
$Comp
L Device:L_Small L1
U 1 1 5E72DD02
P 9350 6550
F 0 "L1" V 9535 6550 50  0000 C CNN
F 1 "120R" V 9444 6550 50  0000 C CNN
F 2 "Inductor_SMD:L_1206_3216Metric" H 9350 6550 50  0001 C CNN
F 3 "~" H 9350 6550 50  0001 C CNN
	1    9350 6550
	0    -1   -1   0   
$EndComp
$Comp
L Device:L_Small L2
U 1 1 5E730E20
P 9350 6650
F 0 "L2" V 9300 6650 50  0000 C CNN
F 1 "120R" V 9200 6650 50  0000 C CNN
F 2 "Inductor_SMD:L_1206_3216Metric" H 9350 6650 50  0001 C CNN
F 3 "~" H 9350 6650 50  0001 C CNN
	1    9350 6650
	0    -1   -1   0   
$EndComp
$Comp
L Device:C_Small C12
U 1 1 5E741662
P 9700 6850
F 0 "C12" H 9609 6804 50  0000 R CNN
F 1 "100pF" H 9609 6895 50  0000 R CNN
F 2 "Capacitor_SMD:C_0603_1608Metric" H 9700 6850 50  0001 C CNN
F 3 "~" H 9700 6850 50  0001 C CNN
	1    9700 6850
	1    0    0    1   
$EndComp
$Comp
L Device:C_Small C14
U 1 1 5E741B5D
P 9900 6850
F 0 "C14" H 9808 6896 50  0000 R CNN
F 1 "100pF" H 9808 6805 50  0000 R CNN
F 2 "Capacitor_SMD:C_0603_1608Metric" H 9900 6850 50  0001 C CNN
F 3 "~" H 9900 6850 50  0001 C CNN
	1    9900 6850
	-1   0    0    -1  
$EndComp
$Comp
L Device:C_Small C16
U 1 1 5E74450B
P 10350 6600
F 0 "C16" H 10259 6554 50  0000 R CNN
F 1 "680nF" H 10259 6645 50  0000 R CNN
F 2 "Capacitor_SMD:C_0603_1608Metric" H 10350 6600 50  0001 C CNN
F 3 "~" H 10350 6600 50  0001 C CNN
	1    10350 6600
	1    0    0    1   
$EndComp
Wire Wire Line
	8850 6550 9250 6550
Wire Wire Line
	8850 6650 9250 6650
Wire Wire Line
	9450 6550 9900 6550
Wire Wire Line
	10100 6550 10100 6500
Wire Wire Line
	10100 6500 10350 6500
Wire Wire Line
	10600 6500 10600 6550
Wire Wire Line
	10600 6550 10700 6550
Connection ~ 10350 6500
Wire Wire Line
	10350 6500 10600 6500
Wire Wire Line
	9450 6650 9700 6650
Wire Wire Line
	10100 6650 10100 6700
Wire Wire Line
	10100 6700 10350 6700
Wire Wire Line
	10600 6700 10600 6650
Wire Wire Line
	10600 6650 10700 6650
Connection ~ 10350 6700
Wire Wire Line
	10350 6700 10600 6700
Wire Wire Line
	9700 6750 9700 6650
Connection ~ 9700 6650
Wire Wire Line
	9700 6650 10100 6650
Wire Wire Line
	9900 6750 9900 6550
Connection ~ 9900 6550
Wire Wire Line
	9900 6550 10100 6550
Wire Wire Line
	9700 6950 9700 7050
Wire Wire Line
	9700 7050 9900 7050
Wire Wire Line
	9900 7050 9900 6950
$Comp
L power:GNDREF #PWR0122
U 1 1 5E790CD1
P 9700 7150
F 0 "#PWR0122" H 9700 6900 50  0001 C CNN
F 1 "GNDREF" H 9705 6977 50  0001 C CNN
F 2 "" H 9700 7150 50  0001 C CNN
F 3 "" H 9700 7150 50  0001 C CNN
	1    9700 7150
	1    0    0    -1  
$EndComp
Wire Wire Line
	9700 7150 9700 7050
Connection ~ 9700 7050
NoConn ~ 7000 8000
NoConn ~ 7000 8300
NoConn ~ 7000 7800
NoConn ~ 7000 7900
$Comp
L Device:C_Small C2
U 1 1 5E7DDB0D
P 4800 7450
F 0 "C2" V 4571 7450 50  0000 C CNN
F 1 "1uF" V 4662 7450 50  0000 C CNN
F 2 "Capacitor_SMD:C_0603_1608Metric" H 4800 7450 50  0001 C CNN
F 3 "~" H 4800 7450 50  0001 C CNN
	1    4800 7450
	0    -1   1    0   
$EndComp
$Comp
L Device:C_Small C3
U 1 1 5E7DE38E
P 4800 8050
F 0 "C3" V 5029 8050 50  0000 C CNN
F 1 "1uF" V 4938 8050 50  0000 C CNN
F 2 "Capacitor_SMD:C_0603_1608Metric" H 4800 8050 50  0001 C CNN
F 3 "~" H 4800 8050 50  0001 C CNN
	1    4800 8050
	0    1    1    0   
$EndComp
Text Label 6600 8500 2    50   ~ 0
MICBIAS
Wire Wire Line
	4900 8050 5000 8050
Wire Wire Line
	5000 7450 4900 7450
Wire Wire Line
	4600 7950 4600 8050
Wire Wire Line
	4600 8050 4700 8050
Wire Wire Line
	4700 7450 4600 7450
Wire Wire Line
	4600 7450 4600 7550
Text Label 6900 8200 2    50   ~ 0
RIN2
Text Label 6900 8100 2    50   ~ 0
RIN1
$Comp
L power:GNDREF #PWR0123
U 1 1 5E884C7F
P 4600 8200
F 0 "#PWR0123" H 4600 7950 50  0001 C CNN
F 1 "GNDREF" H 4605 8027 50  0001 C CNN
F 2 "" H 4600 8200 50  0001 C CNN
F 3 "" H 4600 8200 50  0001 C CNN
	1    4600 8200
	1    0    0    -1  
$EndComp
Wire Wire Line
	4600 8050 4600 8200
Connection ~ 4600 8050
Text Label 4600 7450 2    50   ~ 0
MICBIAS
Text Label 5000 8050 0    50   ~ 0
RIN1
Text Label 5000 7450 0    50   ~ 0
RIN2
Wire Wire Line
	6900 8200 7000 8200
Wire Wire Line
	7000 8100 6900 8100
NoConn ~ 4700 2550
NoConn ~ 4700 2750
NoConn ~ 4700 2850
NoConn ~ 4700 2950
NoConn ~ 4700 3050
NoConn ~ 4700 3250
NoConn ~ 4700 3450
NoConn ~ 2800 3550
NoConn ~ 2800 3450
NoConn ~ 2800 3250
NoConn ~ 2800 3150
NoConn ~ 2800 3050
NoConn ~ 2800 2850
NoConn ~ 2800 2750
NoConn ~ 2800 2650
NoConn ~ 2800 2350
NoConn ~ 2800 2250
NoConn ~ 2800 2450
NoConn ~ 2800 2050
$Comp
L crystal-24MHz-306020014:24MHz-306020014 Y1
U 1 1 5E978078
P 5100 6650
F 0 "Y1" H 5100 6965 50  0000 C CNN
F 1 "24MHz-306020014" H 5100 6400 50  0000 C CNN
F 2 "lib_fp:crystal-24MHz-306020014" H 5100 6650 50  0001 C CNN
F 3 "~" H 5100 6650 50  0001 C CNN
	1    5100 6650
	1    0    0    -1  
$EndComp
Text Label 5500 6750 0    50   ~ 0
MCLK
Wire Wire Line
	5500 6750 5400 6750
$Comp
L power:+3V3 #PWR0124
U 1 1 5E9A0DB9
P 4600 6350
F 0 "#PWR0124" H 4600 6200 50  0001 C CNN
F 1 "+3V3" H 4615 6523 50  0000 C CNN
F 2 "" H 4600 6350 50  0001 C CNN
F 3 "" H 4600 6350 50  0001 C CNN
	1    4600 6350
	1    0    0    -1  
$EndComp
Wire Wire Line
	4600 6350 4600 6450
Wire Wire Line
	4600 6550 4800 6550
$Comp
L power:GNDREF #PWR0125
U 1 1 5E9ABC64
P 4600 6850
F 0 "#PWR0125" H 4600 6600 50  0001 C CNN
F 1 "GNDREF" H 4605 6677 50  0001 C CNN
F 2 "" H 4600 6850 50  0001 C CNN
F 3 "" H 4600 6850 50  0001 C CNN
	1    4600 6850
	1    0    0    -1  
$EndComp
Wire Wire Line
	4600 6850 4600 6750
Wire Wire Line
	4600 6750 4800 6750
Wire Wire Line
	5400 6550 5500 6550
Wire Wire Line
	5500 6550 5500 6450
Wire Wire Line
	5500 6450 4600 6450
Connection ~ 4600 6450
Wire Wire Line
	4600 6450 4600 6550
$Comp
L Device:C_Small C1
U 1 1 5E9DF5B4
P 4600 6650
F 0 "C1" H 4509 6604 50  0000 R CNN
F 1 "100nF" H 4509 6695 50  0000 R CNN
F 2 "Capacitor_SMD:C_0603_1608Metric" H 4600 6650 50  0001 C CNN
F 3 "~" H 4600 6650 50  0001 C CNN
	1    4600 6650
	1    0    0    1   
$EndComp
Connection ~ 4600 6750
Connection ~ 4600 6550
$Comp
L Connector_Generic:Conn_01x08 J2
U 1 1 5E65F22D
P 11350 1650
F 0 "J2" H 11430 1642 50  0000 L CNN
F 1 "Dialer" H 11430 1551 50  0000 L CNN
F 2 "Connector_JST:JST_EH_B8B-EH-A_1x08_P2.50mm_Vertical" H 11350 1650 50  0001 C CNN
F 3 "~" H 11350 1650 50  0001 C CNN
	1    11350 1650
	1    0    0    -1  
$EndComp
$Comp
L power:GNDREF #PWR0103
U 1 1 5E4374B6
P 9200 2300
F 0 "#PWR0103" H 9200 2050 50  0001 C CNN
F 1 "GNDREF" H 9205 2127 50  0001 C CNN
F 2 "" H 9200 2300 50  0001 C CNN
F 3 "" H 9200 2300 50  0001 C CNN
	1    9200 2300
	1    0    0    -1  
$EndComp
$Comp
L power:GNDREF #PWR01
U 1 1 5E66E9D1
P 11050 2150
F 0 "#PWR01" H 11050 1900 50  0001 C CNN
F 1 "GNDREF" H 11055 1977 50  0001 C CNN
F 2 "" H 11050 2150 50  0001 C CNN
F 3 "" H 11050 2150 50  0001 C CNN
	1    11050 2150
	1    0    0    -1  
$EndComp
Wire Wire Line
	11150 2050 11050 2050
Wire Wire Line
	11050 2050 11050 2150
Text Label 11050 1550 2    50   ~ 0
D2
Text Label 11050 1650 2    50   ~ 0
D3
Text Label 11050 1750 2    50   ~ 0
D4
Text Label 11050 1850 2    50   ~ 0
D5
Text Label 11050 1950 2    50   ~ 0
D7
Wire Wire Line
	11050 1550 11150 1550
Wire Wire Line
	11150 1650 11050 1650
Wire Wire Line
	11150 1750 11050 1750
Wire Wire Line
	11150 1850 11050 1850
Wire Wire Line
	11150 1950 11050 1950
$Comp
L Device:Microphone MK1
U 1 1 5E425ABC
P 4600 7750
F 0 "MK1" H 4730 7796 50  0000 L CNN
F 1 "Microphone" H 4730 7705 50  0000 L CNN
F 2 "Connector_JST:JST_EH_B2B-EH-A_1x02_P2.50mm_Vertical" V 4600 7850 50  0001 C CNN
F 3 "~" V 4600 7850 50  0001 C CNN
	1    4600 7750
	1    0    0    -1  
$EndComp
Text Label 11050 1450 2    50   ~ 0
A1
Text Label 11050 1350 2    50   ~ 0
A0
Wire Wire Line
	11050 1350 11150 1350
Wire Wire Line
	11150 1450 11050 1450
$Comp
L Device:LED_Small D2
U 1 1 5E72689E
P 10850 4250
F 0 "D2" V 10896 4182 50  0000 R CNN
F 1 "LED_Small" V 10805 4182 50  0000 R CNN
F 2 "LED_SMD:LED_1206_3216Metric_Pad1.42x1.75mm_HandSolder" V 10850 4250 50  0001 C CNN
F 3 "~" V 10850 4250 50  0001 C CNN
	1    10850 4250
	0    -1   -1   0   
$EndComp
$Comp
L Device:R_Small R5
U 1 1 5E7268A8
P 10850 3950
F 0 "R5" H 10909 3996 50  0000 L CNN
F 1 "10k" H 10909 3905 50  0000 L CNN
F 2 "Resistor_SMD:R_0603_1608Metric" H 10850 3950 50  0001 C CNN
F 3 "~" H 10850 3950 50  0001 C CNN
	1    10850 3950
	1    0    0    -1  
$EndComp
Wire Wire Line
	10850 4050 10850 4150
$Comp
L power:GNDREF #PWR02
U 1 1 5E7268B3
P 10850 4450
F 0 "#PWR02" H 10850 4200 50  0001 C CNN
F 1 "GNDREF" H 10855 4277 50  0001 C CNN
F 2 "" H 10850 4450 50  0001 C CNN
F 3 "" H 10850 4450 50  0001 C CNN
	1    10850 4450
	1    0    0    -1  
$EndComp
Wire Wire Line
	10850 4350 10850 4450
Wire Wire Line
	10750 3750 10850 3750
Wire Wire Line
	10850 3750 10850 3850
$Comp
L Device:LED_Small D3
U 1 1 5E73D3F8
P 11600 4250
F 0 "D3" V 11646 4182 50  0000 R CNN
F 1 "LED_Small" V 11555 4182 50  0000 R CNN
F 2 "LED_SMD:LED_1206_3216Metric_Pad1.42x1.75mm_HandSolder" V 11600 4250 50  0001 C CNN
F 3 "~" V 11600 4250 50  0001 C CNN
	1    11600 4250
	0    -1   -1   0   
$EndComp
$Comp
L Device:R_Small R6
U 1 1 5E73D402
P 11600 3950
F 0 "R6" H 11659 3996 50  0000 L CNN
F 1 "10k" H 11659 3905 50  0000 L CNN
F 2 "Resistor_SMD:R_0603_1608Metric" H 11600 3950 50  0001 C CNN
F 3 "~" H 11600 3950 50  0001 C CNN
	1    11600 3950
	1    0    0    -1  
$EndComp
Wire Wire Line
	11600 4050 11600 4150
$Comp
L power:GNDREF #PWR03
U 1 1 5E73D40D
P 11600 4450
F 0 "#PWR03" H 11600 4200 50  0001 C CNN
F 1 "GNDREF" H 11605 4277 50  0001 C CNN
F 2 "" H 11600 4450 50  0001 C CNN
F 3 "" H 11600 4450 50  0001 C CNN
	1    11600 4450
	1    0    0    -1  
$EndComp
Wire Wire Line
	11600 4350 11600 4450
Wire Wire Line
	11500 3750 11600 3750
Wire Wire Line
	11600 3750 11600 3850
Text Label 10750 3750 2    50   ~ 0
D8
Text Label 11500 3750 2    50   ~ 0
D9
$EndSCHEMATC
