(module svg2mod (layer F.Cu) (tedit 5B7BC19D)
  (attr smd)
  (descr "Imported from /home/firnsy/Downloads/bhack.svg")
  (tags svg2mod)
  (fp_text reference svg2mod (at 0 -5.7902875) (layer F.SilkS) hide
    (effects (font (size 1.524 1.524) (thickness 0.3048)))
  )
  (fp_text value G*** (at 0 5.7902875) (layer F.SilkS) hide
    (effects (font (size 1.524 1.524) (thickness 0.3048)))
  )
  (fp_poly
    (pts 
      (xy 1.8419775 -2.7422375)
      (xy 1.8416875 -2.7417675)
      (xy 1.800573125 -2.666258125)
      (xy 1.7213625 -2.5911275)
      (xy 1.64138268518 -2.53935888889)
      (xy 1.54792398148 -2.49169194444)
      (xy 1.4393375 -2.4475175)
      (xy 1.31397435185 -2.40622638889)
      (xy 1.17018564815 -2.36720944444)
      (xy 1.0063225 -2.3298575)
      (xy 0.81275599537 -2.28662060185)
      (xy 0.656493796296 -2.24604064815)
      (xy 0.535401875 -2.20733875)
      (xy 0.447346203704 -2.16973601852)
      (xy 0.39019275463 -2.13245356482)
      (xy 0.3618075 -2.0947125)
      (xy 0.3780875 -2.0349662037)
      (xy 0.4675475 -1.97158212963)
      (xy 0.6255675 -1.9078225)
      (xy 0.689984716797 -1.88764849609)
      (xy 0.761576796875 -1.86748890625)
      (xy 0.844300634766 -1.84645673828)
      (xy 0.942113125 -1.823665)
      (xy 1.05897116211 -1.79822669922)
      (xy 1.19883164062 -1.76925484375)
      (xy 1.36565145508 -1.73586244141)
      (xy 1.5633875 -1.6971625)
      (xy 1.678235 -1.67305)
      (xy 1.7616275 -1.6524625)
      (xy 1.8359675 -1.6336625)
      (xy 1.8421867 -1.64095114)
      (xy 1.8460131 -1.67853162)
      (xy 1.8479699 -1.76907578)
      (xy 1.8485803 -1.93525546)
      (xy 1.8483675 -2.1997425)
      (xy 1.8478359 -2.3719187)
      (xy 1.8467847 -2.5205365)
      (xy 1.8453543 -2.6373207)
      (xy 1.8436851 -2.7139961)
      (xy 1.8419175 -2.7422875)
      (xy 1.8419575 -2.7422875)
      (xy 1.8419775 -2.7422375)
    )
    (layer F.SilkS)
    (width 0.0242329282083)
  )
  (fp_poly
    (pts 
      (xy 0.2405875 -2.0019775)
      (xy 0.2405875 -1.0077425)
      (xy 0.2405875 -0.0135125)
      (xy 0.2844375 -0.0135125)
      (xy 0.36122098 -0.01518522)
      (xy 0.47657414 -0.01933306)
      (xy 0.60671706 -0.02492954)
      (xy 0.72786982 -0.03094818)
      (xy 0.8162525 -0.0363625)
      (xy 0.965603816551 -0.04911755787)
      (xy 1.11037053241 -0.064875462963)
      (xy 1.25018554688 -0.0835503125)
      (xy 1.38468175926 -0.105056203704)
      (xy 1.51349206887 -0.129307233796)
      (xy 1.636249375 -0.1562175)
      (xy 1.75258657697 -0.185701099537)
      (xy 1.86213657407 -0.21767212963)
      (xy 1.96453226562 -0.2520446875)
      (xy 2.05940655093 -0.28873287037)
      (xy 2.14639232928 -0.327650775463)
      (xy 2.2251225 -0.3687125)
      (xy 2.33824219907 -0.440860416667)
      (xy 2.43121842593 -0.5179475)
      (xy 2.503926875 -0.59979875)
      (xy 2.55624324074 -0.686239166667)
      (xy 2.58804321759 -0.77709375)
      (xy 2.5992025 -0.8721875)
      (xy 2.5870525 -0.9851675)
      (xy 2.5538106893 -1.06115984568)
      (xy 2.50249356996 -1.13428108025)
      (xy 2.43340361111 -1.2043475)
      (xy 2.34684328189 -1.27117540124)
      (xy 2.24311505144 -1.33458108025)
      (xy 2.12252138889 -1.39438083333)
      (xy 1.98536476337 -1.45039095679)
      (xy 1.83194764403 -1.50242774691)
      (xy 1.6625725 -1.5503075)
      (xy 1.55605421875 -1.5768975)
      (xy 1.4524675 -1.6004575)
      (xy 1.33581203125 -1.6244225)
      (xy 1.1900875 -1.6522275)
      (xy 1.01348512695 -1.68756844727)
      (xy 0.853220390625 -1.72463820313)
      (xy 0.709887490234 -1.76323151367)
      (xy 0.584080625 -1.803143125)
      (xy 0.476393994141 -1.8441677832)
      (xy 0.387421796875 -1.88610023437)
      (xy 0.317758232422 -1.92873522461)
      (xy 0.2679975 -1.9718675)
      (xy 0.2405875 -2.0019775)
    )
    (layer F.SilkS)
    (width 0.0242329282083)
  )
  (fp_poly
    (pts 
      (xy 2.7404875 -0.7704825)
      (xy 2.7257375 -0.7139925)
      (xy 2.69413835938 -0.625957109375)
      (xy 2.646873125 -0.538395625)
      (xy 2.58751507813 -0.457015078125)
      (xy 2.5196375 -0.3875225)
      (xy 2.44959884838 -0.332104357639)
      (xy 2.37028162037 -0.279375694444)
      (xy 2.28200265625 -0.22944265625)
      (xy 2.1850787963 -0.182411388889)
      (xy 2.07982688079 -0.138388038194)
      (xy 1.96656375 -0.09747875)
      (xy 1.84560624421 -0.059789670139)
      (xy 1.7172712037 -0.025426944444)
      (xy 1.58187546875 0.00550328125)
      (xy 1.43973587963 0.032894861111)
      (xy 1.29116927662 0.056641649306)
      (xy 1.1364925 0.0766375)
      (xy 1.02869866618 0.08781914723)
      (xy 0.906074074344 0.098589453353)
      (xy 0.775929803207 0.1084721793)
      (xy 0.645576931487 0.116991086006)
      (xy 0.522326537901 0.123669934402)
      (xy 0.413489701166 0.128032485423)
      (xy 0.3263775 0.1296025)
      (xy 0.2286875 0.1326025)
      (xy 0.1903825 0.133324722222)
      (xy 0.090180833333 0.135046944444)
      (xy -0.0498475 0.1371025)
      (xy -0.0433975 0.1761525)
      (xy -0.02252875 0.2969075)
      (xy -0.0109975 0.3496225)
      (xy 0.0426125 0.3712725)
      (xy 0.1217175 0.4032725)
      (xy 0.1519675 0.4178725)
      (xy 0.2923125 0.3112475)
      (xy 0.412515 0.22289875)
      (xy 0.4564725 0.2043825)
      (xy 0.508186875 0.226164375)
      (xy 0.6318375 0.3394875)
      (xy 0.759029537037 0.466555092593)
      (xy 0.815650462963 0.540288240741)
      (xy 0.8222125 0.5873425)
      (xy 0.789611875 0.637665625)
      (xy 0.7178575 0.7339825)
      (xy 0.6184925 0.8629725)
      (xy 0.6470925 0.9220525)
      (xy 0.6842425 1.0089025)
      (xy 0.7061925 1.0418525)
      (xy 0.764266875 1.05227125)
      (xy 0.8851275 1.0698525)
      (xy 0.9396925 1.0776025)
      (xy 0.999118125 1.01097625)
      (xy 1.0724075 0.9286075)
      (xy 1.18789731482 0.799656018519)
      (xy 1.24254601852 0.756162314815)
      (xy 1.3042425 0.7440675)
      (xy 1.42318759259 0.72245400463)
      (xy 1.53553824074 0.697624537037)
      (xy 1.64227 0.669295625)
      (xy 1.74435842593 0.637183796296)
      (xy 1.84277907407 0.601005578704)
      (xy 1.9385075 0.5604775)
      (xy 2.08849154297 0.488738339844)
      (xy 2.22173265625 0.41653078125)
      (xy 2.33868494141 0.343489082031)
      (xy 2.4398025 0.2692475)
      (xy 2.52553943359 0.193440292969)
      (xy 2.59634984375 0.11570171875)
      (xy 2.65268783203 0.035666035156)
      (xy 2.6950075 -0.0470325)
      (xy 2.72042 -0.116014296875)
      (xy 2.73432 -0.191329375)
      (xy 2.74006375 -0.305358515625)
      (xy 2.7410075 -0.4904825)
      (xy 2.7405425 -0.7705825)
      (xy 2.7405275 -0.7705825)
      (xy 2.7404875 -0.7704825)
    )
    (layer F.SilkS)
    (width 0.0242329282083)
  )
  (fp_poly
    (pts 
      (xy -2.5080725 0.0229725)
      (xy -2.4699725 0.0594725)
      (xy -2.44311407434 0.084501144315)
      (xy -2.39334142128 0.130173899417)
      (xy -2.32095847668 0.196213855685)
      (xy -2.22626917639 0.282344103499)
      (xy -2.10957745627 0.388287733236)
      (xy -1.97118725219 0.513767835277)
      (xy -1.8114025 0.6585075)
      (xy -1.7870429 0.67972026)
      (xy -1.7205585 0.73787838)
      (xy -1.6218409 0.82476162)
      (xy -1.5007817 0.93214974)
      (xy -1.3672725 1.0518225)
      (xy -1.3622725 1.0508225)
      (xy -1.3377225 0.9879725)
      (xy -1.3022225 0.9046525)
      (xy -1.2905225 0.8825525)
      (xy -1.3267225 0.8345525)
      (xy -1.371768125 0.777245)
      (xy -1.4289375 0.7069775)
      (xy -1.50092875 0.61351875)
      (xy -1.5063725 0.5723425)
      (xy -1.47735861111 0.527054907407)
      (xy -1.41340138889 0.453721759259)
      (xy -1.3183775 0.3567375)
      (xy -1.1980275 0.24715125)
      (xy -1.1349175 0.2176275)
      (xy -1.09190875 0.23461375)
      (xy -0.9321475 0.3524975)
      (xy -0.8330325 0.4271125)
      (xy -0.8020325 0.4115625)
      (xy -0.7224575 0.3776625)
      (xy -0.6697975 0.3555125)
      (xy -0.6492975 0.2298225)
      (xy -0.6359475 0.1352025)
      (xy -0.793849907407 0.129446944444)
      (xy -0.918896759259 0.124258055556)
      (xy -0.9697625 0.1220025)
      (xy -1.03283015 0.12071097)
      (xy -1.1244779 0.11715006)
      (xy -1.23920045 0.11165079)
      (xy -1.3714925 0.10454418)
      (xy -1.51584875 0.09616125)
      (xy -1.6667639 0.08683302)
      (xy -1.81873265 0.07689051)
      (xy -1.9662497 0.06666474)
      (xy -2.10380975 0.05648673)
      (xy -2.2259075 0.0466875)
      (xy -2.36543625 0.0349)
      (xy -2.4546475 0.0273875)
      (xy -2.5080725 0.0229725)
    )
    (layer F.SilkS)
    (width 0.0242329282083)
  )
  (fp_poly
    (pts 
      (xy 2.7409625 0.6229525)
      (xy 2.7104625 0.7020375)
      (xy 2.66404579 0.80984163)
      (xy 2.61022142 0.91100814)
      (xy 2.54845953 1.00605471)
      (xy 2.47823026 1.09549902)
      (xy 2.39900375 1.17985875)
      (xy 2.31025014 1.25965158)
      (xy 2.21143957 1.33539519)
      (xy 2.10204218 1.40760726)
      (xy 1.98152811 1.47680547)
      (xy 1.8493675 1.5435075)
      (xy 1.74190258 1.59157506)
      (xy 1.62044374 1.64089878)
      (xy 1.49350786 1.68829122)
      (xy 1.36961182 1.73056494)
      (xy 1.2572725 1.7645325)
      (xy 1.1893675 1.7840825)
      (xy 1.143904375 1.75379625)
      (xy 1.0471225 1.6760425)
      (xy 0.9978225 1.6350925)
      (xy 0.8772575 1.6548425)
      (xy 0.72174125 1.68028625)
      (xy 0.6959375 1.6974425)
      (xy 0.6606875 1.7807675)
      (xy 0.6306875 1.8502025)
      (xy 0.6542875 1.8834025)
      (xy 0.69508875 1.93629375)
      (xy 0.7600775 2.0170925)
      (xy 0.81922125 2.09268)
      (xy 0.8460925 2.1328975)
      (xy 0.8456325 2.1627975)
      (xy 0.819726759259 2.20406824074)
      (xy 0.760513240741 2.27330342593)
      (xy 0.6726475 2.3649875)
      (xy 0.563426203704 2.46707027778)
      (xy 0.49179712963 2.51245972222)
      (xy 0.4427225 2.5106825)
      (xy 0.4025475 2.48224375)
      (xy 0.3240625 2.4231225)
      (xy 0.24238 2.361006875)
      (xy 0.1944475 2.3249725)
      (xy 0.1703975 2.3075725)
      (xy 0.1424975 2.3221725)
      (xy 0.0595825 2.3577225)
      (xy 0.0047775 2.3789225)
      (xy -0.0111725 2.4996675)
      (xy -0.02451 2.596194375)
      (xy -0.0359725 2.6656125)
      (xy 0.107404722222 2.64844212963)
      (xy 0.207968611111 2.63514953704)
      (xy 0.2458925 2.6298125)
      (xy 0.2461725 2.6194625)
      (xy 0.2511725 2.6303125)
      (xy 0.320014166667 2.62153342593)
      (xy 0.451619166667 2.60087990741)
      (xy 0.5916575 2.5768775)
      (xy 0.725330590379 2.5511741035)
      (xy 0.85621324344 2.52305216472)
      (xy 0.983534817784 2.49271477405)
      (xy 1.10652467201 2.46036502187)
      (xy 1.22441216472 2.42620599854)
      (xy 1.33642665452 2.39044079446)
      (xy 1.4417975 2.3532725)
      (xy 1.54453674198 2.31280914723)
      (xy 1.65328919096 2.2657605758)
      (xy 1.76498907434 2.21365258746)
      (xy 1.87657061953 2.15801098397)
      (xy 1.98496805394 2.10036156706)
      (xy 2.08711560496 2.04223013848)
      (xy 2.1799475 1.9851425)
      (xy 2.29422522595 1.90676462828)
      (xy 2.39427053207 1.82763238338)
      (xy 2.48059446793 1.74717567784)
      (xy 2.55370808309 1.6648244242)
      (xy 2.61412242711 1.58000853498)
      (xy 2.66234854956 1.49215792274)
      (xy 2.6988975 1.4007025)
      (xy 2.721438125 1.320726875)
      (xy 2.7343975 1.23212625)
      (xy 2.740269375 1.106065)
      (xy 2.7415475 0.9137075)
      (xy 2.7412575 0.6230125)
      (xy 2.7412325 0.6230125)
      (xy 2.7409625 0.6229525)
    )
    (layer F.SilkS)
    (width 0.0242329282083)
  )
  (fp_poly
    (pts 
      (xy -0.3284025 0.8992825)
      (xy -0.3896325 0.9032825)
      (xy -0.494577314815 0.926743425926)
      (xy -0.583221018518 0.971416574074)
      (xy -0.6691225 1.0440375)
      (xy -0.72266 1.1029875)
      (xy -0.7570425 1.1631375)
      (xy -0.79364515625 1.26702375)
      (xy -0.8051575 1.37196375)
      (xy -0.79161234375 1.476410625)
      (xy -0.7530425 1.5788175)
      (xy -0.717308125 1.638740625)
      (xy -0.6632175 1.6972125)
      (xy -0.581636203704 1.76442509259)
      (xy -0.496110462963 1.80821657407)
      (xy -0.3987325 1.8325525)
      (xy -0.30365 1.83410875)
      (xy -0.2069325 1.8210025)
      (xy -0.091688984375 1.77288796875)
      (xy 0.007071875 1.69566125)
      (xy 0.083058046875 1.59572265625)
      (xy 0.1299775 1.4794725)
      (xy 0.14326234375 1.37254460938)
      (xy 0.13179625 1.265906875)
      (xy 0.09678578125 1.16495695312)
      (xy 0.0394375 1.0750925)
      (xy -0.0376453125 0.99968078125)
      (xy -0.1264375 0.94449375)
      (xy -0.2242034375 0.91064984375)
      (xy -0.3282075 0.8992675)
      (xy -0.3284025 0.8992825)
    )
    (layer F.SilkS)
    (width 0.0242329282083)
  )
  (fp_poly
    (pts 
      (xy -1.3686775 1.6899125)
      (xy -1.52794934 1.8098689)
      (xy -1.67137902 1.9174041)
      (xy -1.78773478 2.0043401)
      (xy -1.86578486 2.0624989)
      (xy -1.8942975 2.0837025)
      (xy -1.99936009259 2.1626012037)
      (xy -2.09523157407 2.23456212963)
      (xy -2.1611575 2.2840075)
      (xy -2.2338587963 2.3385812037)
      (xy -2.3475412037 2.4239837963)
      (xy -2.4775725 2.5217375)
      (xy -2.5987137963 2.61273712963)
      (xy -2.68904953704 2.6804012037)
      (xy -2.7289475 2.7100375)
      (xy -2.7396475 2.7241875)
      (xy -2.66097875 2.7289)
      (xy -2.4770775 2.7350375)
      (xy -2.39449179977 2.73664412616)
      (xy -2.28400356481 2.73784884259)
      (xy -2.15172359375 2.73866640625)
      (xy -2.00376268518 2.73911157407)
      (xy -1.84623163773 2.73919910301)
      (xy -1.68524125 2.73894375)
      (xy -1.5269023206 2.73836027199)
      (xy -1.37732564815 2.73746342593)
      (xy -1.24262203125 2.73626796875)
      (xy -1.12890226852 2.73478865741)
      (xy -1.04227715856 2.73304024884)
      (xy -0.9888575 2.7310375)
      (xy -0.9107025 2.7265375)
      (xy -0.864613055556 2.72428564815)
      (xy -0.747520277778 2.71832268518)
      (xy -0.5911875 2.7098375)
      (xy -0.6027625 2.647371875)
      (xy -0.6164375 2.5648475)
      (xy -0.63548125 2.45028375)
      (xy -0.6466875 2.3949025)
      (xy -0.6936375 2.3671025)
      (xy -0.7748825 2.3353525)
      (xy -0.8149325 2.3181525)
      (xy -0.9450275 2.4177175)
      (xy -1.040379375 2.490015625)
      (xy -1.0870375 2.5238725)
      (xy -1.1225375 2.5304725)
      (xy -1.17049875 2.508056875)
      (xy -1.3176775 2.3722975)
      (xy -1.41528898148 2.27533305556)
      (xy -1.46904601852 2.21025527778)
      (xy -1.4856575 2.1689275)
      (xy -1.470194375 2.1225125)
      (xy -1.3843925 2.0074575)
      (xy -1.331246875 1.93901)
      (xy -1.2986175 1.8968275)
      (xy -1.2807675 1.8735275)
      (xy -1.3067175 1.8198625)
      (xy -1.3443675 1.7299475)
      (xy -1.3627175 1.6910975)
      (xy -1.3686675 1.6900975)
      (xy -1.3686775 1.6899125)
    )
    (layer F.SilkS)
    (width 0.0242329282083)
  )
)