(module firnsy-logo-bsilk (layer F.Cu) (tedit 5CAC9606)
  (fp_text reference REF** (at 0 -8.8) (layer F.SilkS) hide
    (effects (font (size 1 1) (thickness 0.15)))
  )
  (fp_text value firnsy-logo-bsilk (at 0 7.5) (layer F.Fab) hide
    (effects (font (size 1 1) (thickness 0.15)))
  )
  (fp_poly (pts (xy -0.1 -0.6) (xy -0.15 0.9) (xy -0.35 0.85) (xy -0.55 0.85)
    (xy -0.65 1) (xy -0.7 1.2) (xy -0.95 1.35) (xy -1.25 1.25)
    (xy -1.5 1.25) (xy -1.8 1.35) (xy -2 1.6) (xy -2.1 1.65)
    (xy -1.65 1.95) (xy -1.25 2.15) (xy -0.65 2.35) (xy 0.15 2.4)
    (xy 1.1 2.2) (xy 1.65 1.95) (xy 2.3 1.45) (xy 1.95 1.4)
    (xy 1.4 1.5) (xy 1 1.2) (xy 0.6 1.35) (xy 0.35 0.95)
    (xy 0.3 0.75) (xy 0.1 0.7) (xy 0.05 -0.6)) (layer B.SilkS) (width 0.15))
  (fp_line (start -0.2 0.9) (end -0.202064 0.94847) (layer B.SilkS) (width 0.153))
  (fp_line (start 1.314782 1.418364) (end 1.305945 1.401985) (layer B.SilkS) (width 0.153))
  (fp_line (start 1.305945 1.401985) (end 1.296438 1.386024) (layer B.SilkS) (width 0.153))
  (fp_line (start 1.296438 1.386024) (end 1.286282 1.370501) (layer B.SilkS) (width 0.153))
  (fp_line (start 1.286282 1.370501) (end 1.275493 1.355434) (layer B.SilkS) (width 0.153))
  (fp_line (start 1.275493 1.355434) (end 1.264091 1.34084) (layer B.SilkS) (width 0.153))
  (fp_line (start 1.264091 1.34084) (end 1.252094 1.326738) (layer B.SilkS) (width 0.153))
  (fp_line (start 1.252094 1.326738) (end 1.23952 1.313146) (layer B.SilkS) (width 0.153))
  (fp_line (start 1.23952 1.313146) (end 1.226388 1.300082) (layer B.SilkS) (width 0.153))
  (fp_line (start 1.226388 1.300082) (end 1.212716 1.287565) (layer B.SilkS) (width 0.153))
  (fp_line (start 1.212716 1.287565) (end 1.198523 1.275613) (layer B.SilkS) (width 0.153))
  (fp_line (start 1.198523 1.275613) (end 1.183826 1.264245) (layer B.SilkS) (width 0.153))
  (fp_line (start 1.183826 1.264245) (end 1.168646 1.253477) (layer B.SilkS) (width 0.153))
  (fp_line (start 1.168646 1.253477) (end 1.153 1.243329) (layer B.SilkS) (width 0.153))
  (fp_line (start 1.153 1.243329) (end 1.136906 1.233819) (layer B.SilkS) (width 0.153))
  (fp_line (start -0.183486 0.512245) (end -0.18555 0.560715) (layer B.SilkS) (width 0.153))
  (fp_line (start -0.553601 0.804612) (end -0.564389 0.80942) (layer B.SilkS) (width 0.153))
  (fp_line (start -0.171101 0.221429) (end -0.173165 0.269899) (layer B.SilkS) (width 0.153))
  (fp_line (start -2.020051 1.564765) (end -2.029612 1.586275) (layer B.SilkS) (width 0.153))
  (fp_line (start -2.029612 1.586275) (end -2.037475 1.581748) (layer B.SilkS) (width 0.153))
  (fp_line (start -2.037475 1.581748) (end -2.045391 1.577298) (layer B.SilkS) (width 0.153))
  (fp_line (start -2.045391 1.577298) (end -2.05336 1.572923) (layer B.SilkS) (width 0.153))
  (fp_line (start -2.05336 1.572923) (end -2.061382 1.568626) (layer B.SilkS) (width 0.153))
  (fp_line (start -2.061382 1.568626) (end -2.069456 1.564406) (layer B.SilkS) (width 0.153))
  (fp_line (start -2.069456 1.564406) (end -2.077583 1.560264) (layer B.SilkS) (width 0.153))
  (fp_line (start -1.262268 2.178881) (end -1.189442 2.208045) (layer B.SilkS) (width 0.153))
  (fp_line (start -1.189442 2.208045) (end -1.115918 2.235432) (layer B.SilkS) (width 0.153))
  (fp_line (start -1.115918 2.235432) (end -1.041728 2.261027) (layer B.SilkS) (width 0.153))
  (fp_line (start -1.041728 2.261027) (end -0.966905 2.284817) (layer B.SilkS) (width 0.153))
  (fp_line (start -0.966905 2.284817) (end -0.891481 2.306787) (layer B.SilkS) (width 0.153))
  (fp_line (start -0.891481 2.306787) (end -0.81549 2.326925) (layer B.SilkS) (width 0.153))
  (fp_line (start -0.81549 2.326925) (end -0.738964 2.345217) (layer B.SilkS) (width 0.153))
  (fp_line (start -0.166973 0.12449) (end -0.169037 0.17296) (layer B.SilkS) (width 0.153))
  (fp_line (start -0.152523 -0.214795) (end -0.154588 -0.166326) (layer B.SilkS) (width 0.153))
  (fp_line (start -0.205857 0.94939) (end -0.206614 0.949579) (layer B.SilkS) (width 0.153))
  (fp_line (start -0.585088 0.820503) (end -0.594969 0.826748) (layer B.SilkS) (width 0.153))
  (fp_line (start -0.223075 0.954183) (end -0.223815 0.954414) (layer B.SilkS) (width 0.153))
  (fp_line (start -0.217135 0.952402) (end -0.217881 0.952619) (layer B.SilkS) (width 0.153))
  (fp_line (start -0.926202 1.235663) (end -0.935181 1.243065) (layer B.SilkS) (width 0.153))
  (fp_line (start -0.177294 0.366837) (end -0.179358 0.415307) (layer B.SilkS) (width 0.153))
  (fp_line (start -0.221595 0.953726) (end -0.222336 0.953954) (layer B.SilkS) (width 0.153))
  (fp_line (start -0.67965 1.126492) (end -0.678236 1.129446) (layer B.SilkS) (width 0.153))
  (fp_line (start -0.687311 1.108332) (end -0.686135 1.111409) (layer B.SilkS) (width 0.153))
  (fp_line (start -0.700712 1.053288) (end -0.700289 1.056656) (layer B.SilkS) (width 0.153))
  (fp_line (start -0.209636 0.95035) (end -0.21039 0.950547) (layer B.SilkS) (width 0.153))
  (fp_line (start -0.212645 0.951148) (end -0.213396 0.951353) (layer B.SilkS) (width 0.153))
  (fp_line (start -0.179358 0.415307) (end -0.181422 0.463776) (layer B.SilkS) (width 0.153))
  (fp_line (start -0.692574 1.092663) (end -0.691606 1.095834) (layer B.SilkS) (width 0.153))
  (fp_line (start -0.837866 1.178733) (end -0.848306 1.184155) (layer B.SilkS) (width 0.153))
  (fp_line (start -0.783578 1.155267) (end -0.794702 1.159463) (layer B.SilkS) (width 0.153))
  (fp_line (start -0.217881 0.952619) (end -0.218625 0.952837) (layer B.SilkS) (width 0.153))
  (fp_line (start -0.232483 0.937056) (end -0.236237 0.928279) (layer B.SilkS) (width 0.153))
  (fp_line (start -0.202064 0.94847) (end -0.202824 0.948651) (layer B.SilkS) (width 0.153))
  (fp_line (start -0.594969 0.826748) (end -0.604517 0.833442) (layer B.SilkS) (width 0.153))
  (fp_line (start -2.135883 1.533489) (end -2.144409 1.529988) (layer B.SilkS) (width 0.153))
  (fp_line (start -2.144409 1.529988) (end -2.152982 1.526568) (layer B.SilkS) (width 0.153))
  (fp_line (start -2.152982 1.526568) (end -2.161603 1.523232) (layer B.SilkS) (width 0.153))
  (fp_line (start -2.161603 1.523232) (end -2.170271 1.519979) (layer B.SilkS) (width 0.153))
  (fp_line (start -2.170271 1.519979) (end -2.178985 1.516811) (layer B.SilkS) (width 0.153))
  (fp_line (start -2.178985 1.516811) (end -2.187745 1.513726) (layer B.SilkS) (width 0.153))
  (fp_line (start -2.187745 1.513726) (end -2.196551 1.510726) (layer B.SilkS) (width 0.153))
  (fp_line (start -0.16078 -0.020918) (end -0.162844 0.027552) (layer B.SilkS) (width 0.153))
  (fp_line (start -0.098457 -0.602548) (end -0.104716 -0.602548) (layer B.SilkS) (width 0.153))
  (fp_line (start -0.104716 -0.602548) (end -0.110976 -0.602548) (layer B.SilkS) (width 0.153))
  (fp_line (start -0.110976 -0.602548) (end -0.117235 -0.602548) (layer B.SilkS) (width 0.153))
  (fp_line (start -0.117235 -0.602548) (end -0.123495 -0.602548) (layer B.SilkS) (width 0.153))
  (fp_line (start -0.123495 -0.602548) (end -0.129754 -0.602548) (layer B.SilkS) (width 0.153))
  (fp_line (start -0.129754 -0.602548) (end -0.13601 -0.60255) (layer B.SilkS) (width 0.153))
  (fp_line (start -0.031617 -2.843368) (end 0.028048 -2.837353) (layer B.SilkS) (width 0.153))
  (fp_line (start 0.028048 -2.837353) (end 0.083621 -2.820101) (layer B.SilkS) (width 0.153))
  (fp_line (start 0.083621 -2.820101) (end 0.133911 -2.792804) (layer B.SilkS) (width 0.153))
  (fp_line (start -0.014465 -3.554795) (end -0.0262 -3.554706) (layer B.SilkS) (width 0.153))
  (fp_line (start -0.0262 -3.554706) (end -0.037865 -3.553334) (layer B.SilkS) (width 0.153))
  (fp_line (start -0.037865 -3.553334) (end -0.049344 -3.550687) (layer B.SilkS) (width 0.153))
  (fp_line (start -0.049344 -3.550687) (end -0.060523 -3.546773) (layer B.SilkS) (width 0.153))
  (fp_line (start -0.060523 -3.546773) (end -0.071286 -3.541599) (layer B.SilkS) (width 0.153))
  (fp_line (start -0.071286 -3.541599) (end -0.08152 -3.535173) (layer B.SilkS) (width 0.153))
  (fp_line (start -0.08152 -3.535173) (end -0.09111 -3.527504) (layer B.SilkS) (width 0.153))
  (fp_line (start -0.09111 -3.527504) (end -0.09994 -3.518599) (layer B.SilkS) (width 0.153))
  (fp_line (start -0.09994 -3.518599) (end -0.136053 -3.476153) (layer B.SilkS) (width 0.153))
  (fp_line (start 0.491402 1.08179) (end 0.485377 1.070385) (layer B.SilkS) (width 0.153))
  (fp_line (start 0.485377 1.070385) (end 0.478939 1.059235) (layer B.SilkS) (width 0.153))
  (fp_line (start 0.478939 1.059235) (end 0.472096 1.048349) (layer B.SilkS) (width 0.153))
  (fp_line (start 0.472096 1.048349) (end 0.46486 1.037738) (layer B.SilkS) (width 0.153))
  (fp_line (start 0.46486 1.037738) (end 0.457239 1.02741) (layer B.SilkS) (width 0.153))
  (fp_line (start 0.457239 1.02741) (end 0.449245 1.017376) (layer B.SilkS) (width 0.153))
  (fp_line (start 0.449245 1.017376) (end 0.440887 1.007646) (layer B.SilkS) (width 0.153))
  (fp_line (start 0.440887 1.007646) (end 0.432176 0.99823) (layer B.SilkS) (width 0.153))
  (fp_line (start 0.432176 0.99823) (end 0.423121 0.989137) (layer B.SilkS) (width 0.153))
  (fp_line (start 0.423121 0.989137) (end 0.413733 0.980377) (layer B.SilkS) (width 0.153))
  (fp_line (start 0.413733 0.980377) (end 0.404021 0.971961) (layer B.SilkS) (width 0.153))
  (fp_line (start 0.404021 0.971961) (end 0.393996 0.963898) (layer B.SilkS) (width 0.153))
  (fp_line (start 0.393996 0.963898) (end 0.383667 0.956197) (layer B.SilkS) (width 0.153))
  (fp_line (start 0.383667 0.956197) (end 0.373045 0.94887) (layer B.SilkS) (width 0.153))
  (fp_line (start 0.373045 0.94887) (end 0.36214 0.941925) (layer B.SilkS) (width 0.153))
  (fp_line (start 0.36214 0.941925) (end 0.350962 0.935373) (layer B.SilkS) (width 0.153))
  (fp_line (start -0.604517 0.833442) (end -0.613716 0.840569) (layer B.SilkS) (width 0.153))
  (fp_line (start -0.613716 0.840569) (end -0.622553 0.848115) (layer B.SilkS) (width 0.153))
  (fp_line (start -0.162844 0.027552) (end -0.164909 0.076021) (layer B.SilkS) (width 0.153))
  (fp_line (start -0.214894 0.951768) (end -0.215642 0.951978) (layer B.SilkS) (width 0.153))
  (fp_line (start -1.815559 1.312679) (end -1.834066 1.327141) (layer B.SilkS) (width 0.153))
  (fp_line (start -1.834066 1.327141) (end -1.852035 1.342216) (layer B.SilkS) (width 0.153))
  (fp_line (start -1.852035 1.342216) (end -1.869451 1.357886) (layer B.SilkS) (width 0.153))
  (fp_line (start -1.869451 1.357886) (end -1.886298 1.374134) (layer B.SilkS) (width 0.153))
  (fp_line (start -1.886298 1.374134) (end -1.90256 1.390945) (layer B.SilkS) (width 0.153))
  (fp_line (start -1.90256 1.390945) (end -1.918222 1.4083) (layer B.SilkS) (width 0.153))
  (fp_line (start -1.918222 1.4083) (end -1.933269 1.426184) (layer B.SilkS) (width 0.153))
  (fp_line (start -0.564389 0.80942) (end -0.574889 0.814722) (layer B.SilkS) (width 0.153))
  (fp_line (start -0.181422 0.463776) (end -0.183486 0.512245) (layer B.SilkS) (width 0.153))
  (fp_line (start -0.698734 1.066671) (end -0.698122 1.069978) (layer B.SilkS) (width 0.153))
  (fp_line (start -0.688448 1.105236) (end -0.687311 1.108332) (layer B.SilkS) (width 0.153))
  (fp_line (start 0.328233 0.836325) (end 0.328362 0.833406) (layer B.SilkS) (width 0.153))
  (fp_line (start 0.328362 0.833406) (end 0.328442 0.830474) (layer B.SilkS) (width 0.153))
  (fp_line (start 0.328442 0.830474) (end 0.328475 0.827529) (layer B.SilkS) (width 0.153))
  (fp_line (start 0.328475 0.827529) (end 0.328258 0.819088) (layer B.SilkS) (width 0.153))
  (fp_line (start 0.328258 0.819088) (end 0.327616 0.810757) (layer B.SilkS) (width 0.153))
  (fp_line (start 0.327616 0.810757) (end 0.326557 0.802548) (layer B.SilkS) (width 0.153))
  (fp_line (start 0.326557 0.802548) (end 0.325094 0.79447) (layer B.SilkS) (width 0.153))
  (fp_line (start 0.325094 0.79447) (end 0.323237 0.786533) (layer B.SilkS) (width 0.153))
  (fp_line (start 0.323237 0.786533) (end 0.320994 0.778749) (layer B.SilkS) (width 0.153))
  (fp_line (start 0.320994 0.778749) (end 0.318378 0.771127) (layer B.SilkS) (width 0.153))
  (fp_line (start 0.318378 0.771127) (end 0.315399 0.763677) (layer B.SilkS) (width 0.153))
  (fp_line (start 0.315399 0.763677) (end 0.312067 0.756411) (layer B.SilkS) (width 0.153))
  (fp_line (start 0.312067 0.756411) (end 0.308393 0.749337) (layer B.SilkS) (width 0.153))
  (fp_line (start 0.308393 0.749337) (end 0.304387 0.742467) (layer B.SilkS) (width 0.153))
  (fp_line (start 0.304387 0.742467) (end 0.300059 0.735811) (layer B.SilkS) (width 0.153))
  (fp_line (start 0.300059 0.735811) (end 0.29542 0.72938) (layer B.SilkS) (width 0.153))
  (fp_line (start 0.29542 0.72938) (end 0.290481 0.723182) (layer B.SilkS) (width 0.153))
  (fp_line (start -0.144267 -0.408673) (end -0.146331 -0.360203) (layer B.SilkS) (width 0.153))
  (fp_line (start -0.208883 0.950155) (end -0.209636 0.95035) (layer B.SilkS) (width 0.153))
  (fp_line (start -0.698122 1.069978) (end -0.697464 1.073269) (layer B.SilkS) (width 0.153))
  (fp_line (start 0.318403 0.883479) (end 0.319354 0.880851) (layer B.SilkS) (width 0.153))
  (fp_line (start 0.319354 0.880851) (end 0.320261 0.878204) (layer B.SilkS) (width 0.153))
  (fp_line (start 0.320261 0.878204) (end 0.321123 0.875536) (layer B.SilkS) (width 0.153))
  (fp_line (start 0.321123 0.875536) (end 0.321942 0.872849) (layer B.SilkS) (width 0.153))
  (fp_line (start 0.321942 0.872849) (end 0.322713 0.870143) (layer B.SilkS) (width 0.153))
  (fp_line (start 0.322713 0.870143) (end 0.32344 0.867418) (layer B.SilkS) (width 0.153))
  (fp_line (start 0.32344 0.867418) (end 0.324119 0.864675) (layer B.SilkS) (width 0.153))
  (fp_line (start 0.324119 0.864675) (end 0.324751 0.861914) (layer B.SilkS) (width 0.153))
  (fp_line (start 0.324751 0.861914) (end 0.325335 0.859135) (layer B.SilkS) (width 0.153))
  (fp_line (start 0.325335 0.859135) (end 0.325871 0.85634) (layer B.SilkS) (width 0.153))
  (fp_line (start 0.325871 0.85634) (end 0.326358 0.853528) (layer B.SilkS) (width 0.153))
  (fp_line (start 0.326358 0.853528) (end 0.326796 0.850699) (layer B.SilkS) (width 0.153))
  (fp_line (start 0.326796 0.850699) (end 0.327185 0.847854) (layer B.SilkS) (width 0.153))
  (fp_line (start 0.327185 0.847854) (end 0.327524 0.844994) (layer B.SilkS) (width 0.153))
  (fp_line (start 0.327524 0.844994) (end 0.327811 0.842119) (layer B.SilkS) (width 0.153))
  (fp_line (start 0.327811 0.842119) (end 0.328047 0.839229) (layer B.SilkS) (width 0.153))
  (fp_line (start 0.328047 0.839229) (end 0.328233 0.836325) (layer B.SilkS) (width 0.153))
  (fp_line (start 0.570126 1.277766) (end 0.567416 1.276925) (layer B.SilkS) (width 0.153))
  (fp_line (start 0.567416 1.276925) (end 0.564701 1.276094) (layer B.SilkS) (width 0.153))
  (fp_line (start 0.564701 1.276094) (end 0.561983 1.275272) (layer B.SilkS) (width 0.153))
  (fp_line (start 0.561983 1.275272) (end 0.559261 1.27446) (layer B.SilkS) (width 0.153))
  (fp_line (start 0.559261 1.27446) (end 0.556536 1.273659) (layer B.SilkS) (width 0.153))
  (fp_line (start 0.556536 1.273659) (end 0.553806 1.272868) (layer B.SilkS) (width 0.153))
  (fp_line (start 0.553806 1.272868) (end 0.551073 1.272087) (layer B.SilkS) (width 0.153))
  (fp_line (start 0.551073 1.272087) (end 0.548337 1.271317) (layer B.SilkS) (width 0.153))
  (fp_line (start 0.548337 1.271317) (end 0.545596 1.270557) (layer B.SilkS) (width 0.153))
  (fp_line (start 0.545596 1.270557) (end 0.542852 1.269808) (layer B.SilkS) (width 0.153))
  (fp_line (start 0.542852 1.269808) (end 0.540104 1.269068) (layer B.SilkS) (width 0.153))
  (fp_line (start 0.540104 1.269068) (end 0.537352 1.26834) (layer B.SilkS) (width 0.153))
  (fp_line (start 0.537352 1.26834) (end 0.534597 1.267622) (layer B.SilkS) (width 0.153))
  (fp_line (start 0.534597 1.267622) (end 0.531838 1.266915) (layer B.SilkS) (width 0.153))
  (fp_line (start 0.531838 1.266915) (end 0.529075 1.266219) (layer B.SilkS) (width 0.153))
  (fp_line (start -0.622553 0.848115) (end -0.63101 0.856065) (layer B.SilkS) (width 0.153))
  (fp_line (start 2.048798 1.658162) (end 2.110135 1.604689) (layer B.SilkS) (width 0.153))
  (fp_line (start 2.110135 1.604689) (end 2.170225 1.549565) (layer B.SilkS) (width 0.153))
  (fp_line (start 2.170225 1.549565) (end 2.229034 1.492807) (layer B.SilkS) (width 0.153))
  (fp_line (start 2.229034 1.492807) (end 2.286526 1.434429) (layer B.SilkS) (width 0.153))
  (fp_line (start 2.286526 1.434429) (end 2.275418 1.429667) (layer B.SilkS) (width 0.153))
  (fp_line (start 2.275418 1.429667) (end 2.264238 1.425038) (layer B.SilkS) (width 0.153))
  (fp_line (start 2.264238 1.425038) (end 2.252987 1.420545) (layer B.SilkS) (width 0.153))
  (fp_line (start 2.252987 1.420545) (end 2.241667 1.416187) (layer B.SilkS) (width 0.153))
  (fp_line (start 2.241667 1.416187) (end 2.230278 1.411967) (layer B.SilkS) (width 0.153))
  (fp_line (start 2.230278 1.411967) (end 2.218821 1.407886) (layer B.SilkS) (width 0.153))
  (fp_line (start -0.312828 0.833655) (end -0.320569 0.828159) (layer B.SilkS) (width 0.153))
  (fp_line (start -0.574889 0.814722) (end -0.585088 0.820503) (layer B.SilkS) (width 0.153))
  (fp_line (start -0.63101 0.856065) (end -0.639074 0.864403) (layer B.SilkS) (width 0.153))
  (fp_line (start -0.639074 0.864403) (end -0.646728 0.873115) (layer B.SilkS) (width 0.153))
  (fp_line (start -0.686135 1.111409) (end -0.684917 1.114466) (layer B.SilkS) (width 0.153))
  (fp_line (start -0.646728 0.873115) (end -0.653958 0.882185) (layer B.SilkS) (width 0.153))
  (fp_line (start -0.653958 0.882185) (end -0.660747 0.891598) (layer B.SilkS) (width 0.153))
  (fp_line (start -0.265577 0.879714) (end -0.271526 0.872378) (layer B.SilkS) (width 0.153))
  (fp_line (start -0.148395 -0.311734) (end -0.150459 -0.263264) (layer B.SilkS) (width 0.153))
  (fp_line (start -0.660747 0.891598) (end -0.667082 0.901339) (layer B.SilkS) (width 0.153))
  (fp_line (start -0.667082 0.901339) (end -0.672945 0.911394) (layer B.SilkS) (width 0.153))
  (fp_line (start -0.697464 1.073269) (end -0.69676 1.076543) (layer B.SilkS) (width 0.153))
  (fp_line (start -0.031616 -0.67677) (end 0.018287 -0.67677) (layer B.SilkS) (width 0.153))
  (fp_line (start 0.018287 -0.67677) (end 0.06819 -0.67677) (layer B.SilkS) (width 0.153))
  (fp_line (start 0.06819 -0.67677) (end 0.118093 -0.67677) (layer B.SilkS) (width 0.153))
  (fp_line (start 0.118093 -0.67677) (end 0.167996 -0.67677) (layer B.SilkS) (width 0.153))
  (fp_line (start 0.167996 -0.67677) (end 0.173783 -0.677269) (layer B.SilkS) (width 0.153))
  (fp_line (start 0.173783 -0.677269) (end 0.179279 -0.678717) (layer B.SilkS) (width 0.153))
  (fp_line (start 0.179279 -0.678717) (end 0.184391 -0.681037) (layer B.SilkS) (width 0.153))
  (fp_line (start 0.184391 -0.681037) (end 0.189023 -0.684154) (layer B.SilkS) (width 0.153))
  (fp_line (start 0.189023 -0.684154) (end 0.19308 -0.687991) (layer B.SilkS) (width 0.153))
  (fp_line (start 0.19308 -0.687991) (end 0.196466 -0.692473) (layer B.SilkS) (width 0.153))
  (fp_line (start 0.196466 -0.692473) (end 0.199088 -0.697522) (layer B.SilkS) (width 0.153))
  (fp_line (start 0.199088 -0.697522) (end 0.200849 -0.703065) (layer B.SilkS) (width 0.153))
  (fp_line (start 0.200849 -0.703065) (end 0.202985 -0.71248) (layer B.SilkS) (width 0.153))
  (fp_line (start 0.202985 -0.71248) (end 0.205121 -0.721895) (layer B.SilkS) (width 0.153))
  (fp_line (start 0.205121 -0.721895) (end 0.207257 -0.731311) (layer B.SilkS) (width 0.153))
  (fp_line (start 0.207257 -0.731311) (end 0.209394 -0.740726) (layer B.SilkS) (width 0.153))
  (fp_line (start 0.209394 -0.740726) (end 0.21153 -0.750142) (layer B.SilkS) (width 0.153))
  (fp_line (start 0.21153 -0.750142) (end 0.213666 -0.759557) (layer B.SilkS) (width 0.153))
  (fp_line (start 0.213666 -0.759557) (end 0.215802 -0.768973) (layer B.SilkS) (width 0.153))
  (fp_line (start 0.215802 -0.768973) (end 0.217938 -0.778388) (layer B.SilkS) (width 0.153))
  (fp_line (start 0.375083 2.398108) (end 0.45536 2.386733) (layer B.SilkS) (width 0.153))
  (fp_line (start 0.45536 2.386733) (end 0.535201 2.373363) (layer B.SilkS) (width 0.153))
  (fp_line (start 0.535201 2.373363) (end 0.614571 2.358011) (layer B.SilkS) (width 0.153))
  (fp_line (start 0.614571 2.358011) (end 0.693436 2.340694) (layer B.SilkS) (width 0.153))
  (fp_line (start 0.693436 2.340694) (end 0.771759 2.321425) (layer B.SilkS) (width 0.153))
  (fp_line (start 0.771759 2.321425) (end 0.849505 2.300221) (layer B.SilkS) (width 0.153))
  (fp_line (start 0.849505 2.300221) (end 0.926639 2.277096) (layer B.SilkS) (width 0.153))
  (fp_line (start -0.678236 1.129446) (end -0.690362 1.131211) (layer B.SilkS) (width 0.153))
  (fp_line (start -0.353679 0.809212) (end -0.362452 0.805275) (layer B.SilkS) (width 0.153))
  (fp_line (start -0.216389 0.952189) (end -0.217135 0.952402) (layer B.SilkS) (width 0.153))
  (fp_line (start 0.170656 0.663696) (end 0.162095 0.663483) (layer B.SilkS) (width 0.153))
  (fp_line (start 0.162095 0.663483) (end 0.160816 0.663489) (layer B.SilkS) (width 0.153))
  (fp_line (start 0.160816 0.663489) (end 0.159541 0.663504) (layer B.SilkS) (width 0.153))
  (fp_line (start 0.159541 0.663504) (end 0.158269 0.663536) (layer B.SilkS) (width 0.153))
  (fp_line (start 0.158269 0.663536) (end 0.156998 0.663569) (layer B.SilkS) (width 0.153))
  (fp_line (start 0.156998 0.663569) (end 0.155731 0.663617) (layer B.SilkS) (width 0.153))
  (fp_line (start 0.155731 0.663617) (end 0.154466 0.663666) (layer B.SilkS) (width 0.153))
  (fp_line (start 0.154466 0.663666) (end 0.153203 0.66373) (layer B.SilkS) (width 0.153))
  (fp_line (start 0.153203 0.66373) (end 0.151944 0.663811) (layer B.SilkS) (width 0.153))
  (fp_line (start 0.151944 0.663811) (end 0.150688 0.663892) (layer B.SilkS) (width 0.153))
  (fp_line (start 0.150688 0.663892) (end 0.149434 0.663988) (layer B.SilkS) (width 0.153))
  (fp_line (start 0.149434 0.663988) (end 0.148183 0.664101) (layer B.SilkS) (width 0.153))
  (fp_line (start 0.148183 0.664101) (end 0.146935 0.664214) (layer B.SilkS) (width 0.153))
  (fp_line (start 0.146935 0.664214) (end 0.145689 0.664344) (layer B.SilkS) (width 0.153))
  (fp_line (start 0.145689 0.664344) (end 0.144446 0.664473) (layer B.SilkS) (width 0.153))
  (fp_line (start 0.144446 0.664473) (end 0.143206 0.664618) (layer B.SilkS) (width 0.153))
  (fp_line (start 0.143206 0.664618) (end 0.141968 0.664763) (layer B.SilkS) (width 0.153))
  (fp_line (start -0.345096 0.813477) (end -0.353679 0.809212) (layer B.SilkS) (width 0.153))
  (fp_line (start -0.362452 0.805275) (end -0.371406 0.801675) (layer B.SilkS) (width 0.153))
  (fp_line (start -0.672945 0.911394) (end -0.678324 0.921746) (layer B.SilkS) (width 0.153))
  (fp_line (start 0.562552 -1.860822) (end 0.563713 -2.010097) (layer B.SilkS) (width 0.153))
  (fp_line (start 0.563713 -2.010097) (end 0.558667 -2.161762) (layer B.SilkS) (width 0.153))
  (fp_line (start 0.558667 -2.161762) (end 0.546951 -2.314478) (layer B.SilkS) (width 0.153))
  (fp_line (start 0.546951 -2.314478) (end 0.528104 -2.466902) (layer B.SilkS) (width 0.153))
  (fp_line (start 0.528104 -2.466902) (end 0.501662 -2.617693) (layer B.SilkS) (width 0.153))
  (fp_line (start 0.501662 -2.617693) (end 0.467161 -2.765509) (layer B.SilkS) (width 0.153))
  (fp_line (start 0.467161 -2.765509) (end 0.42414 -2.90901) (layer B.SilkS) (width 0.153))
  (fp_line (start 0.42414 -2.90901) (end 0.391934 -2.997954) (layer B.SilkS) (width 0.153))
  (fp_line (start 0.391934 -2.997954) (end 0.35593 -3.08423) (layer B.SilkS) (width 0.153))
  (fp_line (start 0.35593 -3.08423) (end 0.316001 -3.167485) (layer B.SilkS) (width 0.153))
  (fp_line (start 0.316001 -3.167485) (end 0.272022 -3.247365) (layer B.SilkS) (width 0.153))
  (fp_line (start 0.272022 -3.247365) (end 0.223865 -3.323514) (layer B.SilkS) (width 0.153))
  (fp_line (start 0.223865 -3.323514) (end 0.171406 -3.395579) (layer B.SilkS) (width 0.153))
  (fp_line (start 0.171406 -3.395579) (end 0.114516 -3.463205) (layer B.SilkS) (width 0.153))
  (fp_line (start 0.114516 -3.463205) (end 0.053072 -3.526038) (layer B.SilkS) (width 0.153))
  (fp_line (start 0.053072 -3.526038) (end 0.045671 -3.532426) (layer B.SilkS) (width 0.153))
  (fp_line (start 0.045671 -3.532426) (end 0.037865 -3.538009) (layer B.SilkS) (width 0.153))
  (fp_line (start 0.037865 -3.538009) (end 0.029707 -3.54279) (layer B.SilkS) (width 0.153))
  (fp_line (start 0.029707 -3.54279) (end 0.02125 -3.546774) (layer B.SilkS) (width 0.153))
  (fp_line (start 0.02125 -3.546774) (end 0.012551 -3.549963) (layer B.SilkS) (width 0.153))
  (fp_line (start 0.012551 -3.549963) (end 0.003663 -3.55236) (layer B.SilkS) (width 0.153))
  (fp_line (start -0.678324 0.921746) (end -0.6832 0.932382) (layer B.SilkS) (width 0.153))
  (fp_line (start 1.976997 1.357064) (end 1.964349 1.35615) (layer B.SilkS) (width 0.153))
  (fp_line (start 1.964349 1.35615) (end 1.951657 1.355401) (layer B.SilkS) (width 0.153))
  (fp_line (start 1.951657 1.355401) (end 1.938919 1.354817) (layer B.SilkS) (width 0.153))
  (fp_line (start 1.938919 1.354817) (end 1.926138 1.354397) (layer B.SilkS) (width 0.153))
  (fp_line (start 1.926138 1.354397) (end 1.913315 1.354145) (layer B.SilkS) (width 0.153))
  (fp_line (start 1.913315 1.354145) (end 1.90045 1.354065) (layer B.SilkS) (width 0.153))
  (fp_line (start 1.90045 1.354065) (end 1.881385 1.354249) (layer B.SilkS) (width 0.153))
  (fp_line (start 1.881385 1.354249) (end 1.862412 1.354799) (layer B.SilkS) (width 0.153))
  (fp_line (start 1.862412 1.354799) (end 1.843534 1.355713) (layer B.SilkS) (width 0.153))
  (fp_line (start 1.843534 1.355713) (end 1.824754 1.356987) (layer B.SilkS) (width 0.153))
  (fp_line (start 1.824754 1.356987) (end 1.806076 1.358615) (layer B.SilkS) (width 0.153))
  (fp_line (start -1.18768 1.211507) (end -1.201319 1.207084) (layer B.SilkS) (width 0.153))
  (fp_line (start -1.201319 1.207084) (end -1.21508 1.20294) (layer B.SilkS) (width 0.153))
  (fp_line (start -1.21508 1.20294) (end -1.22896 1.199081) (layer B.SilkS) (width 0.153))
  (fp_line (start -1.22896 1.199081) (end -1.242955 1.195508) (layer B.SilkS) (width 0.153))
  (fp_line (start -1.242955 1.195508) (end -1.257061 1.192225) (layer B.SilkS) (width 0.153))
  (fp_line (start -1.257061 1.192225) (end -1.271275 1.189236) (layer B.SilkS) (width 0.153))
  (fp_line (start -1.000213 1.309257) (end -1.011586 1.301025) (layer B.SilkS) (width 0.153))
  (fp_line (start -1.011586 1.301025) (end -1.023135 1.293023) (layer B.SilkS) (width 0.153))
  (fp_line (start -1.023135 1.293023) (end -1.034857 1.285256) (layer B.SilkS) (width 0.153))
  (fp_line (start -1.034857 1.285256) (end -1.046748 1.277726) (layer B.SilkS) (width 0.153))
  (fp_line (start -1.046748 1.277726) (end -1.058805 1.270436) (layer B.SilkS) (width 0.153))
  (fp_line (start -0.6832 0.932382) (end -0.687561 0.943285) (layer B.SilkS) (width 0.153))
  (fp_line (start -0.164909 0.076021) (end -0.166973 0.12449) (layer B.SilkS) (width 0.153))
  (fp_line (start -0.220112 0.953277) (end -0.220854 0.9535) (layer B.SilkS) (width 0.153))
  (fp_line (start 0.883055 1.177232) (end 0.872343 1.17812) (layer B.SilkS) (width 0.153))
  (fp_line (start 0.872343 1.17812) (end 0.861705 1.179255) (layer B.SilkS) (width 0.153))
  (fp_line (start 0.861705 1.179255) (end 0.851143 1.180634) (layer B.SilkS) (width 0.153))
  (fp_line (start 0.851143 1.180634) (end 0.84066 1.182254) (layer B.SilkS) (width 0.153))
  (fp_line (start 0.84066 1.182254) (end 0.830259 1.184112) (layer B.SilkS) (width 0.153))
  (fp_line (start 0.830259 1.184112) (end 0.819944 1.186206) (layer B.SilkS) (width 0.153))
  (fp_line (start 0.819944 1.186206) (end 0.809717 1.188532) (layer B.SilkS) (width 0.153))
  (fp_line (start 0.809717 1.188532) (end 0.799581 1.191088) (layer B.SilkS) (width 0.153))
  (fp_line (start 0.799581 1.191088) (end 0.789538 1.19387) (layer B.SilkS) (width 0.153))
  (fp_line (start 0.789538 1.19387) (end 0.779593 1.196875) (layer B.SilkS) (width 0.153))
  (fp_line (start 0.779593 1.196875) (end 0.769748 1.200101) (layer B.SilkS) (width 0.153))
  (fp_line (start 0.769748 1.200101) (end 0.760006 1.203545) (layer B.SilkS) (width 0.153))
  (fp_line (start 0.760006 1.203545) (end 0.750369 1.207203) (layer B.SilkS) (width 0.153))
  (fp_line (start 0.750369 1.207203) (end 0.740842 1.211073) (layer B.SilkS) (width 0.153))
  (fp_line (start 0.740842 1.211073) (end 0.731425 1.215151) (layer B.SilkS) (width 0.153))
  (fp_line (start -0.69676 1.076543) (end -0.696011 1.079802) (layer B.SilkS) (width 0.153))
  (fp_line (start -0.222336 0.953954) (end -0.223075 0.954183) (layer B.SilkS) (width 0.153))
  (fp_line (start -0.211895 0.950946) (end -0.212645 0.951148) (layer B.SilkS) (width 0.153))
  (fp_line (start -0.226025 0.955121) (end -0.229076 0.946006) (layer B.SilkS) (width 0.153))
  (fp_line (start 1.42783 1.477458) (end 1.412435 1.486313) (layer B.SilkS) (width 0.153))
  (fp_line (start 1.412435 1.486313) (end 1.397223 1.495439) (layer B.SilkS) (width 0.153))
  (fp_line (start 1.397223 1.495439) (end 1.382198 1.504834) (layer B.SilkS) (width 0.153))
  (fp_line (start 1.382198 1.504834) (end 1.367364 1.514495) (layer B.SilkS) (width 0.153))
  (fp_line (start 1.367364 1.514495) (end 1.352723 1.524417) (layer B.SilkS) (width 0.153))
  (fp_line (start 1.352723 1.524417) (end 1.348287 1.505907) (layer B.SilkS) (width 0.153))
  (fp_line (start 1.348287 1.505907) (end 1.343072 1.487706) (layer B.SilkS) (width 0.153))
  (fp_line (start 1.343072 1.487706) (end 1.337095 1.469833) (layer B.SilkS) (width 0.153))
  (fp_line (start 1.337095 1.469833) (end 1.330375 1.452307) (layer B.SilkS) (width 0.153))
  (fp_line (start 1.330375 1.452307) (end 1.322932 1.435144) (layer B.SilkS) (width 0.153))
  (fp_line (start 1.322932 1.435144) (end 1.314782 1.418364) (layer B.SilkS) (width 0.153))
  (fp_line (start -0.193807 0.754592) (end -0.195871 0.803062) (layer B.SilkS) (width 0.153))
  (fp_line (start -0.687561 0.943285) (end -0.691389 0.954441) (layer B.SilkS) (width 0.153))
  (fp_line (start -0.281801 -0.781099) (end -0.27959 -0.771345) (layer B.SilkS) (width 0.153))
  (fp_line (start -0.27959 -0.771345) (end -0.277379 -0.761591) (layer B.SilkS) (width 0.153))
  (fp_line (start -0.277379 -0.761591) (end -0.275168 -0.751836) (layer B.SilkS) (width 0.153))
  (fp_line (start -0.275168 -0.751836) (end -0.272957 -0.742082) (layer B.SilkS) (width 0.153))
  (fp_line (start -0.272957 -0.742082) (end -0.270746 -0.732328) (layer B.SilkS) (width 0.153))
  (fp_line (start -0.270746 -0.732328) (end -0.268535 -0.722573) (layer B.SilkS) (width 0.153))
  (fp_line (start -0.268535 -0.722573) (end -0.266324 -0.712819) (layer B.SilkS) (width 0.153))
  (fp_line (start -0.266324 -0.712819) (end -0.264113 -0.703065) (layer B.SilkS) (width 0.153))
  (fp_line (start -0.264113 -0.703065) (end -0.262345 -0.697522) (layer B.SilkS) (width 0.153))
  (fp_line (start -0.262345 -0.697522) (end -0.259719 -0.692473) (layer B.SilkS) (width 0.153))
  (fp_line (start -0.259719 -0.692473) (end -0.25633 -0.687991) (layer B.SilkS) (width 0.153))
  (fp_line (start -0.25633 -0.687991) (end -0.252271 -0.684154) (layer B.SilkS) (width 0.153))
  (fp_line (start -0.252271 -0.684154) (end -0.247638 -0.681037) (layer B.SilkS) (width 0.153))
  (fp_line (start -0.247638 -0.681037) (end -0.242523 -0.678717) (layer B.SilkS) (width 0.153))
  (fp_line (start -0.242523 -0.678717) (end -0.237022 -0.677269) (layer B.SilkS) (width 0.153))
  (fp_line (start -0.237022 -0.677269) (end -0.231228 -0.67677) (layer B.SilkS) (width 0.153))
  (fp_line (start -0.231228 -0.67677) (end -0.181325 -0.67677) (layer B.SilkS) (width 0.153))
  (fp_line (start -0.181325 -0.67677) (end -0.131422 -0.67677) (layer B.SilkS) (width 0.153))
  (fp_line (start -0.131422 -0.67677) (end -0.081519 -0.67677) (layer B.SilkS) (width 0.153))
  (fp_line (start -0.081519 -0.67677) (end -0.031616 -0.67677) (layer B.SilkS) (width 0.153))
  (fp_line (start -0.691389 0.954441) (end -0.694671 0.965835) (layer B.SilkS) (width 0.153))
  (fp_line (start -1.058805 1.270436) (end -1.071023 1.263391) (layer B.SilkS) (width 0.153))
  (fp_line (start -1.071023 1.263391) (end -1.0834 1.256593) (layer B.SilkS) (width 0.153))
  (fp_line (start -1.0834 1.256593) (end -1.095932 1.250045) (layer B.SilkS) (width 0.153))
  (fp_line (start -1.095932 1.250045) (end -1.108614 1.243752) (layer B.SilkS) (width 0.153))
  (fp_line (start -1.108614 1.243752) (end -1.121444 1.237715) (layer B.SilkS) (width 0.153))
  (fp_line (start 0.926639 2.277096) (end 1.003127 2.252066) (layer B.SilkS) (width 0.153))
  (fp_line (start 1.003127 2.252066) (end 1.078932 2.225144) (layer B.SilkS) (width 0.153))
  (fp_line (start 1.078932 2.225144) (end 1.154019 2.196348) (layer B.SilkS) (width 0.153))
  (fp_line (start 1.154019 2.196348) (end 1.228353 2.16569) (layer B.SilkS) (width 0.153))
  (fp_line (start 1.228353 2.16569) (end 1.301899 2.133187) (layer B.SilkS) (width 0.153))
  (fp_line (start 1.301899 2.133187) (end 1.374621 2.098854) (layer B.SilkS) (width 0.153))
  (fp_line (start 1.374621 2.098854) (end 1.446485 2.062706) (layer B.SilkS) (width 0.153))
  (fp_line (start -0.98514 1.291597) (end -0.992779 1.300338) (layer B.SilkS) (width 0.153))
  (fp_line (start -0.694671 0.965835) (end -0.69739 0.977451) (layer B.SilkS) (width 0.153))
  (fp_line (start -0.202824 0.948651) (end -0.203583 0.948833) (layer B.SilkS) (width 0.153))
  (fp_line (start -0.208127 0.949961) (end -0.208883 0.950155) (layer B.SilkS) (width 0.153))
  (fp_line (start 0.118916 0.588904) (end 0.117095 0.549189) (layer B.SilkS) (width 0.153))
  (fp_line (start 0.117095 0.549189) (end 0.115274 0.509474) (layer B.SilkS) (width 0.153))
  (fp_line (start 0.115274 0.509474) (end 0.113453 0.469759) (layer B.SilkS) (width 0.153))
  (fp_line (start 0.113453 0.469759) (end 0.111632 0.430044) (layer B.SilkS) (width 0.153))
  (fp_line (start 0.111632 0.430044) (end 0.109812 0.390329) (layer B.SilkS) (width 0.153))
  (fp_line (start 0.109812 0.390329) (end 0.107991 0.350614) (layer B.SilkS) (width 0.153))
  (fp_line (start 0.107991 0.350614) (end 0.10617 0.310898) (layer B.SilkS) (width 0.153))
  (fp_line (start 0.10617 0.310898) (end 0.104349 0.271183) (layer B.SilkS) (width 0.153))
  (fp_line (start 0.104349 0.271183) (end 0.102528 0.231468) (layer B.SilkS) (width 0.153))
  (fp_line (start 0.102528 0.231468) (end 0.100708 0.191753) (layer B.SilkS) (width 0.153))
  (fp_line (start 0.100708 0.191753) (end 0.098887 0.152038) (layer B.SilkS) (width 0.153))
  (fp_line (start 0.098887 0.152038) (end 0.097066 0.112323) (layer B.SilkS) (width 0.153))
  (fp_line (start 0.097066 0.112323) (end 0.095245 0.072608) (layer B.SilkS) (width 0.153))
  (fp_line (start 0.095245 0.072608) (end 0.093424 0.032893) (layer B.SilkS) (width 0.153))
  (fp_line (start 0.093424 0.032893) (end 0.091603 -0.006822) (layer B.SilkS) (width 0.153))
  (fp_line (start 0.091603 -0.006822) (end 0.089783 -0.046537) (layer B.SilkS) (width 0.153))
  (fp_line (start 0.089783 -0.046537) (end 0.087962 -0.086252) (layer B.SilkS) (width 0.153))
  (fp_line (start 0.087962 -0.086252) (end 0.086141 -0.125967) (layer B.SilkS) (width 0.153))
  (fp_line (start -0.142203 -0.457142) (end -0.144267 -0.408673) (layer B.SilkS) (width 0.153))
  (fp_line (start -1.508689 1.183843) (end -1.533094 1.18798) (layer B.SilkS) (width 0.153))
  (fp_line (start -1.533094 1.18798) (end -1.557179 1.192963) (layer B.SilkS) (width 0.153))
  (fp_line (start -1.557179 1.192963) (end -1.580928 1.198775) (layer B.SilkS) (width 0.153))
  (fp_line (start -1.580928 1.198775) (end -1.604325 1.2054) (layer B.SilkS) (width 0.153))
  (fp_line (start -1.604325 1.2054) (end -1.627356 1.212822) (layer B.SilkS) (width 0.153))
  (fp_line (start -1.627356 1.212822) (end -1.650004 1.221023) (layer B.SilkS) (width 0.153))
  (fp_line (start -1.650004 1.221023) (end -1.672255 1.229986) (layer B.SilkS) (width 0.153))
  (fp_line (start -1.373487 1.17681) (end -1.388433 1.176288) (layer B.SilkS) (width 0.153))
  (fp_line (start -1.388433 1.176288) (end -1.403455 1.17609) (layer B.SilkS) (width 0.153))
  (fp_line (start -1.403455 1.17609) (end -1.418548 1.176219) (layer B.SilkS) (width 0.153))
  (fp_line (start -1.418548 1.176219) (end -1.433709 1.176677) (layer B.SilkS) (width 0.153))
  (fp_line (start -1.433709 1.176677) (end -1.458981 1.178175) (layer B.SilkS) (width 0.153))
  (fp_line (start -1.458981 1.178175) (end -1.48398 1.180569) (layer B.SilkS) (width 0.153))
  (fp_line (start -1.48398 1.180569) (end -1.508689 1.183843) (layer B.SilkS) (width 0.153))
  (fp_line (start -1.271275 1.189236) (end -1.285593 1.186544) (layer B.SilkS) (width 0.153))
  (fp_line (start -1.285593 1.186544) (end -1.300012 1.184152) (layer B.SilkS) (width 0.153))
  (fp_line (start -1.300012 1.184152) (end -1.314528 1.182064) (layer B.SilkS) (width 0.153))
  (fp_line (start -1.314528 1.182064) (end -1.329137 1.180282) (layer B.SilkS) (width 0.153))
  (fp_line (start -1.329137 1.180282) (end -1.343835 1.17881) (layer B.SilkS) (width 0.153))
  (fp_line (start -1.343835 1.17881) (end -1.35862 1.177651) (layer B.SilkS) (width 0.153))
  (fp_line (start -1.35862 1.177651) (end -1.373487 1.17681) (layer B.SilkS) (width 0.153))
  (fp_line (start -1.672255 1.229986) (end -1.694092 1.239695) (layer B.SilkS) (width 0.153))
  (fp_line (start -1.694092 1.239695) (end -1.7155 1.250134) (layer B.SilkS) (width 0.153))
  (fp_line (start -1.7155 1.250134) (end -1.736463 1.261285) (layer B.SilkS) (width 0.153))
  (fp_line (start -1.736463 1.261285) (end -1.756966 1.273132) (layer B.SilkS) (width 0.153))
  (fp_line (start -1.756966 1.273132) (end -1.776993 1.285657) (layer B.SilkS) (width 0.153))
  (fp_line (start -1.776993 1.285657) (end -1.796529 1.298845) (layer B.SilkS) (width 0.153))
  (fp_line (start -1.796529 1.298845) (end -1.815559 1.312679) (layer B.SilkS) (width 0.153))
  (fp_line (start -0.69739 0.977451) (end -0.699532 0.989275) (layer B.SilkS) (width 0.153))
  (fp_line (start -1.933269 1.426184) (end -1.947684 1.44458) (layer B.SilkS) (width 0.153))
  (fp_line (start -1.947684 1.44458) (end -1.961453 1.463471) (layer B.SilkS) (width 0.153))
  (fp_line (start -1.961453 1.463471) (end -1.974559 1.48284) (layer B.SilkS) (width 0.153))
  (fp_line (start -1.974559 1.48284) (end -1.986988 1.502671) (layer B.SilkS) (width 0.153))
  (fp_line (start -1.986988 1.502671) (end -1.998723 1.522946) (layer B.SilkS) (width 0.153))
  (fp_line (start -1.998723 1.522946) (end -2.009749 1.54365) (layer B.SilkS) (width 0.153))
  (fp_line (start -2.009749 1.54365) (end -2.020051 1.564765) (layer B.SilkS) (width 0.153))
  (fp_line (start -0.371406 0.801675) (end -0.380534 0.798418) (layer B.SilkS) (width 0.153))
  (fp_line (start 0.731425 1.215151) (end 0.722124 1.219436) (layer B.SilkS) (width 0.153))
  (fp_line (start 0.722124 1.219436) (end 0.71294 1.223923) (layer B.SilkS) (width 0.153))
  (fp_line (start 0.71294 1.223923) (end 0.703877 1.22861) (layer B.SilkS) (width 0.153))
  (fp_line (start 0.703877 1.22861) (end 0.694937 1.233494) (layer B.SilkS) (width 0.153))
  (fp_line (start 0.694937 1.233494) (end 0.686124 1.238572) (layer B.SilkS) (width 0.153))
  (fp_line (start 0.686124 1.238572) (end 0.67744 1.243841) (layer B.SilkS) (width 0.153))
  (fp_line (start 0.67744 1.243841) (end 0.668889 1.249298) (layer B.SilkS) (width 0.153))
  (fp_line (start 0.668889 1.249298) (end 0.660473 1.254941) (layer B.SilkS) (width 0.153))
  (fp_line (start 0.660473 1.254941) (end 0.652195 1.260765) (layer B.SilkS) (width 0.153))
  (fp_line (start 0.652195 1.260765) (end 0.644058 1.266769) (layer B.SilkS) (width 0.153))
  (fp_line (start 0.644058 1.266769) (end 0.636066 1.272949) (layer B.SilkS) (width 0.153))
  (fp_line (start 0.636066 1.272949) (end 0.628221 1.279303) (layer B.SilkS) (width 0.153))
  (fp_line (start 0.628221 1.279303) (end 0.620525 1.285826) (layer B.SilkS) (width 0.153))
  (fp_line (start 0.620525 1.285826) (end 0.612983 1.292518) (layer B.SilkS) (width 0.153))
  (fp_line (start 0.612983 1.292518) (end 0.610333 1.291527) (layer B.SilkS) (width 0.153))
  (fp_line (start 1.136906 1.233819) (end 1.120383 1.224965) (layer B.SilkS) (width 0.153))
  (fp_line (start 1.120383 1.224965) (end 1.10345 1.216785) (layer B.SilkS) (width 0.153))
  (fp_line (start 1.10345 1.216785) (end 1.086125 1.209297) (layer B.SilkS) (width 0.153))
  (fp_line (start 1.086125 1.209297) (end 1.068426 1.202521) (layer B.SilkS) (width 0.153))
  (fp_line (start 1.068426 1.202521) (end 1.050372 1.196473) (layer B.SilkS) (width 0.153))
  (fp_line (start 1.050372 1.196473) (end 1.031982 1.191172) (layer B.SilkS) (width 0.153))
  (fp_line (start 1.031982 1.191172) (end 1.013273 1.186637) (layer B.SilkS) (width 0.153))
  (fp_line (start 1.013273 1.186637) (end 0.994264 1.182886) (layer B.SilkS) (width 0.153))
  (fp_line (start 0.994264 1.182886) (end 0.974974 1.179936) (layer B.SilkS) (width 0.153))
  (fp_line (start 0.974974 1.179936) (end 0.955421 1.177807) (layer B.SilkS) (width 0.153))
  (fp_line (start 0.955421 1.177807) (end 0.935624 1.176516) (layer B.SilkS) (width 0.153))
  (fp_line (start 0.935624 1.176516) (end 0.915601 1.176081) (layer B.SilkS) (width 0.153))
  (fp_line (start 0.915601 1.176081) (end 0.904687 1.17621) (layer B.SilkS) (width 0.153))
  (fp_line (start 0.904687 1.17621) (end 0.893837 1.176595) (layer B.SilkS) (width 0.153))
  (fp_line (start 0.893837 1.176595) (end 0.883055 1.177232) (layer B.SilkS) (width 0.153))
  (fp_line (start -0.696011 1.079802) (end -0.695218 1.083043) (layer B.SilkS) (width 0.153))
  (fp_line (start -0.977298 1.283035) (end -0.98514 1.291597) (layer B.SilkS) (width 0.153))
  (fp_line (start 0.020475 -0.602548) (end 0.014215 -0.602548) (layer B.SilkS) (width 0.153))
  (fp_line (start 0.014215 -0.602548) (end 0.007955 -0.602548) (layer B.SilkS) (width 0.153))
  (fp_line (start 0.007955 -0.602548) (end 0.001696 -0.602548) (layer B.SilkS) (width 0.153))
  (fp_line (start 0.001696 -0.602548) (end -0.004564 -0.602548) (layer B.SilkS) (width 0.153))
  (fp_line (start -0.004564 -0.602548) (end -0.010823 -0.602548) (layer B.SilkS) (width 0.153))
  (fp_line (start -0.010823 -0.602548) (end -0.017083 -0.602548) (layer B.SilkS) (width 0.153))
  (fp_line (start -0.017083 -0.602548) (end -0.023342 -0.602548) (layer B.SilkS) (width 0.153))
  (fp_line (start -0.023342 -0.602548) (end -0.029602 -0.602548) (layer B.SilkS) (width 0.153))
  (fp_line (start -0.029602 -0.602548) (end -0.035861 -0.602548) (layer B.SilkS) (width 0.153))
  (fp_line (start -0.035861 -0.602548) (end -0.042121 -0.602548) (layer B.SilkS) (width 0.153))
  (fp_line (start -0.042121 -0.602548) (end -0.04838 -0.602548) (layer B.SilkS) (width 0.153))
  (fp_line (start -0.04838 -0.602548) (end -0.05464 -0.602548) (layer B.SilkS) (width 0.153))
  (fp_line (start -0.05464 -0.602548) (end -0.060899 -0.602548) (layer B.SilkS) (width 0.153))
  (fp_line (start -0.060899 -0.602548) (end -0.067159 -0.602548) (layer B.SilkS) (width 0.153))
  (fp_line (start -0.067159 -0.602548) (end -0.073418 -0.602548) (layer B.SilkS) (width 0.153))
  (fp_line (start -0.073418 -0.602548) (end -0.079678 -0.602548) (layer B.SilkS) (width 0.153))
  (fp_line (start -0.079678 -0.602548) (end -0.085938 -0.602548) (layer B.SilkS) (width 0.153))
  (fp_line (start -0.085938 -0.602548) (end -0.092197 -0.602548) (layer B.SilkS) (width 0.153))
  (fp_line (start -0.092197 -0.602548) (end -0.098457 -0.602548) (layer B.SilkS) (width 0.153))
  (fp_line (start -0.797652 -0.537315) (end -0.730811 -0.625582) (layer B.SilkS) (width 0.153))
  (fp_line (start -0.730811 -0.625582) (end -0.644624 -0.71144) (layer B.SilkS) (width 0.153))
  (fp_line (start -0.644624 -0.71144) (end -0.537455 -0.786851) (layer B.SilkS) (width 0.153))
  (fp_line (start -0.537455 -0.786851) (end -0.407665 -0.84378) (layer B.SilkS) (width 0.153))
  (fp_line (start -0.407665 -0.84378) (end -0.402409 -0.8319) (layer B.SilkS) (width 0.153))
  (fp_line (start -0.402409 -0.8319) (end -0.397078 -0.82011) (layer B.SilkS) (width 0.153))
  (fp_line (start -0.397078 -0.82011) (end -0.391672 -0.808415) (layer B.SilkS) (width 0.153))
  (fp_line (start -0.391672 -0.808415) (end -0.386187 -0.796825) (layer B.SilkS) (width 0.153))
  (fp_line (start -0.386187 -0.796825) (end -0.380623 -0.785347) (layer B.SilkS) (width 0.153))
  (fp_line (start -0.380623 -0.785347) (end -0.374977 -0.773986) (layer B.SilkS) (width 0.153))
  (fp_line (start -0.374977 -0.773986) (end -0.369246 -0.762752) (layer B.SilkS) (width 0.153))
  (fp_line (start -0.369246 -0.762752) (end -0.36343 -0.751652) (layer B.SilkS) (width 0.153))
  (fp_line (start -0.36343 -0.751652) (end -0.362049 -0.752296) (layer B.SilkS) (width 0.153))
  (fp_line (start -0.362049 -0.752296) (end -0.357967 -0.754125) (layer B.SilkS) (width 0.153))
  (fp_line (start -0.357967 -0.754125) (end -0.351273 -0.75698) (layer B.SilkS) (width 0.153))
  (fp_line (start -0.351273 -0.75698) (end -0.342058 -0.760703) (layer B.SilkS) (width 0.153))
  (fp_line (start -0.342058 -0.760703) (end -0.330413 -0.765134) (layer B.SilkS) (width 0.153))
  (fp_line (start -0.330413 -0.765134) (end -0.316429 -0.770116) (layer B.SilkS) (width 0.153))
  (fp_line (start -0.316429 -0.770116) (end -0.300194 -0.775491) (layer B.SilkS) (width 0.153))
  (fp_line (start -0.300194 -0.775491) (end -0.281801 -0.781099) (layer B.SilkS) (width 0.153))
  (fp_line (start -0.380534 0.798418) (end -0.389827 0.795515) (layer B.SilkS) (width 0.153))
  (fp_line (start -0.69438 1.086267) (end -0.693499 1.089474) (layer B.SilkS) (width 0.153))
  (fp_line (start -1.749718 1.926083) (end -1.682705 1.967313) (layer B.SilkS) (width 0.153))
  (fp_line (start -1.682705 1.967313) (end -1.614763 2.006861) (layer B.SilkS) (width 0.153))
  (fp_line (start -1.614763 2.006861) (end -1.545924 2.044712) (layer B.SilkS) (width 0.153))
  (fp_line (start -1.545924 2.044712) (end -1.476223 2.080853) (layer B.SilkS) (width 0.153))
  (fp_line (start -1.476223 2.080853) (end -1.405691 2.115271) (layer B.SilkS) (width 0.153))
  (fp_line (start -1.405691 2.115271) (end -1.334362 2.147951) (layer B.SilkS) (width 0.153))
  (fp_line (start -1.334362 2.147951) (end -1.262268 2.178881) (layer B.SilkS) (width 0.153))
  (fp_line (start 2.218821 1.407886) (end 2.207297 1.403943) (layer B.SilkS) (width 0.153))
  (fp_line (start 2.207297 1.403943) (end 2.195707 1.400142) (layer B.SilkS) (width 0.153))
  (fp_line (start 2.195707 1.400142) (end 2.184053 1.396482) (layer B.SilkS) (width 0.153))
  (fp_line (start 2.184053 1.396482) (end 2.172334 1.392965) (layer B.SilkS) (width 0.153))
  (fp_line (start 2.172334 1.392965) (end 2.160553 1.389592) (layer B.SilkS) (width 0.153))
  (fp_line (start 2.160553 1.389592) (end 2.148711 1.386365) (layer B.SilkS) (width 0.153))
  (fp_line (start 2.148711 1.386365) (end 2.136807 1.383284) (layer B.SilkS) (width 0.153))
  (fp_line (start 2.136807 1.383284) (end 2.124844 1.38035) (layer B.SilkS) (width 0.153))
  (fp_line (start 2.124844 1.38035) (end 2.112822 1.377565) (layer B.SilkS) (width 0.153))
  (fp_line (start 2.112822 1.377565) (end 2.100743 1.37493) (layer B.SilkS) (width 0.153))
  (fp_line (start -0.961022 1.266469) (end -0.969258 1.274658) (layer B.SilkS) (width 0.153))
  (fp_line (start -0.794702 1.159463) (end -0.805697 1.163911) (layer B.SilkS) (width 0.153))
  (fp_line (start -0.389827 0.795515) (end -0.399276 0.792972) (layer B.SilkS) (width 0.153))
  (fp_line (start -0.150459 -0.263264) (end -0.152523 -0.214795) (layer B.SilkS) (width 0.153))
  (fp_line (start -0.277086 -2.38178) (end -0.304381 -2.43207) (layer B.SilkS) (width 0.153))
  (fp_line (start -0.304381 -2.43207) (end -0.32163 -2.487643) (layer B.SilkS) (width 0.153))
  (fp_line (start -0.32163 -2.487643) (end -0.327645 -2.547308) (layer B.SilkS) (width 0.153))
  (fp_line (start -0.327645 -2.547308) (end -0.32163 -2.606973) (layer B.SilkS) (width 0.153))
  (fp_line (start -0.32163 -2.606973) (end -0.304381 -2.662545) (layer B.SilkS) (width 0.153))
  (fp_line (start -0.304381 -2.662545) (end -0.277086 -2.712835) (layer B.SilkS) (width 0.153))
  (fp_line (start -0.277086 -2.712835) (end -0.240938 -2.756652) (layer B.SilkS) (width 0.153))
  (fp_line (start -0.240938 -2.756652) (end -0.197126 -2.792804) (layer B.SilkS) (width 0.153))
  (fp_line (start -0.197126 -2.792804) (end -0.146841 -2.820101) (layer B.SilkS) (width 0.153))
  (fp_line (start -0.146841 -2.820101) (end -0.091275 -2.837353) (layer B.SilkS) (width 0.153))
  (fp_line (start -0.091275 -2.837353) (end -0.031617 -2.843368) (layer B.SilkS) (width 0.153))
  (fp_line (start 0.350962 0.935373) (end 0.339522 0.929224) (layer B.SilkS) (width 0.153))
  (fp_line (start 0.339522 0.929224) (end 0.327828 0.923486) (layer B.SilkS) (width 0.153))
  (fp_line (start 0.327828 0.923486) (end 0.315891 0.918171) (layer B.SilkS) (width 0.153))
  (fp_line (start 0.315891 0.918171) (end 0.303721 0.913289) (layer B.SilkS) (width 0.153))
  (fp_line (start 0.303721 0.913289) (end 0.305164 0.910934) (layer B.SilkS) (width 0.153))
  (fp_line (start 0.305164 0.910934) (end 0.306569 0.908555) (layer B.SilkS) (width 0.153))
  (fp_line (start 0.306569 0.908555) (end 0.307934 0.906151) (layer B.SilkS) (width 0.153))
  (fp_line (start 0.307934 0.906151) (end 0.309261 0.903724) (layer B.SilkS) (width 0.153))
  (fp_line (start 0.309261 0.903724) (end 0.310548 0.901272) (layer B.SilkS) (width 0.153))
  (fp_line (start 0.310548 0.901272) (end 0.311794 0.898797) (layer B.SilkS) (width 0.153))
  (fp_line (start 0.311794 0.898797) (end 0.313 0.896299) (layer B.SilkS) (width 0.153))
  (fp_line (start 0.313 0.896299) (end 0.314166 0.893779) (layer B.SilkS) (width 0.153))
  (fp_line (start 0.314166 0.893779) (end 0.315289 0.891236) (layer B.SilkS) (width 0.153))
  (fp_line (start 0.315289 0.891236) (end 0.316371 0.888672) (layer B.SilkS) (width 0.153))
  (fp_line (start 0.316371 0.888672) (end 0.317409 0.886086) (layer B.SilkS) (width 0.153))
  (fp_line (start 0.317409 0.886086) (end 0.318403 0.883479) (layer B.SilkS) (width 0.153))
  (fp_line (start -0.699532 0.989275) (end -0.70108 1.001291) (layer B.SilkS) (width 0.153))
  (fp_line (start -0.399276 0.792972) (end -0.408875 0.790798) (layer B.SilkS) (width 0.153))
  (fp_line (start -1.121444 1.237715) (end -1.134418 1.231939) (layer B.SilkS) (width 0.153))
  (fp_line (start -1.134418 1.231939) (end -1.147532 1.226427) (layer B.SilkS) (width 0.153))
  (fp_line (start -1.147532 1.226427) (end -1.160783 1.221182) (layer B.SilkS) (width 0.153))
  (fp_line (start -1.160783 1.221182) (end -1.174167 1.216208) (layer B.SilkS) (width 0.153))
  (fp_line (start -1.174167 1.216208) (end -1.18768 1.211507) (layer B.SilkS) (width 0.153))
  (fp_line (start -2.190045 1.591498) (end -2.130454 1.644126) (layer B.SilkS) (width 0.153))
  (fp_line (start -2.130454 1.644126) (end -2.069703 1.695167) (layer B.SilkS) (width 0.153))
  (fp_line (start -2.069703 1.695167) (end -2.007827 1.744607) (layer B.SilkS) (width 0.153))
  (fp_line (start -2.007827 1.744607) (end -1.944857 1.792432) (layer B.SilkS) (width 0.153))
  (fp_line (start -1.944857 1.792432) (end -1.880828 1.838629) (layer B.SilkS) (width 0.153))
  (fp_line (start -1.880828 1.838629) (end -1.81577 1.883184) (layer B.SilkS) (width 0.153))
  (fp_line (start -1.81577 1.883184) (end -1.749718 1.926083) (layer B.SilkS) (width 0.153))
  (fp_line (start -0.699299 1.063348) (end -0.698734 1.066671) (layer B.SilkS) (width 0.153))
  (fp_line (start -0.203583 0.948833) (end -0.204342 0.949017) (layer B.SilkS) (width 0.153))
  (fp_line (start -0.408875 0.790798) (end -0.418613 0.789001) (layer B.SilkS) (width 0.153))
  (fp_line (start -0.700289 1.056656) (end -0.699817 1.06001) (layer B.SilkS) (width 0.153))
  (fp_line (start -2.077583 1.560264) (end -2.08576 1.5562) (layer B.SilkS) (width 0.153))
  (fp_line (start -2.08576 1.5562) (end -2.093989 1.552214) (layer B.SilkS) (width 0.153))
  (fp_line (start -2.093989 1.552214) (end -2.102269 1.548309) (layer B.SilkS) (width 0.153))
  (fp_line (start -2.102269 1.548309) (end -2.110598 1.544483) (layer B.SilkS) (width 0.153))
  (fp_line (start -2.110598 1.544483) (end -2.118977 1.540737) (layer B.SilkS) (width 0.153))
  (fp_line (start -2.118977 1.540737) (end -2.127406 1.537072) (layer B.SilkS) (width 0.153))
  (fp_line (start -2.127406 1.537072) (end -2.135883 1.533489) (layer B.SilkS) (width 0.153))
  (fp_line (start 0.141968 0.664763) (end 0.140733 0.664925) (layer B.SilkS) (width 0.153))
  (fp_line (start 0.140733 0.664925) (end 0.139501 0.665094) (layer B.SilkS) (width 0.153))
  (fp_line (start 0.139501 0.665094) (end 0.138273 0.665272) (layer B.SilkS) (width 0.153))
  (fp_line (start 0.138273 0.665272) (end 0.137046 0.665459) (layer B.SilkS) (width 0.153))
  (fp_line (start 0.137046 0.665459) (end 0.135822 0.665654) (layer B.SilkS) (width 0.153))
  (fp_line (start 0.135822 0.665654) (end 0.134602 0.665858) (layer B.SilkS) (width 0.153))
  (fp_line (start 0.134602 0.665858) (end 0.133384 0.666069) (layer B.SilkS) (width 0.153))
  (fp_line (start 0.133384 0.666069) (end 0.13217 0.666289) (layer B.SilkS) (width 0.153))
  (fp_line (start 0.13217 0.666289) (end 0.130958 0.666516) (layer B.SilkS) (width 0.153))
  (fp_line (start 0.130958 0.666516) (end 0.129749 0.666754) (layer B.SilkS) (width 0.153))
  (fp_line (start 0.129749 0.666754) (end 0.128543 0.666998) (layer B.SilkS) (width 0.153))
  (fp_line (start 0.128543 0.666998) (end 0.12734 0.667249) (layer B.SilkS) (width 0.153))
  (fp_line (start 0.12734 0.667249) (end 0.126141 0.667509) (layer B.SilkS) (width 0.153))
  (fp_line (start 0.126141 0.667509) (end 0.124943 0.667777) (layer B.SilkS) (width 0.153))
  (fp_line (start 0.124943 0.667777) (end 0.123749 0.668052) (layer B.SilkS) (width 0.153))
  (fp_line (start 0.123749 0.668052) (end 0.122557 0.668334) (layer B.SilkS) (width 0.153))
  (fp_line (start 0.122557 0.668334) (end 0.120737 0.628619) (layer B.SilkS) (width 0.153))
  (fp_line (start 0.120737 0.628619) (end 0.118916 0.588904) (layer B.SilkS) (width 0.153))
  (fp_line (start -0.693499 1.089474) (end -0.692574 1.092663) (layer B.SilkS) (width 0.153))
  (fp_line (start 0.003663 -3.55236) (end -0.00536 -3.553969) (layer B.SilkS) (width 0.153))
  (fp_line (start -0.00536 -3.553969) (end -0.014464 -3.554793) (layer B.SilkS) (width 0.153))
  (fp_line (start -0.014464 -3.554793) (end -0.014465 -3.554795) (layer B.SilkS) (width 0.153))
  (fp_line (start 0.133911 -2.792804) (end 0.177727 -2.756652) (layer B.SilkS) (width 0.153))
  (fp_line (start 0.177727 -2.756652) (end 0.21388 -2.712835) (layer B.SilkS) (width 0.153))
  (fp_line (start 0.21388 -2.712835) (end 0.241177 -2.662545) (layer B.SilkS) (width 0.153))
  (fp_line (start 0.241177 -2.662545) (end 0.258428 -2.606973) (layer B.SilkS) (width 0.153))
  (fp_line (start 0.258428 -2.606973) (end 0.264443 -2.547308) (layer B.SilkS) (width 0.153))
  (fp_line (start 0.264443 -2.547308) (end 0.258428 -2.487643) (layer B.SilkS) (width 0.153))
  (fp_line (start 0.258428 -2.487643) (end 0.241177 -2.43207) (layer B.SilkS) (width 0.153))
  (fp_line (start 0.241177 -2.43207) (end 0.21388 -2.38178) (layer B.SilkS) (width 0.153))
  (fp_line (start 0.21388 -2.38178) (end 0.177727 -2.337964) (layer B.SilkS) (width 0.153))
  (fp_line (start 0.177727 -2.337964) (end 0.133911 -2.301812) (layer B.SilkS) (width 0.153))
  (fp_line (start 0.133911 -2.301812) (end 0.083621 -2.274514) (layer B.SilkS) (width 0.153))
  (fp_line (start 0.083621 -2.274514) (end 0.028048 -2.257263) (layer B.SilkS) (width 0.153))
  (fp_line (start 0.028048 -2.257263) (end -0.031617 -2.251248) (layer B.SilkS) (width 0.153))
  (fp_line (start -0.031617 -2.251248) (end -0.091275 -2.257263) (layer B.SilkS) (width 0.153))
  (fp_line (start -0.091275 -2.257263) (end -0.146841 -2.274514) (layer B.SilkS) (width 0.153))
  (fp_line (start -0.146841 -2.274514) (end -0.197126 -2.301812) (layer B.SilkS) (width 0.153))
  (fp_line (start -0.197126 -2.301812) (end -0.240938 -2.337964) (layer B.SilkS) (width 0.153))
  (fp_line (start -0.240938 -2.337964) (end -0.277086 -2.38178) (layer B.SilkS) (width 0.153))
  (fp_line (start -0.156652 -0.117856) (end -0.158716 -0.069387) (layer B.SilkS) (width 0.153))
  (fp_line (start -0.70108 1.001291) (end -0.702021 1.013485) (layer B.SilkS) (width 0.153))
  (fp_line (start 0.610333 1.291527) (end 0.607679 1.290545) (layer B.SilkS) (width 0.153))
  (fp_line (start 0.607679 1.290545) (end 0.605021 1.289572) (layer B.SilkS) (width 0.153))
  (fp_line (start 0.605021 1.289572) (end 0.60236 1.288608) (layer B.SilkS) (width 0.153))
  (fp_line (start 0.60236 1.288608) (end 0.599694 1.287654) (layer B.SilkS) (width 0.153))
  (fp_line (start 0.599694 1.287654) (end 0.597025 1.286708) (layer B.SilkS) (width 0.153))
  (fp_line (start 0.597025 1.286708) (end 0.594352 1.285772) (layer B.SilkS) (width 0.153))
  (fp_line (start 0.594352 1.285772) (end 0.591676 1.284845) (layer B.SilkS) (width 0.153))
  (fp_line (start 0.591676 1.284845) (end 0.588995 1.283926) (layer B.SilkS) (width 0.153))
  (fp_line (start 0.588995 1.283926) (end 0.586311 1.283018) (layer B.SilkS) (width 0.153))
  (fp_line (start 0.586311 1.283018) (end 0.583623 1.282118) (layer B.SilkS) (width 0.153))
  (fp_line (start 0.583623 1.282118) (end 0.580931 1.281229) (layer B.SilkS) (width 0.153))
  (fp_line (start 0.580931 1.281229) (end 0.578235 1.280349) (layer B.SilkS) (width 0.153))
  (fp_line (start 0.578235 1.280349) (end 0.575536 1.279479) (layer B.SilkS) (width 0.153))
  (fp_line (start 0.575536 1.279479) (end 0.572833 1.278617) (layer B.SilkS) (width 0.153))
  (fp_line (start 0.572833 1.278617) (end 0.570126 1.277766) (layer B.SilkS) (width 0.153))
  (fp_line (start 0.734822 -0.53675) (end 0.783772 -0.454296) (layer B.SilkS) (width 0.153))
  (fp_line (start 0.783772 -0.454296) (end 0.816716 -0.385499) (layer B.SilkS) (width 0.153))
  (fp_line (start 0.816716 -0.385499) (end 0.835287 -0.338357) (layer B.SilkS) (width 0.153))
  (fp_line (start 0.835287 -0.338357) (end 0.841114 -0.320866) (layer B.SilkS) (width 0.153))
  (fp_line (start 0.841114 -0.320866) (end 0.889278 -0.56986) (layer B.SilkS) (width 0.153))
  (fp_line (start 0.889278 -0.56986) (end 0.892055 -0.78315) (layer B.SilkS) (width 0.153))
  (fp_line (start 0.892055 -0.78315) (end 0.859565 -0.962703) (layer B.SilkS) (width 0.153))
  (fp_line (start 0.859565 -0.962703) (end 0.801927 -1.110483) (layer B.SilkS) (width 0.153))
  (fp_line (start 0.801927 -1.110483) (end 0.729261 -1.22846) (layer B.SilkS) (width 0.153))
  (fp_line (start 0.729261 -1.22846) (end 0.651687 -1.318597) (layer B.SilkS) (width 0.153))
  (fp_line (start 0.651687 -1.318597) (end 0.579323 -1.382864) (layer B.SilkS) (width 0.153))
  (fp_line (start 0.579323 -1.382864) (end 0.52229 -1.423224) (layer B.SilkS) (width 0.153))
  (fp_line (start 0.52229 -1.423224) (end 0.527591 -1.456717) (layer B.SilkS) (width 0.153))
  (fp_line (start 0.527591 -1.456717) (end 0.532608 -1.491058) (layer B.SilkS) (width 0.153))
  (fp_line (start 0.532608 -1.491058) (end 0.537323 -1.526255) (layer B.SilkS) (width 0.153))
  (fp_line (start 0.537323 -1.526255) (end 0.541714 -1.562313) (layer B.SilkS) (width 0.153))
  (fp_line (start 0.541714 -1.562313) (end 0.545762 -1.599238) (layer B.SilkS) (width 0.153))
  (fp_line (start 0.545762 -1.599238) (end 0.549447 -1.637037) (layer B.SilkS) (width 0.153))
  (fp_line (start 0.549447 -1.637037) (end 0.55275 -1.675716) (layer B.SilkS) (width 0.153))
  (fp_line (start 0.55275 -1.675716) (end 0.555648 -1.71528) (layer B.SilkS) (width 0.153))
  (fp_line (start 0.555648 -1.71528) (end 0.562552 -1.860822) (layer B.SilkS) (width 0.153))
  (fp_line (start -0.689542 1.102121) (end -0.688448 1.105236) (layer B.SilkS) (width 0.153))
  (fp_line (start -0.187614 0.609184) (end -0.189679 0.657654) (layer B.SilkS) (width 0.153))
  (fp_line (start -0.702021 1.013485) (end -0.702337 1.025841) (layer B.SilkS) (width 0.153))
  (fp_line (start 0.527722 1.23779) (end 0.52773 1.236823) (layer B.SilkS) (width 0.153))
  (fp_line (start 0.52773 1.236823) (end 0.527735 1.235856) (layer B.SilkS) (width 0.153))
  (fp_line (start 0.527735 1.235856) (end 0.527737 1.234887) (layer B.SilkS) (width 0.153))
  (fp_line (start 0.527737 1.234887) (end 0.527465 1.221201) (layer B.SilkS) (width 0.153))
  (fp_line (start 0.527465 1.221201) (end 0.52666 1.20765) (layer B.SilkS) (width 0.153))
  (fp_line (start 0.52666 1.20765) (end 0.52533 1.194246) (layer B.SilkS) (width 0.153))
  (fp_line (start 0.52533 1.194246) (end 0.523485 1.180996) (layer B.SilkS) (width 0.153))
  (fp_line (start 0.523485 1.180996) (end 0.521135 1.167913) (layer B.SilkS) (width 0.153))
  (fp_line (start 0.521135 1.167913) (end 0.51829 1.155004) (layer B.SilkS) (width 0.153))
  (fp_line (start 0.51829 1.155004) (end 0.514962 1.142281) (layer B.SilkS) (width 0.153))
  (fp_line (start 0.514962 1.142281) (end 0.511158 1.129753) (layer B.SilkS) (width 0.153))
  (fp_line (start 0.511158 1.129753) (end 0.50689 1.11743) (layer B.SilkS) (width 0.153))
  (fp_line (start 0.50689 1.11743) (end 0.502169 1.105322) (layer B.SilkS) (width 0.153))
  (fp_line (start 0.502169 1.105322) (end 0.497002 1.093438) (layer B.SilkS) (width 0.153))
  (fp_line (start 0.497002 1.093438) (end 0.491402 1.08179) (layer B.SilkS) (width 0.153))
  (fp_line (start -0.13601 -0.60255) (end -0.138074 -0.554081) (layer B.SilkS) (width 0.153))
  (fp_line (start -2.259434 1.492148) (end -2.268589 1.489845) (layer B.SilkS) (width 0.153))
  (fp_line (start -2.268589 1.489845) (end -2.277785 1.487632) (layer B.SilkS) (width 0.153))
  (fp_line (start -2.277785 1.487632) (end -2.287023 1.485509) (layer B.SilkS) (width 0.153))
  (fp_line (start -2.287023 1.485509) (end -2.296301 1.483476) (layer B.SilkS) (width 0.153))
  (fp_line (start -2.296301 1.483476) (end -2.30562 1.481535) (layer B.SilkS) (width 0.153))
  (fp_line (start -2.30562 1.481535) (end -2.248445 1.537296) (layer B.SilkS) (width 0.153))
  (fp_line (start -2.248445 1.537296) (end -2.190045 1.591498) (layer B.SilkS) (width 0.153))
  (fp_line (start 0.290481 0.723182) (end 0.285251 0.71723) (layer B.SilkS) (width 0.153))
  (fp_line (start 0.285251 0.71723) (end 0.279742 0.711532) (layer B.SilkS) (width 0.153))
  (fp_line (start 0.279742 0.711532) (end 0.273964 0.706101) (layer B.SilkS) (width 0.153))
  (fp_line (start 0.273964 0.706101) (end 0.267927 0.700944) (layer B.SilkS) (width 0.153))
  (fp_line (start 0.267927 0.700944) (end 0.261641 0.696074) (layer B.SilkS) (width 0.153))
  (fp_line (start 0.261641 0.696074) (end 0.255118 0.6915) (layer B.SilkS) (width 0.153))
  (fp_line (start 0.255118 0.6915) (end 0.248367 0.687233) (layer B.SilkS) (width 0.153))
  (fp_line (start 0.248367 0.687233) (end 0.2414 0.683283) (layer B.SilkS) (width 0.153))
  (fp_line (start 0.2414 0.683283) (end 0.234226 0.67966) (layer B.SilkS) (width 0.153))
  (fp_line (start 0.234226 0.67966) (end 0.226856 0.676375) (layer B.SilkS) (width 0.153))
  (fp_line (start 0.226856 0.676375) (end 0.2193 0.673437) (layer B.SilkS) (width 0.153))
  (fp_line (start 0.2193 0.673437) (end 0.21157 0.670858) (layer B.SilkS) (width 0.153))
  (fp_line (start 0.21157 0.670858) (end 0.203675 0.668647) (layer B.SilkS) (width 0.153))
  (fp_line (start 0.203675 0.668647) (end 0.195625 0.666815) (layer B.SilkS) (width 0.153))
  (fp_line (start 0.195625 0.666815) (end 0.187432 0.665372) (layer B.SilkS) (width 0.153))
  (fp_line (start 0.187432 0.665372) (end 0.179106 0.664329) (layer B.SilkS) (width 0.153))
  (fp_line (start 0.179106 0.664329) (end 0.170656 0.663696) (layer B.SilkS) (width 0.153))
  (fp_line (start -0.418613 0.789001) (end -0.428484 0.787588) (layer B.SilkS) (width 0.153))
  (fp_line (start -0.154588 -0.166326) (end -0.156652 -0.117856) (layer B.SilkS) (width 0.153))
  (fp_line (start -0.695218 1.083043) (end -0.69438 1.086267) (layer B.SilkS) (width 0.153))
  (fp_line (start -0.428484 0.787588) (end -0.438478 0.78657) (layer B.SilkS) (width 0.153))
  (fp_line (start -0.749466 1.144229) (end -0.760957 1.147646) (layer B.SilkS) (width 0.153))
  (fp_line (start -0.158716 -0.069387) (end -0.16078 -0.020918) (layer B.SilkS) (width 0.153))
  (fp_line (start -0.138074 -0.554081) (end -0.140138 -0.505611) (layer B.SilkS) (width 0.153))
  (fp_line (start -0.907716 1.22148) (end -0.917046 1.228467) (layer B.SilkS) (width 0.153))
  (fp_line (start -0.827282 1.17355) (end -0.837866 1.178733) (layer B.SilkS) (width 0.153))
  (fp_line (start -0.438478 0.78657) (end -0.448588 0.785953) (layer B.SilkS) (width 0.153))
  (fp_line (start -0.218625 0.952837) (end -0.219369 0.953056) (layer B.SilkS) (width 0.153))
  (fp_line (start -0.291026 0.851833) (end -0.298048 0.8455) (layer B.SilkS) (width 0.153))
  (fp_line (start -0.146331 -0.360203) (end -0.148395 -0.311734) (layer B.SilkS) (width 0.153))
  (fp_line (start -0.336711 0.818062) (end -0.345096 0.813477) (layer B.SilkS) (width 0.153))
  (fp_line (start 0.527261 1.252212) (end 0.52731 1.251255) (layer B.SilkS) (width 0.153))
  (fp_line (start 0.52731 1.251255) (end 0.527358 1.250297) (layer B.SilkS) (width 0.153))
  (fp_line (start 0.527358 1.250297) (end 0.527407 1.24934) (layer B.SilkS) (width 0.153))
  (fp_line (start 0.527407 1.24934) (end 0.527455 1.248381) (layer B.SilkS) (width 0.153))
  (fp_line (start 0.527455 1.248381) (end 0.527487 1.247422) (layer B.SilkS) (width 0.153))
  (fp_line (start 0.527487 1.247422) (end 0.52752 1.246462) (layer B.SilkS) (width 0.153))
  (fp_line (start 0.52752 1.246462) (end 0.527552 1.245501) (layer B.SilkS) (width 0.153))
  (fp_line (start 0.527552 1.245501) (end 0.527584 1.244539) (layer B.SilkS) (width 0.153))
  (fp_line (start 0.527584 1.244539) (end 0.527616 1.243577) (layer B.SilkS) (width 0.153))
  (fp_line (start 0.527616 1.243577) (end 0.527649 1.242613) (layer B.SilkS) (width 0.153))
  (fp_line (start 0.527649 1.242613) (end 0.527665 1.24165) (layer B.SilkS) (width 0.153))
  (fp_line (start 0.527665 1.24165) (end 0.527681 1.240686) (layer B.SilkS) (width 0.153))
  (fp_line (start 0.527681 1.240686) (end 0.527697 1.23972) (layer B.SilkS) (width 0.153))
  (fp_line (start 0.527697 1.23972) (end 0.527711 1.238755) (layer B.SilkS) (width 0.153))
  (fp_line (start 0.527711 1.238755) (end 0.527722 1.23779) (layer B.SilkS) (width 0.153))
  (fp_line (start -0.136053 -3.476153) (end -0.176975 -3.42418) (layer B.SilkS) (width 0.153))
  (fp_line (start -0.176975 -3.42418) (end -0.22156 -3.362622) (layer B.SilkS) (width 0.153))
  (fp_line (start -0.22156 -3.362622) (end -0.268664 -3.291421) (layer B.SilkS) (width 0.153))
  (fp_line (start -0.268664 -3.291421) (end -0.317142 -3.210517) (layer B.SilkS) (width 0.153))
  (fp_line (start -0.317142 -3.210517) (end -0.36585 -3.119853) (layer B.SilkS) (width 0.153))
  (fp_line (start -0.36585 -3.119853) (end -0.413642 -3.019371) (layer B.SilkS) (width 0.153))
  (fp_line (start -0.413642 -3.019371) (end -0.459374 -2.909011) (layer B.SilkS) (width 0.153))
  (fp_line (start -0.459374 -2.909011) (end -0.501687 -2.789306) (layer B.SilkS) (width 0.153))
  (fp_line (start -0.501687 -2.789306) (end -0.539699 -2.659702) (layer B.SilkS) (width 0.153))
  (fp_line (start -0.539699 -2.659702) (end -0.572278 -2.520136) (layer B.SilkS) (width 0.153))
  (fp_line (start -0.572278 -2.520136) (end -0.598293 -2.370546) (layer B.SilkS) (width 0.153))
  (fp_line (start -0.598293 -2.370546) (end -0.616612 -2.21087) (layer B.SilkS) (width 0.153))
  (fp_line (start -0.616612 -2.21087) (end -0.626106 -2.041045) (layer B.SilkS) (width 0.153))
  (fp_line (start -0.626106 -2.041045) (end -0.625641 -1.861009) (layer B.SilkS) (width 0.153))
  (fp_line (start -0.625641 -1.861009) (end -0.614088 -1.670699) (layer B.SilkS) (width 0.153))
  (fp_line (start -0.614088 -1.670699) (end -0.613562 -1.666126) (layer B.SilkS) (width 0.153))
  (fp_line (start -0.702337 1.025841) (end -0.702305 1.029318) (layer B.SilkS) (width 0.153))
  (fp_line (start -0.140138 -0.505611) (end -0.142203 -0.457142) (layer B.SilkS) (width 0.153))
  (fp_line (start 1.608319 1.399032) (end 1.59113 1.404661) (layer B.SilkS) (width 0.153))
  (fp_line (start 1.59113 1.404661) (end 1.574086 1.4106) (layer B.SilkS) (width 0.153))
  (fp_line (start 1.574086 1.4106) (end 1.557192 1.416847) (layer B.SilkS) (width 0.153))
  (fp_line (start 1.557192 1.416847) (end 1.540451 1.423397) (layer B.SilkS) (width 0.153))
  (fp_line (start 1.540451 1.423397) (end 1.523866 1.430247) (layer B.SilkS) (width 0.153))
  (fp_line (start 1.523866 1.430247) (end 1.507441 1.437394) (layer B.SilkS) (width 0.153))
  (fp_line (start 1.507441 1.437394) (end 1.491179 1.444835) (layer B.SilkS) (width 0.153))
  (fp_line (start 1.491179 1.444835) (end 1.475084 1.452565) (layer B.SilkS) (width 0.153))
  (fp_line (start 1.475084 1.452565) (end 1.459158 1.460581) (layer B.SilkS) (width 0.153))
  (fp_line (start 1.459158 1.460581) (end 1.443406 1.46888) (layer B.SilkS) (width 0.153))
  (fp_line (start 1.443406 1.46888) (end 1.42783 1.477458) (layer B.SilkS) (width 0.153))
  (fp_line (start -2.196551 1.510726) (end -2.205403 1.507812) (layer B.SilkS) (width 0.153))
  (fp_line (start -2.205403 1.507812) (end -2.214298 1.504984) (layer B.SilkS) (width 0.153))
  (fp_line (start -2.214298 1.504984) (end -2.223239 1.502241) (layer B.SilkS) (width 0.153))
  (fp_line (start -2.223239 1.502241) (end -2.232223 1.499586) (layer B.SilkS) (width 0.153))
  (fp_line (start -2.232223 1.499586) (end -2.24125 1.497019) (layer B.SilkS) (width 0.153))
  (fp_line (start -2.24125 1.497019) (end -2.250321 1.494539) (layer B.SilkS) (width 0.153))
  (fp_line (start -2.250321 1.494539) (end -2.259434 1.492148) (layer B.SilkS) (width 0.153))
  (fp_line (start -0.18555 0.560715) (end -0.187614 0.609184) (layer B.SilkS) (width 0.153))
  (fp_line (start -0.305319 0.839438) (end -0.312828 0.833655) (layer B.SilkS) (width 0.153))
  (fp_line (start -0.969258 1.274658) (end -0.977298 1.283035) (layer B.SilkS) (width 0.153))
  (fp_line (start -0.690595 1.098987) (end -0.689542 1.102121) (layer B.SilkS) (width 0.153))
  (fp_line (start -0.868739 1.195697) (end -0.878725 1.201811) (layer B.SilkS) (width 0.153))
  (fp_line (start -0.214145 0.95156) (end -0.214894 0.951768) (layer B.SilkS) (width 0.153))
  (fp_line (start -0.805697 1.163911) (end -0.816558 1.168608) (layer B.SilkS) (width 0.153))
  (fp_line (start -0.935181 1.243065) (end -0.94398 1.250669) (layer B.SilkS) (width 0.153))
  (fp_line (start -0.448588 0.785953) (end -0.458805 0.785745) (layer B.SilkS) (width 0.153))
  (fp_line (start -0.458805 0.785745) (end -0.471338 0.786058) (layer B.SilkS) (width 0.153))
  (fp_line (start -0.726144 1.138197) (end -0.73786 1.141078) (layer B.SilkS) (width 0.153))
  (fp_line (start -0.714319 1.135589) (end -0.726144 1.138197) (layer B.SilkS) (width 0.153))
  (fp_line (start -0.70239 1.133259) (end -0.714319 1.135589) (layer B.SilkS) (width 0.153))
  (fp_line (start -0.73786 1.141078) (end -0.749466 1.144229) (layer B.SilkS) (width 0.153))
  (fp_line (start -0.690362 1.131211) (end -0.70239 1.133259) (layer B.SilkS) (width 0.153))
  (fp_line (start -0.681025 1.123516) (end -0.67965 1.126492) (layer B.SilkS) (width 0.153))
  (fp_line (start -0.898217 1.214706) (end -0.907716 1.22148) (layer B.SilkS) (width 0.153))
  (fp_line (start -0.21039 0.950547) (end -0.211143 0.950746) (layer B.SilkS) (width 0.153))
  (fp_line (start -0.94398 1.250669) (end -0.952595 1.258471) (layer B.SilkS) (width 0.153))
  (fp_line (start -0.702305 1.029318) (end -0.702224 1.032782) (layer B.SilkS) (width 0.153))
  (fp_line (start -0.684917 1.114466) (end -0.68366 1.117503) (layer B.SilkS) (width 0.153))
  (fp_line (start -0.224553 0.954648) (end -0.225289 0.954883) (layer B.SilkS) (width 0.153))
  (fp_line (start -0.699817 1.06001) (end -0.699299 1.063348) (layer B.SilkS) (width 0.153))
  (fp_line (start -0.471338 0.786058) (end -0.483706 0.786985) (layer B.SilkS) (width 0.153))
  (fp_line (start -0.259916 0.88728) (end -0.265577 0.879714) (layer B.SilkS) (width 0.153))
  (fp_line (start -0.207372 0.949769) (end -0.208127 0.949961) (layer B.SilkS) (width 0.153))
  (fp_line (start -0.284259 0.858429) (end -0.291026 0.851833) (layer B.SilkS) (width 0.153))
  (fp_line (start -0.211143 0.950746) (end -0.211895 0.950946) (layer B.SilkS) (width 0.153))
  (fp_line (start -0.298048 0.8455) (end -0.305319 0.839438) (layer B.SilkS) (width 0.153))
  (fp_line (start -0.169037 0.17296) (end -0.171101 0.221429) (layer B.SilkS) (width 0.153))
  (fp_line (start -0.271526 0.872378) (end -0.277756 0.86528) (layer B.SilkS) (width 0.153))
  (fp_line (start -0.249495 0.903071) (end -0.254553 0.895068) (layer B.SilkS) (width 0.153))
  (fp_line (start -0.175229 0.318368) (end -0.177294 0.366837) (layer B.SilkS) (width 0.153))
  (fp_line (start -0.244751 0.911279) (end -0.249495 0.903071) (layer B.SilkS) (width 0.153))
  (fp_line (start -0.240329 0.919684) (end -0.244751 0.911279) (layer B.SilkS) (width 0.153))
  (fp_line (start -0.229076 0.946006) (end -0.232483 0.937056) (layer B.SilkS) (width 0.153))
  (fp_line (start -0.197935 0.851531) (end -0.2 0.9) (layer B.SilkS) (width 0.153))
  (fp_line (start -0.254553 0.895068) (end -0.259916 0.88728) (layer B.SilkS) (width 0.153))
  (fp_line (start -0.236237 0.928279) (end -0.240329 0.919684) (layer B.SilkS) (width 0.153))
  (fp_line (start 1.446485 2.062706) (end 1.517455 2.024757) (layer B.SilkS) (width 0.153))
  (fp_line (start 1.517455 2.024757) (end 1.587495 1.985023) (layer B.SilkS) (width 0.153))
  (fp_line (start 1.587495 1.985023) (end 1.656571 1.943518) (layer B.SilkS) (width 0.153))
  (fp_line (start 1.656571 1.943518) (end 1.724647 1.900259) (layer B.SilkS) (width 0.153))
  (fp_line (start 1.724647 1.900259) (end 1.791689 1.85526) (layer B.SilkS) (width 0.153))
  (fp_line (start 1.791689 1.85526) (end 1.857659 1.808535) (layer B.SilkS) (width 0.153))
  (fp_line (start 1.857659 1.808535) (end 1.922525 1.760101) (layer B.SilkS) (width 0.153))
  (fp_line (start 1.922525 1.760101) (end 1.986249 1.709972) (layer B.SilkS) (width 0.153))
  (fp_line (start 1.986249 1.709972) (end 2.048798 1.658162) (layer B.SilkS) (width 0.153))
  (fp_line (start -0.702224 1.032782) (end -0.702095 1.036234) (layer B.SilkS) (width 0.153))
  (fp_line (start 0.086141 -0.125967) (end 0.08432 -0.165682) (layer B.SilkS) (width 0.153))
  (fp_line (start 0.08432 -0.165682) (end 0.082499 -0.205397) (layer B.SilkS) (width 0.153))
  (fp_line (start 0.082499 -0.205397) (end 0.080679 -0.245113) (layer B.SilkS) (width 0.153))
  (fp_line (start 0.080679 -0.245113) (end 0.078858 -0.284828) (layer B.SilkS) (width 0.153))
  (fp_line (start 0.078858 -0.284828) (end 0.077037 -0.324543) (layer B.SilkS) (width 0.153))
  (fp_line (start 0.077037 -0.324543) (end 0.075216 -0.364258) (layer B.SilkS) (width 0.153))
  (fp_line (start 0.075216 -0.364258) (end 0.073395 -0.403973) (layer B.SilkS) (width 0.153))
  (fp_line (start 0.073395 -0.403973) (end 0.071575 -0.443688) (layer B.SilkS) (width 0.153))
  (fp_line (start 0.071575 -0.443688) (end 0.069754 -0.483403) (layer B.SilkS) (width 0.153))
  (fp_line (start 0.069754 -0.483403) (end 0.067933 -0.523118) (layer B.SilkS) (width 0.153))
  (fp_line (start 0.067933 -0.523118) (end 0.066112 -0.562833) (layer B.SilkS) (width 0.153))
  (fp_line (start 0.066112 -0.562833) (end 0.064291 -0.602548) (layer B.SilkS) (width 0.153))
  (fp_line (start 0.064291 -0.602548) (end 0.058032 -0.602548) (layer B.SilkS) (width 0.153))
  (fp_line (start 0.058032 -0.602548) (end 0.051772 -0.602548) (layer B.SilkS) (width 0.153))
  (fp_line (start 0.051772 -0.602548) (end 0.045513 -0.602548) (layer B.SilkS) (width 0.153))
  (fp_line (start 0.045513 -0.602548) (end 0.039253 -0.602548) (layer B.SilkS) (width 0.153))
  (fp_line (start 0.039253 -0.602548) (end 0.032994 -0.602548) (layer B.SilkS) (width 0.153))
  (fp_line (start 0.032994 -0.602548) (end 0.026734 -0.602548) (layer B.SilkS) (width 0.153))
  (fp_line (start 0.026734 -0.602548) (end 0.020475 -0.602548) (layer B.SilkS) (width 0.153))
  (fp_line (start -0.702095 1.036234) (end -0.701918 1.039672) (layer B.SilkS) (width 0.153))
  (fp_line (start -0.992779 1.300338) (end -1.000213 1.309257) (layer B.SilkS) (width 0.153))
  (fp_line (start -0.816558 1.168608) (end -0.827282 1.17355) (layer B.SilkS) (width 0.153))
  (fp_line (start -0.219369 0.953056) (end -0.220112 0.953277) (layer B.SilkS) (width 0.153))
  (fp_line (start -0.215642 0.951978) (end -0.216389 0.952189) (layer B.SilkS) (width 0.153))
  (fp_line (start -0.878725 1.201811) (end -0.888552 1.208148) (layer B.SilkS) (width 0.153))
  (fp_line (start -0.483706 0.786985) (end -0.495894 0.788512) (layer B.SilkS) (width 0.153))
  (fp_line (start -0.495894 0.788512) (end -0.507887 0.790623) (layer B.SilkS) (width 0.153))
  (fp_line (start -0.223815 0.954414) (end -0.224553 0.954648) (layer B.SilkS) (width 0.153))
  (fp_line (start -0.220854 0.9535) (end -0.221595 0.953726) (layer B.SilkS) (width 0.153))
  (fp_line (start -0.225289 0.954883) (end -0.226025 0.955121) (layer B.SilkS) (width 0.153))
  (fp_line (start -0.320569 0.828159) (end -0.328533 0.822959) (layer B.SilkS) (width 0.153))
  (fp_line (start -0.507887 0.790623) (end -0.519669 0.793304) (layer B.SilkS) (width 0.153))
  (fp_line (start -0.195871 0.803062) (end -0.197935 0.851531) (layer B.SilkS) (width 0.153))
  (fp_line (start -0.277756 0.86528) (end -0.284259 0.858429) (layer B.SilkS) (width 0.153))
  (fp_line (start -0.691606 1.095834) (end -0.690595 1.098987) (layer B.SilkS) (width 0.153))
  (fp_line (start -0.173165 0.269899) (end -0.175229 0.318368) (layer B.SilkS) (width 0.153))
  (fp_line (start -0.760957 1.147646) (end -0.772329 1.151327) (layer B.SilkS) (width 0.153))
  (fp_line (start -0.519669 0.793304) (end -0.531226 0.796539) (layer B.SilkS) (width 0.153))
  (fp_line (start -0.613562 -1.666126) (end -0.611949 -1.652865) (layer B.SilkS) (width 0.153))
  (fp_line (start -0.611949 -1.652865) (end -0.609195 -1.631596) (layer B.SilkS) (width 0.153))
  (fp_line (start -0.609195 -1.631596) (end -0.605247 -1.603002) (layer B.SilkS) (width 0.153))
  (fp_line (start -0.605247 -1.603002) (end -0.600051 -1.567766) (layer B.SilkS) (width 0.153))
  (fp_line (start -0.600051 -1.567766) (end -0.593553 -1.52657) (layer B.SilkS) (width 0.153))
  (fp_line (start -0.593553 -1.52657) (end -0.585702 -1.480096) (layer B.SilkS) (width 0.153))
  (fp_line (start -0.585702 -1.480096) (end -0.576442 -1.429027) (layer B.SilkS) (width 0.153))
  (fp_line (start -0.576442 -1.429027) (end -0.630924 -1.391858) (layer B.SilkS) (width 0.153))
  (fp_line (start -0.630924 -1.391858) (end -0.703314 -1.32992) (layer B.SilkS) (width 0.153))
  (fp_line (start -0.703314 -1.32992) (end -0.782731 -1.241119) (layer B.SilkS) (width 0.153))
  (fp_line (start -0.782731 -1.241119) (end -0.858291 -1.12336) (layer B.SilkS) (width 0.153))
  (fp_line (start -0.858291 -1.12336) (end -0.919115 -0.97455) (layer B.SilkS) (width 0.153))
  (fp_line (start -0.919115 -0.97455) (end -0.95432 -0.792594) (layer B.SilkS) (width 0.153))
  (fp_line (start -0.95432 -0.792594) (end -0.953024 -0.575398) (layer B.SilkS) (width 0.153))
  (fp_line (start -0.953024 -0.575398) (end -0.904346 -0.320867) (layer B.SilkS) (width 0.153))
  (fp_line (start -0.904346 -0.320867) (end -0.898497 -0.338413) (layer B.SilkS) (width 0.153))
  (fp_line (start -0.898497 -0.338413) (end -0.879857 -0.385694) (layer B.SilkS) (width 0.153))
  (fp_line (start -0.879857 -0.385694) (end -0.846789 -0.454673) (layer B.SilkS) (width 0.153))
  (fp_line (start -0.846789 -0.454673) (end -0.797652 -0.537315) (layer B.SilkS) (width 0.153))
  (fp_line (start -0.531226 0.796539) (end -0.542542 0.800313) (layer B.SilkS) (width 0.153))
  (fp_line (start -0.191743 0.706123) (end -0.193807 0.754592) (layer B.SilkS) (width 0.153))
  (fp_line (start -0.189679 0.657654) (end -0.191743 0.706123) (layer B.SilkS) (width 0.153))
  (fp_line (start -0.2051 0.949203) (end -0.205857 0.94939) (layer B.SilkS) (width 0.153))
  (fp_line (start -0.191078 2.420419) (end -0.11146 2.42345) (layer B.SilkS) (width 0.153))
  (fp_line (start -0.11146 2.42345) (end -0.031602 2.424512) (layer B.SilkS) (width 0.153))
  (fp_line (start -0.031602 2.424512) (end 0.050324 2.423344) (layer B.SilkS) (width 0.153))
  (fp_line (start 0.050324 2.423344) (end 0.131991 2.420104) (layer B.SilkS) (width 0.153))
  (fp_line (start 0.131991 2.420104) (end 0.213363 2.414808) (layer B.SilkS) (width 0.153))
  (fp_line (start 0.213363 2.414808) (end 0.294405 2.407471) (layer B.SilkS) (width 0.153))
  (fp_line (start 0.294405 2.407471) (end 0.375083 2.398108) (layer B.SilkS) (width 0.153))
  (fp_line (start -0.738964 2.345217) (end -0.661937 2.361649) (layer B.SilkS) (width 0.153))
  (fp_line (start -0.661937 2.361649) (end -0.584441 2.376207) (layer B.SilkS) (width 0.153))
  (fp_line (start -0.584441 2.376207) (end -0.506509 2.388878) (layer B.SilkS) (width 0.153))
  (fp_line (start -0.506509 2.388878) (end -0.428174 2.399649) (layer B.SilkS) (width 0.153))
  (fp_line (start -0.428174 2.399649) (end -0.349468 2.408505) (layer B.SilkS) (width 0.153))
  (fp_line (start -0.349468 2.408505) (end -0.270426 2.415433) (layer B.SilkS) (width 0.153))
  (fp_line (start -0.270426 2.415433) (end -0.191078 2.420419) (layer B.SilkS) (width 0.153))
  (fp_line (start -0.772329 1.151327) (end -0.783578 1.155267) (layer B.SilkS) (width 0.153))
  (fp_line (start -0.917046 1.228467) (end -0.926202 1.235663) (layer B.SilkS) (width 0.153))
  (fp_line (start -0.848306 1.184155) (end -0.858598 1.18981) (layer B.SilkS) (width 0.153))
  (fp_line (start -0.701918 1.039672) (end -0.70169 1.043097) (layer B.SilkS) (width 0.153))
  (fp_line (start -0.542542 0.800313) (end -0.553601 0.804612) (layer B.SilkS) (width 0.153))
  (fp_line (start -0.328533 0.822959) (end -0.336711 0.818062) (layer B.SilkS) (width 0.153))
  (fp_line (start -0.858598 1.18981) (end -0.868739 1.195697) (layer B.SilkS) (width 0.153))
  (fp_line (start -0.70169 1.043097) (end -0.701412 1.046508) (layer B.SilkS) (width 0.153))
  (fp_line (start -0.952595 1.258471) (end -0.961022 1.266469) (layer B.SilkS) (width 0.153))
  (fp_line (start 2.100743 1.37493) (end 2.088606 1.372445) (layer B.SilkS) (width 0.153))
  (fp_line (start 2.088606 1.372445) (end 2.076414 1.370113) (layer B.SilkS) (width 0.153))
  (fp_line (start 2.076414 1.370113) (end 2.064168 1.367934) (layer B.SilkS) (width 0.153))
  (fp_line (start 2.064168 1.367934) (end 2.051868 1.365909) (layer B.SilkS) (width 0.153))
  (fp_line (start 2.051868 1.365909) (end 2.039515 1.364039) (layer B.SilkS) (width 0.153))
  (fp_line (start 2.039515 1.364039) (end 2.027111 1.362327) (layer B.SilkS) (width 0.153))
  (fp_line (start 2.027111 1.362327) (end 2.014656 1.360772) (layer B.SilkS) (width 0.153))
  (fp_line (start 2.014656 1.360772) (end 2.002151 1.359376) (layer B.SilkS) (width 0.153))
  (fp_line (start 2.002151 1.359376) (end 1.989598 1.358139) (layer B.SilkS) (width 0.153))
  (fp_line (start 1.989598 1.358139) (end 1.976997 1.357064) (layer B.SilkS) (width 0.153))
  (fp_line (start -0.888552 1.208148) (end -0.898217 1.214706) (layer B.SilkS) (width 0.153))
  (fp_line (start -0.213396 0.951353) (end -0.214145 0.95156) (layer B.SilkS) (width 0.153))
  (fp_line (start 1.806076 1.358615) (end 1.787504 1.360597) (layer B.SilkS) (width 0.153))
  (fp_line (start 1.787504 1.360597) (end 1.76904 1.362928) (layer B.SilkS) (width 0.153))
  (fp_line (start 1.76904 1.362928) (end 1.750689 1.365604) (layer B.SilkS) (width 0.153))
  (fp_line (start 1.750689 1.365604) (end 1.732453 1.368622) (layer B.SilkS) (width 0.153))
  (fp_line (start 1.732453 1.368622) (end 1.714335 1.371979) (layer B.SilkS) (width 0.153))
  (fp_line (start 1.714335 1.371979) (end 1.69634 1.37567) (layer B.SilkS) (width 0.153))
  (fp_line (start 1.69634 1.37567) (end 1.678471 1.379693) (layer B.SilkS) (width 0.153))
  (fp_line (start 1.678471 1.379693) (end 1.660731 1.384045) (layer B.SilkS) (width 0.153))
  (fp_line (start 1.660731 1.384045) (end 1.643123 1.38872) (layer B.SilkS) (width 0.153))
  (fp_line (start 1.643123 1.38872) (end 1.625652 1.393717) (layer B.SilkS) (width 0.153))
  (fp_line (start 1.625652 1.393717) (end 1.608319 1.399032) (layer B.SilkS) (width 0.153))
  (fp_line (start -0.204342 0.949017) (end -0.2051 0.949203) (layer B.SilkS) (width 0.153))
  (fp_line (start -0.206614 0.949579) (end -0.207372 0.949769) (layer B.SilkS) (width 0.153))
  (fp_line (start -0.701412 1.046508) (end -0.701086 1.049905) (layer B.SilkS) (width 0.153))
  (fp_line (start 0.217938 -0.778388) (end 0.227317 -0.77549) (layer B.SilkS) (width 0.153))
  (fp_line (start 0.227317 -0.77549) (end 0.236729 -0.772477) (layer B.SilkS) (width 0.153))
  (fp_line (start 0.236729 -0.772477) (end 0.246173 -0.769343) (layer B.SilkS) (width 0.153))
  (fp_line (start 0.246173 -0.769343) (end 0.255649 -0.766082) (layer B.SilkS) (width 0.153))
  (fp_line (start 0.255649 -0.766082) (end 0.265157 -0.762688) (layer B.SilkS) (width 0.153))
  (fp_line (start 0.265157 -0.762688) (end 0.274695 -0.759156) (layer B.SilkS) (width 0.153))
  (fp_line (start 0.274695 -0.759156) (end 0.284263 -0.755479) (layer B.SilkS) (width 0.153))
  (fp_line (start 0.284263 -0.755479) (end 0.293861 -0.751651) (layer B.SilkS) (width 0.153))
  (fp_line (start 0.293861 -0.751651) (end 0.294849 -0.753059) (layer B.SilkS) (width 0.153))
  (fp_line (start 0.294849 -0.753059) (end 0.297716 -0.757296) (layer B.SilkS) (width 0.153))
  (fp_line (start 0.297716 -0.757296) (end 0.30232 -0.764382) (layer B.SilkS) (width 0.153))
  (fp_line (start 0.30232 -0.764382) (end 0.308516 -0.774336) (layer B.SilkS) (width 0.153))
  (fp_line (start 0.308516 -0.774336) (end 0.316162 -0.787177) (layer B.SilkS) (width 0.153))
  (fp_line (start 0.316162 -0.787177) (end 0.325113 -0.802923) (layer B.SilkS) (width 0.153))
  (fp_line (start 0.325113 -0.802923) (end 0.335226 -0.821595) (layer B.SilkS) (width 0.153))
  (fp_line (start 0.335226 -0.821595) (end 0.346357 -0.843212) (layer B.SilkS) (width 0.153))
  (fp_line (start 0.346357 -0.843212) (end 0.475635 -0.786093) (layer B.SilkS) (width 0.153))
  (fp_line (start 0.475635 -0.786093) (end 0.582385 -0.710646) (layer B.SilkS) (width 0.153))
  (fp_line (start 0.582385 -0.710646) (end 0.668237 -0.624866) (layer B.SilkS) (width 0.153))
  (fp_line (start 0.668237 -0.624866) (end 0.734822 -0.53675) (layer B.SilkS) (width 0.153))
  (fp_line (start -0.701086 1.049905) (end -0.700712 1.053288) (layer B.SilkS) (width 0.153))
  (fp_line (start -0.68366 1.117503) (end -0.682362 1.12052) (layer B.SilkS) (width 0.153))
  (fp_line (start -0.682362 1.12052) (end -0.681025 1.123516) (layer B.SilkS) (width 0.153))
  (fp_line (start 0.529075 1.266219) (end 0.526309 1.265535) (layer B.SilkS) (width 0.153))
  (fp_line (start 0.526309 1.265535) (end 0.52639 1.264587) (layer B.SilkS) (width 0.153))
  (fp_line (start 0.52639 1.264587) (end 0.52647 1.263639) (layer B.SilkS) (width 0.153))
  (fp_line (start 0.52647 1.263639) (end 0.526551 1.26269) (layer B.SilkS) (width 0.153))
  (fp_line (start 0.526551 1.26269) (end 0.526632 1.261741) (layer B.SilkS) (width 0.153))
  (fp_line (start 0.526632 1.261741) (end 0.526712 1.260792) (layer B.SilkS) (width 0.153))
  (fp_line (start 0.526712 1.260792) (end 0.526777 1.259841) (layer B.SilkS) (width 0.153))
  (fp_line (start 0.526777 1.259841) (end 0.526842 1.25889) (layer B.SilkS) (width 0.153))
  (fp_line (start 0.526842 1.25889) (end 0.526906 1.257938) (layer B.SilkS) (width 0.153))
  (fp_line (start 0.526906 1.257938) (end 0.526971 1.256985) (layer B.SilkS) (width 0.153))
  (fp_line (start 0.526971 1.256985) (end 0.527035 1.256031) (layer B.SilkS) (width 0.153))
  (fp_line (start 0.527035 1.256031) (end 0.5271 1.255077) (layer B.SilkS) (width 0.153))
  (fp_line (start 0.5271 1.255077) (end 0.527164 1.254123) (layer B.SilkS) (width 0.153))
  (fp_line (start 0.527164 1.254123) (end 0.527213 1.253168) (layer B.SilkS) (width 0.153))
  (fp_line (start 0.527213 1.253168) (end 0.527261 1.252212) (layer B.SilkS) (width 0.153))
)
