(module firnsy-logo (layer F.Cu) (tedit 5CAC94AD)
  (fp_text reference REF** (at 0 -8.8) (layer F.SilkS) hide
    (effects (font (size 1 1) (thickness 0.15)))
  )
  (fp_text value firnsy-logo (at 0 7.5) (layer F.Fab) hide
    (effects (font (size 1 1) (thickness 0.15)))
  )
  (fp_line (start -0.45 0.8) (end -0.462368 0.800927) (layer F.SilkS) (width 0.153))
  (fp_line (start -0.1188 -0.491669) (end -0.120865 -0.4432) (layer F.SilkS) (width 0.153))
  (fp_line (start -0.174533 0.817004) (end -0.176597 0.865473) (layer F.SilkS) (width 0.153))
  (fp_line (start -0.437467 0.799687) (end -0.45 0.8) (layer F.SilkS) (width 0.153))
  (fp_line (start -0.183762 0.963145) (end -0.184519 0.963332) (layer F.SilkS) (width 0.153))
  (fp_line (start -0.204687 0.969063) (end -0.207738 0.959948) (layer F.SilkS) (width 0.153))
  (fp_line (start -0.211145 0.950998) (end -0.214899 0.942221) (layer F.SilkS) (width 0.153))
  (fp_line (start -0.183004 0.962959) (end -0.183762 0.963145) (layer F.SilkS) (width 0.153))
  (fp_line (start -0.214899 0.942221) (end -0.218991 0.933626) (layer F.SilkS) (width 0.153))
  (fp_line (start -0.218991 0.933626) (end -0.223413 0.925221) (layer F.SilkS) (width 0.153))
  (fp_line (start -0.509888 0.810481) (end -0.521204 0.814255) (layer F.SilkS) (width 0.153))
  (fp_line (start -0.553551 0.828664) (end -0.56375 0.834445) (layer F.SilkS) (width 0.153))
  (fp_line (start -0.141506 0.041494) (end -0.143571 0.089963) (layer F.SilkS) (width 0.153))
  (fp_line (start -0.62539 0.887057) (end -0.63262 0.896127) (layer F.SilkS) (width 0.153))
  (fp_line (start -0.184519 0.963332) (end -0.185276 0.963521) (layer F.SilkS) (width 0.153))
  (fp_line (start -0.185276 0.963521) (end -0.186034 0.963711) (layer F.SilkS) (width 0.153))
  (fp_line (start -0.178662 0.913942) (end -0.180726 0.962412) (layer F.SilkS) (width 0.153))
  (fp_line (start -0.114672 -0.588608) (end -0.116736 -0.540139) (layer F.SilkS) (width 0.153))
  (fp_line (start -0.135314 -0.103914) (end -0.137378 -0.055445) (layer F.SilkS) (width 0.153))
  (fp_line (start -0.223413 0.925221) (end -0.228157 0.917013) (layer F.SilkS) (width 0.153))
  (fp_line (start -0.145635 0.138432) (end -0.147699 0.186902) (layer F.SilkS) (width 0.153))
  (fp_line (start -0.228157 0.917013) (end -0.233215 0.90901) (layer F.SilkS) (width 0.153))
  (fp_line (start -0.673042 1.100209) (end -0.672161 1.103416) (layer F.SilkS) (width 0.153))
  (fp_line (start -0.672161 1.103416) (end -0.671236 1.106605) (layer F.SilkS) (width 0.153))
  (fp_line (start -0.671236 1.106605) (end -0.670268 1.109776) (layer F.SilkS) (width 0.153))
  (fp_line (start -0.125503 -2.806159) (end -0.069937 -2.823411) (layer F.SilkS) (width 0.153))
  (fp_line (start -0.069937 -2.823411) (end -0.010279 -2.829426) (layer F.SilkS) (width 0.153))
  (fp_line (start -0.661024 1.134462) (end -0.659687 1.137458) (layer F.SilkS) (width 0.153))
  (fp_line (start -0.659687 1.137458) (end -0.658312 1.140434) (layer F.SilkS) (width 0.153))
  (fp_line (start -0.658312 1.140434) (end -0.656898 1.143388) (layer F.SilkS) (width 0.153))
  (fp_line (start -0.656898 1.143388) (end -0.669024 1.145153) (layer F.SilkS) (width 0.153))
  (fp_line (start -0.665973 1.122274) (end -0.664797 1.125351) (layer F.SilkS) (width 0.153))
  (fp_line (start -0.664797 1.125351) (end -0.663579 1.128408) (layer F.SilkS) (width 0.153))
  (fp_line (start -0.663579 1.128408) (end -0.662322 1.131445) (layer F.SilkS) (width 0.153))
  (fp_line (start -0.662322 1.131445) (end -0.661024 1.134462) (layer F.SilkS) (width 0.153))
  (fp_line (start -0.233215 0.90901) (end -0.238578 0.901222) (layer F.SilkS) (width 0.153))
  (fp_line (start -0.679742 1.015233) (end -0.680683 1.027427) (layer F.SilkS) (width 0.153))
  (fp_line (start -0.680683 1.027427) (end -0.680999 1.039783) (layer F.SilkS) (width 0.153))
  (fp_line (start -0.164212 0.574657) (end -0.166276 0.623126) (layer F.SilkS) (width 0.153))
  (fp_line (start -0.676052 0.991393) (end -0.678194 1.003217) (layer F.SilkS) (width 0.153))
  (fp_line (start -0.238578 0.901222) (end -0.244239 0.893656) (layer F.SilkS) (width 0.153))
  (fp_line (start -1.694162 1.264076) (end -1.715125 1.275227) (layer F.SilkS) (width 0.153))
  (fp_line (start -1.715125 1.275227) (end -1.735628 1.287074) (layer F.SilkS) (width 0.153))
  (fp_line (start -1.735628 1.287074) (end -1.755655 1.299599) (layer F.SilkS) (width 0.153))
  (fp_line (start -1.755655 1.299599) (end -1.775191 1.312787) (layer F.SilkS) (width 0.153))
  (fp_line (start -1.775191 1.312787) (end -1.794221 1.326621) (layer F.SilkS) (width 0.153))
  (fp_line (start -0.244239 0.893656) (end -0.250188 0.88632) (layer F.SilkS) (width 0.153))
  (fp_line (start -0.166276 0.623126) (end -0.168341 0.671596) (layer F.SilkS) (width 0.153))
  (fp_line (start -0.203951 0.968825) (end -0.204687 0.969063) (layer F.SilkS) (width 0.153))
  (fp_line (start -0.56375 0.834445) (end -0.573631 0.84069) (layer F.SilkS) (width 0.153))
  (fp_line (start -0.42725 0.799895) (end -0.437467 0.799687) (layer F.SilkS) (width 0.153))
  (fp_line (start -0.168341 0.671596) (end -0.170405 0.720065) (layer F.SilkS) (width 0.153))
  (fp_line (start -0.250188 0.88632) (end -0.256418 0.879222) (layer F.SilkS) (width 0.153))
  (fp_line (start -0.256418 0.879222) (end -0.262921 0.872371) (layer F.SilkS) (width 0.153))
  (fp_line (start -0.262921 0.872371) (end -0.269688 0.865775) (layer F.SilkS) (width 0.153))
  (fp_line (start -0.269688 0.865775) (end -0.27671 0.859442) (layer F.SilkS) (width 0.153))
  (fp_line (start -0.27671 0.859442) (end -0.283981 0.85338) (layer F.SilkS) (width 0.153))
  (fp_line (start -0.15802 0.429249) (end -0.160084 0.477718) (layer F.SilkS) (width 0.153))
  (fp_line (start -0.283981 0.85338) (end -0.29149 0.847597) (layer F.SilkS) (width 0.153))
  (fp_line (start -0.181486 0.962593) (end -0.182245 0.962775) (layer F.SilkS) (width 0.153))
  (fp_line (start -0.680886 1.046724) (end -0.680757 1.050176) (layer F.SilkS) (width 0.153))
  (fp_line (start -0.680757 1.050176) (end -0.68058 1.053614) (layer F.SilkS) (width 0.153))
  (fp_line (start -0.29149 0.847597) (end -0.299231 0.842101) (layer F.SilkS) (width 0.153))
  (fp_line (start -1.29319 1.196006) (end -1.307799 1.194224) (layer F.SilkS) (width 0.153))
  (fp_line (start -1.307799 1.194224) (end -1.322497 1.192752) (layer F.SilkS) (width 0.153))
  (fp_line (start -1.322497 1.192752) (end -1.337282 1.191593) (layer F.SilkS) (width 0.153))
  (fp_line (start -1.337282 1.191593) (end -1.352149 1.190752) (layer F.SilkS) (width 0.153))
  (fp_line (start -1.352149 1.190752) (end -1.367095 1.19023) (layer F.SilkS) (width 0.153))
  (fp_line (start -0.68058 1.053614) (end -0.680352 1.057039) (layer F.SilkS) (width 0.153))
  (fp_line (start -0.680352 1.057039) (end -0.680074 1.06045) (layer F.SilkS) (width 0.153))
  (fp_line (start -0.170405 0.720065) (end -0.172469 0.768534) (layer F.SilkS) (width 0.153))
  (fp_line (start -0.573631 0.84069) (end -0.583179 0.847384) (layer F.SilkS) (width 0.153))
  (fp_line (start -0.299231 0.842101) (end -0.307195 0.836901) (layer F.SilkS) (width 0.153))
  (fp_line (start -0.307195 0.836901) (end -0.315373 0.832004) (layer F.SilkS) (width 0.153))
  (fp_line (start -0.990248 1.314967) (end -1.001797 1.306965) (layer F.SilkS) (width 0.153))
  (fp_line (start -1.001797 1.306965) (end -1.013519 1.299198) (layer F.SilkS) (width 0.153))
  (fp_line (start -1.013519 1.299198) (end -1.02541 1.291668) (layer F.SilkS) (width 0.153))
  (fp_line (start -1.02541 1.291668) (end -1.037467 1.284378) (layer F.SilkS) (width 0.153))
  (fp_line (start -0.137378 -0.055445) (end -0.139442 -0.006976) (layer F.SilkS) (width 0.153))
  (fp_line (start 1.249691 2.179632) (end 1.323237 2.147129) (layer F.SilkS) (width 0.153))
  (fp_line (start 1.323237 2.147129) (end 1.395959 2.112796) (layer F.SilkS) (width 0.153))
  (fp_line (start 1.395959 2.112796) (end 1.467823 2.076648) (layer F.SilkS) (width 0.153))
  (fp_line (start 1.467823 2.076648) (end 1.538793 2.038699) (layer F.SilkS) (width 0.153))
  (fp_line (start 1.538793 2.038699) (end 1.608833 1.998965) (layer F.SilkS) (width 0.153))
  (fp_line (start 1.608833 1.998965) (end 1.677909 1.95746) (layer F.SilkS) (width 0.153))
  (fp_line (start 1.677909 1.95746) (end 1.745985 1.914201) (layer F.SilkS) (width 0.153))
  (fp_line (start 1.745985 1.914201) (end 1.813027 1.869202) (layer F.SilkS) (width 0.153))
  (fp_line (start -0.661862 0.946324) (end -0.666223 0.957227) (layer F.SilkS) (width 0.153))
  (fp_line (start -1.977385 1.536888) (end -1.988411 1.557592) (layer F.SilkS) (width 0.153))
  (fp_line (start -1.988411 1.557592) (end -1.998713 1.578707) (layer F.SilkS) (width 0.153))
  (fp_line (start -1.998713 1.578707) (end -2.008274 1.600217) (layer F.SilkS) (width 0.153))
  (fp_line (start -2.008274 1.600217) (end -2.016137 1.59569) (layer F.SilkS) (width 0.153))
  (fp_line (start -2.016137 1.59569) (end -2.024053 1.59124) (layer F.SilkS) (width 0.153))
  (fp_line (start -2.024053 1.59124) (end -2.032022 1.586865) (layer F.SilkS) (width 0.153))
  (fp_line (start -0.315373 0.832004) (end -0.323758 0.827419) (layer F.SilkS) (width 0.153))
  (fp_line (start -1.152829 1.23015) (end -1.166342 1.225449) (layer F.SilkS) (width 0.153))
  (fp_line (start -1.166342 1.225449) (end -1.179981 1.221026) (layer F.SilkS) (width 0.153))
  (fp_line (start -1.179981 1.221026) (end -1.193742 1.216882) (layer F.SilkS) (width 0.153))
  (fp_line (start -1.193742 1.216882) (end -1.207622 1.213023) (layer F.SilkS) (width 0.153))
  (fp_line (start -1.207622 1.213023) (end -1.221617 1.20945) (layer F.SilkS) (width 0.153))
  (fp_line (start -0.645744 0.915281) (end -0.651607 0.925336) (layer F.SilkS) (width 0.153))
  (fp_line (start 0.523507 1.119264) (end 0.51834 1.10738) (layer F.SilkS) (width 0.153))
  (fp_line (start 0.51834 1.10738) (end 0.51274 1.095732) (layer F.SilkS) (width 0.153))
  (fp_line (start 0.51274 1.095732) (end 0.506715 1.084327) (layer F.SilkS) (width 0.153))
  (fp_line (start 0.506715 1.084327) (end 0.500277 1.073177) (layer F.SilkS) (width 0.153))
  (fp_line (start 0.500277 1.073177) (end 0.493434 1.062291) (layer F.SilkS) (width 0.153))
  (fp_line (start 0.493434 1.062291) (end 0.486198 1.05168) (layer F.SilkS) (width 0.153))
  (fp_line (start 0.486198 1.05168) (end 0.478577 1.041352) (layer F.SilkS) (width 0.153))
  (fp_line (start 0.478577 1.041352) (end 0.470583 1.031318) (layer F.SilkS) (width 0.153))
  (fp_line (start 0.470583 1.031318) (end 0.462225 1.021588) (layer F.SilkS) (width 0.153))
  (fp_line (start 0.462225 1.021588) (end 0.453514 1.012172) (layer F.SilkS) (width 0.153))
  (fp_line (start 0.453514 1.012172) (end 0.444459 1.003079) (layer F.SilkS) (width 0.153))
  (fp_line (start -0.543051 0.823362) (end -0.553551 0.828664) (layer F.SilkS) (width 0.153))
  (fp_line (start -0.180726 0.962412) (end -0.181486 0.962593) (layer F.SilkS) (width 0.153))
  (fp_line (start -0.323758 0.827419) (end -0.332341 0.823154) (layer F.SilkS) (width 0.153))
  (fp_line (start -0.462368 0.800927) (end -0.474556 0.802454) (layer F.SilkS) (width 0.153))
  (fp_line (start -0.332341 0.823154) (end -0.341114 0.819217) (layer F.SilkS) (width 0.153))
  (fp_line (start -0.120865 -0.4432) (end -0.122929 -0.394731) (layer F.SilkS) (width 0.153))
  (fp_line (start -0.341114 0.819217) (end -0.350068 0.815617) (layer F.SilkS) (width 0.153))
  (fp_line (start -0.350068 0.815617) (end -0.359196 0.81236) (layer F.SilkS) (width 0.153))
  (fp_line (start -0.359196 0.81236) (end -0.368489 0.809457) (layer F.SilkS) (width 0.153))
  (fp_line (start -0.368489 0.809457) (end -0.377938 0.806914) (layer F.SilkS) (width 0.153))
  (fp_line (start -0.116736 -0.540139) (end -0.1188 -0.491669) (layer F.SilkS) (width 0.153))
  (fp_line (start -0.397275 0.802943) (end -0.407146 0.80153) (layer F.SilkS) (width 0.153))
  (fp_line (start -0.377938 0.806914) (end -0.387537 0.80474) (layer F.SilkS) (width 0.153))
  (fp_line (start -0.160084 0.477718) (end -0.162148 0.526187) (layer F.SilkS) (width 0.153))
  (fp_line (start -0.387537 0.80474) (end -0.397275 0.802943) (layer F.SilkS) (width 0.153))
  (fp_line (start -0.407146 0.80153) (end -0.41714 0.800512) (layer F.SilkS) (width 0.153))
  (fp_line (start -0.127057 -0.297792) (end -0.129121 -0.249322) (layer F.SilkS) (width 0.153))
  (fp_line (start -0.41714 0.800512) (end -0.42725 0.799895) (layer F.SilkS) (width 0.153))
  (fp_line (start -0.186789 0.963903) (end -0.187545 0.964097) (layer F.SilkS) (width 0.153))
  (fp_line (start 0.550413 1.280161) (end 0.547647 1.279477) (layer F.SilkS) (width 0.153))
  (fp_line (start 0.547647 1.279477) (end 0.547728 1.278529) (layer F.SilkS) (width 0.153))
  (fp_line (start 0.547728 1.278529) (end 0.547808 1.277581) (layer F.SilkS) (width 0.153))
  (fp_line (start 0.547808 1.277581) (end 0.547889 1.276632) (layer F.SilkS) (width 0.153))
  (fp_line (start 0.547889 1.276632) (end 0.54797 1.275683) (layer F.SilkS) (width 0.153))
  (fp_line (start 0.54797 1.275683) (end 0.54805 1.274734) (layer F.SilkS) (width 0.153))
  (fp_line (start 0.54805 1.274734) (end 0.548115 1.273783) (layer F.SilkS) (width 0.153))
  (fp_line (start 0.548115 1.273783) (end 0.54818 1.272832) (layer F.SilkS) (width 0.153))
  (fp_line (start 0.54818 1.272832) (end 0.548244 1.27188) (layer F.SilkS) (width 0.153))
  (fp_line (start 0.548244 1.27188) (end 0.548309 1.270927) (layer F.SilkS) (width 0.153))
  (fp_line (start -1.582987 1.219342) (end -1.606018 1.226764) (layer F.SilkS) (width 0.153))
  (fp_line (start -1.606018 1.226764) (end -1.628666 1.234965) (layer F.SilkS) (width 0.153))
  (fp_line (start -1.628666 1.234965) (end -1.650917 1.243928) (layer F.SilkS) (width 0.153))
  (fp_line (start -1.650917 1.243928) (end -1.672754 1.253637) (layer F.SilkS) (width 0.153))
  (fp_line (start -1.672754 1.253637) (end -1.694162 1.264076) (layer F.SilkS) (width 0.153))
  (fp_line (start 0.577874 1.287601) (end 0.575144 1.28681) (layer F.SilkS) (width 0.153))
  (fp_line (start 0.575144 1.28681) (end 0.572411 1.286029) (layer F.SilkS) (width 0.153))
  (fp_line (start 0.572411 1.286029) (end 0.569675 1.285259) (layer F.SilkS) (width 0.153))
  (fp_line (start 0.569675 1.285259) (end 0.566934 1.284499) (layer F.SilkS) (width 0.153))
  (fp_line (start 0.566934 1.284499) (end 0.56419 1.28375) (layer F.SilkS) (width 0.153))
  (fp_line (start 0.56419 1.28375) (end 0.561442 1.28301) (layer F.SilkS) (width 0.153))
  (fp_line (start 0.561442 1.28301) (end 0.55869 1.282282) (layer F.SilkS) (width 0.153))
  (fp_line (start 0.55869 1.282282) (end 0.555935 1.281564) (layer F.SilkS) (width 0.153))
  (fp_line (start 0.555935 1.281564) (end 0.553176 1.280857) (layer F.SilkS) (width 0.153))
  (fp_line (start 0.553176 1.280857) (end 0.550413 1.280161) (layer F.SilkS) (width 0.153))
  (fp_line (start -1.923519 1.806374) (end -1.85949 1.852571) (layer F.SilkS) (width 0.153))
  (fp_line (start -1.85949 1.852571) (end -1.794432 1.897126) (layer F.SilkS) (width 0.153))
  (fp_line (start -1.794432 1.897126) (end -1.72838 1.940025) (layer F.SilkS) (width 0.153))
  (fp_line (start -1.72838 1.940025) (end -1.661367 1.981255) (layer F.SilkS) (width 0.153))
  (fp_line (start -1.661367 1.981255) (end -1.593425 2.020803) (layer F.SilkS) (width 0.153))
  (fp_line (start -1.593425 2.020803) (end -1.524586 2.058654) (layer F.SilkS) (width 0.153))
  (fp_line (start -1.524586 2.058654) (end -1.454885 2.094795) (layer F.SilkS) (width 0.153))
  (fp_line (start -0.680999 1.039783) (end -0.680967 1.04326) (layer F.SilkS) (width 0.153))
  (fp_line (start -0.680967 1.04326) (end -0.680886 1.046724) (layer F.SilkS) (width 0.153))
  (fp_line (start -0.186034 0.963711) (end -0.186789 0.963903) (layer F.SilkS) (width 0.153))
  (fp_line (start -0.129121 -0.249322) (end -0.131185 -0.200853) (layer F.SilkS) (width 0.153))
  (fp_line (start -0.187545 0.964097) (end -0.188298 0.964292) (layer F.SilkS) (width 0.153))
  (fp_line (start 0.872481 1.194576) (end 0.861998 1.196196) (layer F.SilkS) (width 0.153))
  (fp_line (start 0.861998 1.196196) (end 0.851597 1.198054) (layer F.SilkS) (width 0.153))
  (fp_line (start 0.851597 1.198054) (end 0.841282 1.200148) (layer F.SilkS) (width 0.153))
  (fp_line (start 0.841282 1.200148) (end 0.831055 1.202474) (layer F.SilkS) (width 0.153))
  (fp_line (start 0.831055 1.202474) (end 0.820919 1.20503) (layer F.SilkS) (width 0.153))
  (fp_line (start 0.820919 1.20503) (end 0.810876 1.207812) (layer F.SilkS) (width 0.153))
  (fp_line (start 0.810876 1.207812) (end 0.800931 1.210817) (layer F.SilkS) (width 0.153))
  (fp_line (start 0.800931 1.210817) (end 0.791086 1.214043) (layer F.SilkS) (width 0.153))
  (fp_line (start 0.791086 1.214043) (end 0.781344 1.217487) (layer F.SilkS) (width 0.153))
  (fp_line (start -0.639409 0.90554) (end -0.645744 0.915281) (layer F.SilkS) (width 0.153))
  (fp_line (start 0.029293 -0.588606) (end 0.023034 -0.588606) (layer F.SilkS) (width 0.153))
  (fp_line (start 0.023034 -0.588606) (end 0.016774 -0.588606) (layer F.SilkS) (width 0.153))
  (fp_line (start 0.016774 -0.588606) (end 0.010515 -0.588606) (layer F.SilkS) (width 0.153))
  (fp_line (start 0.010515 -0.588606) (end 0.004255 -0.588606) (layer F.SilkS) (width 0.153))
  (fp_line (start 0.004255 -0.588606) (end -0.002004 -0.588606) (layer F.SilkS) (width 0.153))
  (fp_line (start -0.002004 -0.588606) (end -0.008264 -0.588606) (layer F.SilkS) (width 0.153))
  (fp_line (start -0.008264 -0.588606) (end -0.014523 -0.588606) (layer F.SilkS) (width 0.153))
  (fp_line (start -0.014523 -0.588606) (end -0.020783 -0.588606) (layer F.SilkS) (width 0.153))
  (fp_line (start -0.020783 -0.588606) (end -0.027042 -0.588606) (layer F.SilkS) (width 0.153))
  (fp_line (start -0.027042 -0.588606) (end -0.033302 -0.588606) (layer F.SilkS) (width 0.153))
  (fp_line (start -0.033302 -0.588606) (end -0.039561 -0.588606) (layer F.SilkS) (width 0.153))
  (fp_line (start -0.039561 -0.588606) (end -0.045821 -0.588606) (layer F.SilkS) (width 0.153))
  (fp_line (start -0.045821 -0.588606) (end -0.05208 -0.588606) (layer F.SilkS) (width 0.153))
  (fp_line (start -0.05208 -0.588606) (end -0.05834 -0.588606) (layer F.SilkS) (width 0.153))
  (fp_line (start -0.05834 -0.588606) (end -0.0646 -0.588606) (layer F.SilkS) (width 0.153))
  (fp_line (start -0.0646 -0.588606) (end -0.070859 -0.588606) (layer F.SilkS) (width 0.153))
  (fp_line (start -0.069772 -3.513562) (end -0.078602 -3.504657) (layer F.SilkS) (width 0.153))
  (fp_line (start -0.078602 -3.504657) (end -0.114715 -3.462211) (layer F.SilkS) (width 0.153))
  (fp_line (start -0.114715 -3.462211) (end -0.155637 -3.410238) (layer F.SilkS) (width 0.153))
  (fp_line (start -0.155637 -3.410238) (end -0.200222 -3.34868) (layer F.SilkS) (width 0.153))
  (fp_line (start -0.200222 -3.34868) (end -0.247326 -3.277479) (layer F.SilkS) (width 0.153))
  (fp_line (start -0.247326 -3.277479) (end -0.295804 -3.196575) (layer F.SilkS) (width 0.153))
  (fp_line (start -0.295804 -3.196575) (end -0.344512 -3.105911) (layer F.SilkS) (width 0.153))
  (fp_line (start -0.344512 -3.105911) (end -0.392304 -3.005429) (layer F.SilkS) (width 0.153))
  (fp_line (start -0.392304 -3.005429) (end -0.438036 -2.895069) (layer F.SilkS) (width 0.153))
  (fp_line (start -0.438036 -2.895069) (end -0.480349 -2.775364) (layer F.SilkS) (width 0.153))
  (fp_line (start -0.480349 -2.775364) (end -0.518361 -2.64576) (layer F.SilkS) (width 0.153))
  (fp_line (start -0.518361 -2.64576) (end -0.55094 -2.506194) (layer F.SilkS) (width 0.153))
  (fp_line (start -0.55094 -2.506194) (end -0.576955 -2.356604) (layer F.SilkS) (width 0.153))
  (fp_line (start -0.576955 -2.356604) (end -0.595274 -2.196928) (layer F.SilkS) (width 0.153))
  (fp_line (start -0.595274 -2.196928) (end -0.604768 -2.027103) (layer F.SilkS) (width 0.153))
  (fp_line (start -0.604768 -2.027103) (end -0.604303 -1.847067) (layer F.SilkS) (width 0.153))
  (fp_line (start 0.346432 0.808412) (end 0.344575 0.800475) (layer F.SilkS) (width 0.153))
  (fp_line (start 0.344575 0.800475) (end 0.342332 0.792691) (layer F.SilkS) (width 0.153))
  (fp_line (start 0.342332 0.792691) (end 0.339716 0.785069) (layer F.SilkS) (width 0.153))
  (fp_line (start 0.339716 0.785069) (end 0.336737 0.777619) (layer F.SilkS) (width 0.153))
  (fp_line (start 0.336737 0.777619) (end 0.333405 0.770353) (layer F.SilkS) (width 0.153))
  (fp_line (start 0.333405 0.770353) (end 0.329731 0.763279) (layer F.SilkS) (width 0.153))
  (fp_line (start 0.329731 0.763279) (end 0.325725 0.756409) (layer F.SilkS) (width 0.153))
  (fp_line (start 0.325725 0.756409) (end 0.321397 0.749753) (layer F.SilkS) (width 0.153))
  (fp_line (start 0.321397 0.749753) (end 0.316758 0.743322) (layer F.SilkS) (width 0.153))
  (fp_line (start 0.316758 0.743322) (end 0.311819 0.737124) (layer F.SilkS) (width 0.153))
  (fp_line (start 0.311819 0.737124) (end 0.306589 0.731172) (layer F.SilkS) (width 0.153))
  (fp_line (start 0.306589 0.731172) (end 0.30108 0.725474) (layer F.SilkS) (width 0.153))
  (fp_line (start 0.30108 0.725474) (end 0.295302 0.720043) (layer F.SilkS) (width 0.153))
  (fp_line (start -0.188298 0.964292) (end -0.189052 0.964489) (layer F.SilkS) (width 0.153))
  (fp_line (start 1.813027 1.869202) (end 1.878997 1.822477) (layer F.SilkS) (width 0.153))
  (fp_line (start 1.878997 1.822477) (end 1.943863 1.774043) (layer F.SilkS) (width 0.153))
  (fp_line (start 1.943863 1.774043) (end 2.007587 1.723914) (layer F.SilkS) (width 0.153))
  (fp_line (start 2.007587 1.723914) (end 2.070136 1.672104) (layer F.SilkS) (width 0.153))
  (fp_line (start 2.070136 1.672104) (end 2.131473 1.618631) (layer F.SilkS) (width 0.153))
  (fp_line (start 2.131473 1.618631) (end 2.191563 1.563507) (layer F.SilkS) (width 0.153))
  (fp_line (start 2.191563 1.563507) (end 2.250372 1.506749) (layer F.SilkS) (width 0.153))
  (fp_line (start 2.250372 1.506749) (end 2.307864 1.448371) (layer F.SilkS) (width 0.153))
  (fp_line (start -1.221617 1.20945) (end -1.235723 1.206167) (layer F.SilkS) (width 0.153))
  (fp_line (start -1.235723 1.206167) (end -1.249937 1.203178) (layer F.SilkS) (width 0.153))
  (fp_line (start -1.249937 1.203178) (end -1.264255 1.200486) (layer F.SilkS) (width 0.153))
  (fp_line (start -1.264255 1.200486) (end -1.278674 1.198094) (layer F.SilkS) (width 0.153))
  (fp_line (start -1.278674 1.198094) (end -1.29319 1.196006) (layer F.SilkS) (width 0.153))
  (fp_line (start -0.604303 -1.847067) (end -0.59275 -1.656757) (layer F.SilkS) (width 0.153))
  (fp_line (start -0.59275 -1.656757) (end -0.592224 -1.652184) (layer F.SilkS) (width 0.153))
  (fp_line (start -0.592224 -1.652184) (end -0.590611 -1.638923) (layer F.SilkS) (width 0.153))
  (fp_line (start -0.590611 -1.638923) (end -0.587857 -1.617654) (layer F.SilkS) (width 0.153))
  (fp_line (start -0.587857 -1.617654) (end -0.583909 -1.58906) (layer F.SilkS) (width 0.153))
  (fp_line (start -0.583909 -1.58906) (end -0.578713 -1.553824) (layer F.SilkS) (width 0.153))
  (fp_line (start -0.578713 -1.553824) (end -0.572215 -1.512628) (layer F.SilkS) (width 0.153))
  (fp_line (start -0.572215 -1.512628) (end -0.564364 -1.466154) (layer F.SilkS) (width 0.153))
  (fp_line (start -0.564364 -1.466154) (end -0.555104 -1.415085) (layer F.SilkS) (width 0.153))
  (fp_line (start -0.555104 -1.415085) (end -0.609586 -1.377916) (layer F.SilkS) (width 0.153))
  (fp_line (start -0.609586 -1.377916) (end -0.681976 -1.315978) (layer F.SilkS) (width 0.153))
  (fp_line (start -0.681976 -1.315978) (end -0.761393 -1.227177) (layer F.SilkS) (width 0.153))
  (fp_line (start -0.761393 -1.227177) (end -0.836953 -1.109418) (layer F.SilkS) (width 0.153))
  (fp_line (start -0.836953 -1.109418) (end -0.897777 -0.960608) (layer F.SilkS) (width 0.153))
  (fp_line (start -0.897777 -0.960608) (end -0.932982 -0.778652) (layer F.SilkS) (width 0.153))
  (fp_line (start -0.932982 -0.778652) (end -0.931686 -0.561456) (layer F.SilkS) (width 0.153))
  (fp_line (start -0.931686 -0.561456) (end -0.883008 -0.306925) (layer F.SilkS) (width 0.153))
  (fp_line (start -0.883008 -0.306925) (end -0.877159 -0.324471) (layer F.SilkS) (width 0.153))
  (fp_line (start 0.338747 0.900028) (end 0.339741 0.897421) (layer F.SilkS) (width 0.153))
  (fp_line (start 0.339741 0.897421) (end 0.340692 0.894793) (layer F.SilkS) (width 0.153))
  (fp_line (start 0.340692 0.894793) (end 0.341599 0.892146) (layer F.SilkS) (width 0.153))
  (fp_line (start 0.341599 0.892146) (end 0.342461 0.889478) (layer F.SilkS) (width 0.153))
  (fp_line (start 0.342461 0.889478) (end 0.34328 0.886791) (layer F.SilkS) (width 0.153))
  (fp_line (start 0.34328 0.886791) (end 0.344051 0.884085) (layer F.SilkS) (width 0.153))
  (fp_line (start 0.344051 0.884085) (end 0.344778 0.88136) (layer F.SilkS) (width 0.153))
  (fp_line (start 0.344778 0.88136) (end 0.345457 0.878617) (layer F.SilkS) (width 0.153))
  (fp_line (start 0.345457 0.878617) (end 0.346089 0.875856) (layer F.SilkS) (width 0.153))
  (fp_line (start 0.346089 0.875856) (end 0.346673 0.873077) (layer F.SilkS) (width 0.153))
  (fp_line (start 0.346673 0.873077) (end 0.347209 0.870282) (layer F.SilkS) (width 0.153))
  (fp_line (start 0.347209 0.870282) (end 0.347696 0.86747) (layer F.SilkS) (width 0.153))
  (fp_line (start -0.070859 -0.588606) (end -0.077119 -0.588606) (layer F.SilkS) (width 0.153))
  (fp_line (start -0.077119 -0.588606) (end -0.083378 -0.588606) (layer F.SilkS) (width 0.153))
  (fp_line (start -0.083378 -0.588606) (end -0.089638 -0.588606) (layer F.SilkS) (width 0.153))
  (fp_line (start -0.089638 -0.588606) (end -0.095897 -0.588606) (layer F.SilkS) (width 0.153))
  (fp_line (start -0.095897 -0.588606) (end -0.102157 -0.588606) (layer F.SilkS) (width 0.153))
  (fp_line (start -0.102157 -0.588606) (end -0.108416 -0.588606) (layer F.SilkS) (width 0.153))
  (fp_line (start -0.108416 -0.588606) (end -0.114672 -0.588608) (layer F.SilkS) (width 0.153))
  (fp_line (start -0.010279 -2.829426) (end 0.049386 -2.823411) (layer F.SilkS) (width 0.153))
  (fp_line (start 0.049386 -2.823411) (end 0.104959 -2.806159) (layer F.SilkS) (width 0.153))
  (fp_line (start 0.104959 -2.806159) (end 0.155249 -2.778862) (layer F.SilkS) (width 0.153))
  (fp_line (start 0.006873 -3.540853) (end -0.004862 -3.540764) (layer F.SilkS) (width 0.153))
  (fp_line (start -0.004862 -3.540764) (end -0.016527 -3.539392) (layer F.SilkS) (width 0.153))
  (fp_line (start -0.016527 -3.539392) (end -0.028006 -3.536745) (layer F.SilkS) (width 0.153))
  (fp_line (start -0.028006 -3.536745) (end -0.039185 -3.532831) (layer F.SilkS) (width 0.153))
  (fp_line (start -0.039185 -3.532831) (end -0.049948 -3.527657) (layer F.SilkS) (width 0.153))
  (fp_line (start -0.049948 -3.527657) (end -0.060182 -3.521231) (layer F.SilkS) (width 0.153))
  (fp_line (start -0.060182 -3.521231) (end -0.069772 -3.513562) (layer F.SilkS) (width 0.153))
  (fp_line (start -0.189052 0.964489) (end -0.189805 0.964688) (layer F.SilkS) (width 0.153))
  (fp_line (start 0.604961 1.29606) (end 0.602269 1.295171) (layer F.SilkS) (width 0.153))
  (fp_line (start 0.602269 1.295171) (end 0.599573 1.294291) (layer F.SilkS) (width 0.153))
  (fp_line (start 0.599573 1.294291) (end 0.596874 1.293421) (layer F.SilkS) (width 0.153))
  (fp_line (start 0.596874 1.293421) (end 0.594171 1.292559) (layer F.SilkS) (width 0.153))
  (fp_line (start 0.594171 1.292559) (end 0.591464 1.291708) (layer F.SilkS) (width 0.153))
  (fp_line (start 0.591464 1.291708) (end 0.588754 1.290867) (layer F.SilkS) (width 0.153))
  (fp_line (start 0.588754 1.290867) (end 0.586039 1.290036) (layer F.SilkS) (width 0.153))
  (fp_line (start 0.586039 1.290036) (end 0.583321 1.289214) (layer F.SilkS) (width 0.153))
  (fp_line (start 0.583321 1.289214) (end 0.580599 1.288402) (layer F.SilkS) (width 0.153))
  (fp_line (start 0.580599 1.288402) (end 0.577874 1.287601) (layer F.SilkS) (width 0.153))
  (fp_line (start 1.480496 1.474523) (end 1.464744 1.482822) (layer F.SilkS) (width 0.153))
  (fp_line (start 1.464744 1.482822) (end 1.449168 1.4914) (layer F.SilkS) (width 0.153))
  (fp_line (start 1.449168 1.4914) (end 1.433773 1.500255) (layer F.SilkS) (width 0.153))
  (fp_line (start 1.433773 1.500255) (end 1.418561 1.509381) (layer F.SilkS) (width 0.153))
  (fp_line (start 1.418561 1.509381) (end 1.403536 1.518776) (layer F.SilkS) (width 0.153))
  (fp_line (start 1.403536 1.518776) (end 1.388702 1.528437) (layer F.SilkS) (width 0.153))
  (fp_line (start 1.388702 1.528437) (end 1.374061 1.538359) (layer F.SilkS) (width 0.153))
  (fp_line (start 1.374061 1.538359) (end 1.369625 1.519849) (layer F.SilkS) (width 0.153))
  (fp_line (start 1.369625 1.519849) (end 1.36441 1.501648) (layer F.SilkS) (width 0.153))
  (fp_line (start -0.656986 0.935688) (end -0.661862 0.946324) (layer F.SilkS) (width 0.153))
  (fp_line (start -0.609672 0.870007) (end -0.617736 0.878345) (layer F.SilkS) (width 0.153))
  (fp_line (start -0.680074 1.06045) (end -0.679748 1.063847) (layer F.SilkS) (width 0.153))
  (fp_line (start -0.679748 1.063847) (end -0.679374 1.06723) (layer F.SilkS) (width 0.153))
  (fp_line (start -0.679374 1.06723) (end -0.678951 1.070598) (layer F.SilkS) (width 0.153))
  (fp_line (start 0.781344 1.217487) (end 0.771707 1.221145) (layer F.SilkS) (width 0.153))
  (fp_line (start 0.771707 1.221145) (end 0.76218 1.225015) (layer F.SilkS) (width 0.153))
  (fp_line (start 0.76218 1.225015) (end 0.752763 1.229093) (layer F.SilkS) (width 0.153))
  (fp_line (start 0.752763 1.229093) (end 0.743462 1.233378) (layer F.SilkS) (width 0.153))
  (fp_line (start 0.743462 1.233378) (end 0.734278 1.237865) (layer F.SilkS) (width 0.153))
  (fp_line (start 0.734278 1.237865) (end 0.725215 1.242552) (layer F.SilkS) (width 0.153))
  (fp_line (start 0.725215 1.242552) (end 0.716275 1.247436) (layer F.SilkS) (width 0.153))
  (fp_line (start 0.716275 1.247436) (end 0.707462 1.252514) (layer F.SilkS) (width 0.153))
  (fp_line (start 0.707462 1.252514) (end 0.698778 1.257783) (layer F.SilkS) (width 0.153))
  (fp_line (start 0.168273 0.678156) (end 0.167027 0.678286) (layer F.SilkS) (width 0.153))
  (fp_line (start 0.167027 0.678286) (end 0.165784 0.678415) (layer F.SilkS) (width 0.153))
  (fp_line (start 0.165784 0.678415) (end 0.164544 0.67856) (layer F.SilkS) (width 0.153))
  (fp_line (start 0.164544 0.67856) (end 0.163306 0.678705) (layer F.SilkS) (width 0.153))
  (fp_line (start 0.163306 0.678705) (end 0.162071 0.678867) (layer F.SilkS) (width 0.153))
  (fp_line (start 0.162071 0.678867) (end 0.160839 0.679036) (layer F.SilkS) (width 0.153))
  (fp_line (start 0.160839 0.679036) (end 0.159611 0.679214) (layer F.SilkS) (width 0.153))
  (fp_line (start 0.159611 0.679214) (end 0.158384 0.679401) (layer F.SilkS) (width 0.153))
  (fp_line (start 0.158384 0.679401) (end 0.15716 0.679596) (layer F.SilkS) (width 0.153))
  (fp_line (start 0.15716 0.679596) (end 0.15594 0.6798) (layer F.SilkS) (width 0.153))
  (fp_line (start 0.15594 0.6798) (end 0.154722 0.680011) (layer F.SilkS) (width 0.153))
  (fp_line (start 0.154722 0.680011) (end 0.153508 0.680231) (layer F.SilkS) (width 0.153))
  (fp_line (start 0.153508 0.680231) (end 0.152296 0.680458) (layer F.SilkS) (width 0.153))
  (fp_line (start 0.152296 0.680458) (end 0.151087 0.680696) (layer F.SilkS) (width 0.153))
  (fp_line (start 0.151087 0.680696) (end 0.149881 0.68094) (layer F.SilkS) (width 0.153))
  (fp_line (start -0.945567 2.298759) (end -0.870143 2.320729) (layer F.SilkS) (width 0.153))
  (fp_line (start -0.870143 2.320729) (end -0.794152 2.340867) (layer F.SilkS) (width 0.153))
  (fp_line (start -0.794152 2.340867) (end -0.717626 2.359159) (layer F.SilkS) (width 0.153))
  (fp_line (start -0.717626 2.359159) (end -0.640599 2.375591) (layer F.SilkS) (width 0.153))
  (fp_line (start -0.640599 2.375591) (end -0.563103 2.390149) (layer F.SilkS) (width 0.153))
  (fp_line (start -0.563103 2.390149) (end -0.485171 2.40282) (layer F.SilkS) (width 0.153))
  (fp_line (start -0.485171 2.40282) (end -0.406836 2.413591) (layer F.SilkS) (width 0.153))
  (fp_line (start -0.675422 1.090485) (end -0.674673 1.093744) (layer F.SilkS) (width 0.153))
  (fp_line (start -0.674673 1.093744) (end -0.67388 1.096985) (layer F.SilkS) (width 0.153))
  (fp_line (start -0.67388 1.096985) (end -0.673042 1.100209) (layer F.SilkS) (width 0.153))
  (fp_line (start -0.189805 0.964688) (end -0.190557 0.964888) (layer F.SilkS) (width 0.153))
  (fp_line (start -1.794221 1.326621) (end -1.812728 1.341083) (layer F.SilkS) (width 0.153))
  (fp_line (start -1.812728 1.341083) (end -1.830697 1.356158) (layer F.SilkS) (width 0.153))
  (fp_line (start -1.830697 1.356158) (end -1.848113 1.371828) (layer F.SilkS) (width 0.153))
  (fp_line (start -1.848113 1.371828) (end -1.86496 1.388076) (layer F.SilkS) (width 0.153))
  (fp_line (start -1.86496 1.388076) (end -1.881222 1.404887) (layer F.SilkS) (width 0.153))
  (fp_line (start -1.881222 1.404887) (end -1.896884 1.422242) (layer F.SilkS) (width 0.153))
  (fp_line (start 0.325059 0.927231) (end 0.326502 0.924876) (layer F.SilkS) (width 0.153))
  (fp_line (start 0.326502 0.924876) (end 0.327907 0.922497) (layer F.SilkS) (width 0.153))
  (fp_line (start 0.327907 0.922497) (end 0.329272 0.920093) (layer F.SilkS) (width 0.153))
  (fp_line (start 0.329272 0.920093) (end 0.330599 0.917666) (layer F.SilkS) (width 0.153))
  (fp_line (start 0.330599 0.917666) (end 0.331886 0.915214) (layer F.SilkS) (width 0.153))
  (fp_line (start 0.331886 0.915214) (end 0.333132 0.912739) (layer F.SilkS) (width 0.153))
  (fp_line (start 0.333132 0.912739) (end 0.334338 0.910241) (layer F.SilkS) (width 0.153))
  (fp_line (start 0.334338 0.910241) (end 0.335504 0.907721) (layer F.SilkS) (width 0.153))
  (fp_line (start 0.335504 0.907721) (end 0.336627 0.905178) (layer F.SilkS) (width 0.153))
  (fp_line (start 0.336627 0.905178) (end 0.337709 0.902614) (layer F.SilkS) (width 0.153))
  (fp_line (start 0.337709 0.902614) (end 0.338747 0.900028) (layer F.SilkS) (width 0.153))
  (fp_line (start -0.32072 -0.746761) (end -0.309075 -0.751192) (layer F.SilkS) (width 0.153))
  (fp_line (start -0.309075 -0.751192) (end -0.295091 -0.756174) (layer F.SilkS) (width 0.153))
  (fp_line (start -0.295091 -0.756174) (end -0.278856 -0.761549) (layer F.SilkS) (width 0.153))
  (fp_line (start -0.278856 -0.761549) (end -0.260463 -0.767157) (layer F.SilkS) (width 0.153))
  (fp_line (start -0.260463 -0.767157) (end -0.258252 -0.757403) (layer F.SilkS) (width 0.153))
  (fp_line (start -0.258252 -0.757403) (end -0.256041 -0.747649) (layer F.SilkS) (width 0.153))
  (fp_line (start -0.256041 -0.747649) (end -0.25383 -0.737894) (layer F.SilkS) (width 0.153))
  (fp_line (start -0.25383 -0.737894) (end -0.251619 -0.72814) (layer F.SilkS) (width 0.153))
  (fp_line (start -0.251619 -0.72814) (end -0.249408 -0.718386) (layer F.SilkS) (width 0.153))
  (fp_line (start -0.249408 -0.718386) (end -0.247197 -0.708631) (layer F.SilkS) (width 0.153))
  (fp_line (start -0.247197 -0.708631) (end -0.244986 -0.698877) (layer F.SilkS) (width 0.153))
  (fp_line (start -0.244986 -0.698877) (end -0.242775 -0.689123) (layer F.SilkS) (width 0.153))
  (fp_line (start -0.242775 -0.689123) (end -0.241007 -0.68358) (layer F.SilkS) (width 0.153))
  (fp_line (start -0.241007 -0.68358) (end -0.238381 -0.678531) (layer F.SilkS) (width 0.153))
  (fp_line (start -0.238381 -0.678531) (end -0.234992 -0.674049) (layer F.SilkS) (width 0.153))
  (fp_line (start -0.234992 -0.674049) (end -0.230933 -0.670212) (layer F.SilkS) (width 0.153))
  (fp_line (start -0.230933 -0.670212) (end -0.2263 -0.667095) (layer F.SilkS) (width 0.153))
  (fp_line (start -0.2263 -0.667095) (end -0.221185 -0.664775) (layer F.SilkS) (width 0.153))
  (fp_line (start -0.221185 -0.664775) (end -0.215684 -0.663327) (layer F.SilkS) (width 0.153))
  (fp_line (start -0.215684 -0.663327) (end -0.20989 -0.662828) (layer F.SilkS) (width 0.153))
  (fp_line (start -0.20989 -0.662828) (end -0.159987 -0.662828) (layer F.SilkS) (width 0.153))
  (fp_line (start -0.159987 -0.662828) (end -0.110084 -0.662828) (layer F.SilkS) (width 0.153))
  (fp_line (start -0.601215 0.862057) (end -0.609672 0.870007) (layer F.SilkS) (width 0.153))
  (fp_line (start -2.148933 1.533921) (end -2.157647 1.530753) (layer F.SilkS) (width 0.153))
  (fp_line (start -2.157647 1.530753) (end -2.166407 1.527668) (layer F.SilkS) (width 0.153))
  (fp_line (start -2.166407 1.527668) (end -2.175213 1.524668) (layer F.SilkS) (width 0.153))
  (fp_line (start -2.175213 1.524668) (end -2.184065 1.521754) (layer F.SilkS) (width 0.153))
  (fp_line (start -2.184065 1.521754) (end -2.19296 1.518926) (layer F.SilkS) (width 0.153))
  (fp_line (start -2.19296 1.518926) (end -2.201901 1.516183) (layer F.SilkS) (width 0.153))
  (fp_line (start -2.201901 1.516183) (end -2.210885 1.513528) (layer F.SilkS) (width 0.153))
  (fp_line (start 2.217045 1.414084) (end 2.205391 1.410424) (layer F.SilkS) (width 0.153))
  (fp_line (start 2.205391 1.410424) (end 2.193672 1.406907) (layer F.SilkS) (width 0.153))
  (fp_line (start 2.193672 1.406907) (end 2.181891 1.403534) (layer F.SilkS) (width 0.153))
  (fp_line (start 2.181891 1.403534) (end 2.170049 1.400307) (layer F.SilkS) (width 0.153))
  (fp_line (start 2.170049 1.400307) (end 2.158145 1.397226) (layer F.SilkS) (width 0.153))
  (fp_line (start 2.158145 1.397226) (end 2.146182 1.394292) (layer F.SilkS) (width 0.153))
  (fp_line (start 2.146182 1.394292) (end 2.13416 1.391507) (layer F.SilkS) (width 0.153))
  (fp_line (start 2.13416 1.391507) (end 2.122081 1.388872) (layer F.SilkS) (width 0.153))
  (fp_line (start -0.670051 0.968383) (end -0.673333 0.979777) (layer F.SilkS) (width 0.153))
  (fp_line (start -1.896884 1.422242) (end -1.911931 1.440126) (layer F.SilkS) (width 0.153))
  (fp_line (start -1.911931 1.440126) (end -1.926346 1.458522) (layer F.SilkS) (width 0.153))
  (fp_line (start -1.926346 1.458522) (end -1.940115 1.477413) (layer F.SilkS) (width 0.153))
  (fp_line (start -1.940115 1.477413) (end -1.953221 1.496782) (layer F.SilkS) (width 0.153))
  (fp_line (start -1.953221 1.496782) (end -1.96565 1.516613) (layer F.SilkS) (width 0.153))
  (fp_line (start -1.96565 1.516613) (end -1.977385 1.536888) (layer F.SilkS) (width 0.153))
  (fp_line (start 0.200444 0.678271) (end 0.191994 0.677638) (layer F.SilkS) (width 0.153))
  (fp_line (start 0.191994 0.677638) (end 0.183433 0.677425) (layer F.SilkS) (width 0.153))
  (fp_line (start 0.183433 0.677425) (end 0.182154 0.677431) (layer F.SilkS) (width 0.153))
  (fp_line (start 0.182154 0.677431) (end 0.180879 0.677446) (layer F.SilkS) (width 0.153))
  (fp_line (start 0.180879 0.677446) (end 0.179607 0.677478) (layer F.SilkS) (width 0.153))
  (fp_line (start 0.179607 0.677478) (end 0.178336 0.677511) (layer F.SilkS) (width 0.153))
  (fp_line (start 0.178336 0.677511) (end 0.177069 0.677559) (layer F.SilkS) (width 0.153))
  (fp_line (start 0.177069 0.677559) (end 0.175804 0.677608) (layer F.SilkS) (width 0.153))
  (fp_line (start 0.175804 0.677608) (end 0.174541 0.677672) (layer F.SilkS) (width 0.153))
  (fp_line (start 0.174541 0.677672) (end 0.173282 0.677753) (layer F.SilkS) (width 0.153))
  (fp_line (start 0.173282 0.677753) (end 0.172026 0.677834) (layer F.SilkS) (width 0.153))
  (fp_line (start 0.172026 0.677834) (end 0.170772 0.67793) (layer F.SilkS) (width 0.153))
  (fp_line (start 0.170772 0.67793) (end 0.169521 0.678043) (layer F.SilkS) (width 0.153))
  (fp_line (start 0.169521 0.678043) (end 0.168273 0.678156) (layer F.SilkS) (width 0.153))
  (fp_line (start 0.149881 0.68094) (end 0.148678 0.681191) (layer F.SilkS) (width 0.153))
  (fp_line (start 0.148678 0.681191) (end 0.147479 0.681451) (layer F.SilkS) (width 0.153))
  (fp_line (start 0.147479 0.681451) (end 0.146281 0.681719) (layer F.SilkS) (width 0.153))
  (fp_line (start 0.146281 0.681719) (end 0.145087 0.681994) (layer F.SilkS) (width 0.153))
  (fp_line (start 0.145087 0.681994) (end 0.143895 0.682276) (layer F.SilkS) (width 0.153))
  (fp_line (start 0.143895 0.682276) (end 0.142075 0.642561) (layer F.SilkS) (width 0.153))
  (fp_line (start 0.142075 0.642561) (end 0.140254 0.602846) (layer F.SilkS) (width 0.153))
  (fp_line (start 0.140254 0.602846) (end 0.138433 0.563131) (layer F.SilkS) (width 0.153))
  (fp_line (start 0.138433 0.563131) (end 0.136612 0.523416) (layer F.SilkS) (width 0.153))
  (fp_line (start 0.136612 0.523416) (end 0.134791 0.483701) (layer F.SilkS) (width 0.153))
  (fp_line (start 0.134791 0.483701) (end 0.13297 0.443986) (layer F.SilkS) (width 0.153))
  (fp_line (start 0.13297 0.443986) (end 0.13115 0.404271) (layer F.SilkS) (width 0.153))
  (fp_line (start 0.13115 0.404271) (end 0.129329 0.364556) (layer F.SilkS) (width 0.153))
  (fp_line (start 0.129329 0.364556) (end 0.127508 0.32484) (layer F.SilkS) (width 0.153))
  (fp_line (start 0.127508 0.32484) (end 0.125687 0.285125) (layer F.SilkS) (width 0.153))
  (fp_line (start -0.172469 0.768534) (end -0.174533 0.817004) (layer F.SilkS) (width 0.153))
  (fp_line (start -0.190557 0.964888) (end -0.191307 0.96509) (layer F.SilkS) (width 0.153))
  (fp_line (start -2.274963 1.497418) (end -2.284282 1.495477) (layer F.SilkS) (width 0.153))
  (fp_line (start -2.284282 1.495477) (end -2.227107 1.551238) (layer F.SilkS) (width 0.153))
  (fp_line (start -2.227107 1.551238) (end -2.168707 1.60544) (layer F.SilkS) (width 0.153))
  (fp_line (start -2.168707 1.60544) (end -2.109116 1.658068) (layer F.SilkS) (width 0.153))
  (fp_line (start -2.109116 1.658068) (end -2.048365 1.709109) (layer F.SilkS) (width 0.153))
  (fp_line (start -2.048365 1.709109) (end -1.986489 1.758549) (layer F.SilkS) (width 0.153))
  (fp_line (start -1.986489 1.758549) (end -1.923519 1.806374) (layer F.SilkS) (width 0.153))
  (fp_line (start 0.347696 0.86747) (end 0.348134 0.864641) (layer F.SilkS) (width 0.153))
  (fp_line (start 0.348134 0.864641) (end 0.348523 0.861796) (layer F.SilkS) (width 0.153))
  (fp_line (start 0.348523 0.861796) (end 0.348862 0.858936) (layer F.SilkS) (width 0.153))
  (fp_line (start 0.348862 0.858936) (end 0.349149 0.856061) (layer F.SilkS) (width 0.153))
  (fp_line (start 0.349149 0.856061) (end 0.349385 0.853171) (layer F.SilkS) (width 0.153))
  (fp_line (start 0.349385 0.853171) (end 0.349571 0.850267) (layer F.SilkS) (width 0.153))
  (fp_line (start 0.349571 0.850267) (end 0.3497 0.847348) (layer F.SilkS) (width 0.153))
  (fp_line (start 0.3497 0.847348) (end 0.34978 0.844416) (layer F.SilkS) (width 0.153))
  (fp_line (start 0.34978 0.844416) (end 0.349813 0.841471) (layer F.SilkS) (width 0.153))
  (fp_line (start 0.349813 0.841471) (end 0.349596 0.83303) (layer F.SilkS) (width 0.153))
  (fp_line (start 0.349596 0.83303) (end 0.348954 0.824699) (layer F.SilkS) (width 0.153))
  (fp_line (start 0.348954 0.824699) (end 0.347895 0.81649) (layer F.SilkS) (width 0.153))
  (fp_line (start 0.347895 0.81649) (end 0.346432 0.808412) (layer F.SilkS) (width 0.153))
  (fp_line (start 0.153329 2.434046) (end 0.234701 2.42875) (layer F.SilkS) (width 0.153))
  (fp_line (start 0.234701 2.42875) (end 0.315743 2.421413) (layer F.SilkS) (width 0.153))
  (fp_line (start 0.315743 2.421413) (end 0.396421 2.41205) (layer F.SilkS) (width 0.153))
  (fp_line (start 0.396421 2.41205) (end 0.476698 2.400675) (layer F.SilkS) (width 0.153))
  (fp_line (start 0.476698 2.400675) (end 0.556539 2.387305) (layer F.SilkS) (width 0.153))
  (fp_line (start 0.556539 2.387305) (end 0.635909 2.371953) (layer F.SilkS) (width 0.153))
  (fp_line (start 0.635909 2.371953) (end 0.714774 2.354636) (layer F.SilkS) (width 0.153))
  (fp_line (start 0.295302 0.720043) (end 0.289265 0.714886) (layer F.SilkS) (width 0.153))
  (fp_line (start 0.289265 0.714886) (end 0.282979 0.710016) (layer F.SilkS) (width 0.153))
  (fp_line (start 0.282979 0.710016) (end 0.276456 0.705442) (layer F.SilkS) (width 0.153))
  (fp_line (start 0.276456 0.705442) (end 0.269705 0.701175) (layer F.SilkS) (width 0.153))
  (fp_line (start 0.269705 0.701175) (end 0.262738 0.697225) (layer F.SilkS) (width 0.153))
  (fp_line (start 0.262738 0.697225) (end 0.255564 0.693602) (layer F.SilkS) (width 0.153))
  (fp_line (start 0.255564 0.693602) (end 0.248194 0.690317) (layer F.SilkS) (width 0.153))
  (fp_line (start 0.248194 0.690317) (end 0.240638 0.687379) (layer F.SilkS) (width 0.153))
  (fp_line (start 0.240638 0.687379) (end 0.232908 0.6848) (layer F.SilkS) (width 0.153))
  (fp_line (start 0.232908 0.6848) (end 0.225013 0.682589) (layer F.SilkS) (width 0.153))
  (fp_line (start 0.225013 0.682589) (end 0.216963 0.680757) (layer F.SilkS) (width 0.153))
  (fp_line (start 0.216963 0.680757) (end 0.20877 0.679314) (layer F.SilkS) (width 0.153))
  (fp_line (start 0.20877 0.679314) (end 0.200444 0.678271) (layer F.SilkS) (width 0.153))
  (fp_line (start 1.36441 1.501648) (end 1.358433 1.483775) (layer F.SilkS) (width 0.153))
  (fp_line (start 1.358433 1.483775) (end 1.351713 1.466249) (layer F.SilkS) (width 0.153))
  (fp_line (start 1.351713 1.466249) (end 1.34427 1.449086) (layer F.SilkS) (width 0.153))
  (fp_line (start 1.34427 1.449086) (end 1.33612 1.432306) (layer F.SilkS) (width 0.153))
  (fp_line (start 1.33612 1.432306) (end 1.327283 1.415927) (layer F.SilkS) (width 0.153))
  (fp_line (start 1.327283 1.415927) (end 1.317776 1.399966) (layer F.SilkS) (width 0.153))
  (fp_line (start 1.317776 1.399966) (end 1.30762 1.384443) (layer F.SilkS) (width 0.153))
  (fp_line (start 1.30762 1.384443) (end 1.296831 1.369376) (layer F.SilkS) (width 0.153))
  (fp_line (start 1.296831 1.369376) (end 1.285429 1.354782) (layer F.SilkS) (width 0.153))
  (fp_line (start -0.877159 -0.324471) (end -0.858519 -0.371752) (layer F.SilkS) (width 0.153))
  (fp_line (start -0.858519 -0.371752) (end -0.825451 -0.440731) (layer F.SilkS) (width 0.153))
  (fp_line (start -0.825451 -0.440731) (end -0.776314 -0.523373) (layer F.SilkS) (width 0.153))
  (fp_line (start -0.776314 -0.523373) (end -0.709473 -0.61164) (layer F.SilkS) (width 0.153))
  (fp_line (start -0.709473 -0.61164) (end -0.623286 -0.697498) (layer F.SilkS) (width 0.153))
  (fp_line (start -0.623286 -0.697498) (end -0.516117 -0.772909) (layer F.SilkS) (width 0.153))
  (fp_line (start -0.516117 -0.772909) (end -0.386327 -0.829838) (layer F.SilkS) (width 0.153))
  (fp_line (start -0.386327 -0.829838) (end -0.381071 -0.817958) (layer F.SilkS) (width 0.153))
  (fp_line (start -0.381071 -0.817958) (end -0.37574 -0.806168) (layer F.SilkS) (width 0.153))
  (fp_line (start -0.37574 -0.806168) (end -0.370334 -0.794473) (layer F.SilkS) (width 0.153))
  (fp_line (start -0.370334 -0.794473) (end -0.364849 -0.782883) (layer F.SilkS) (width 0.153))
  (fp_line (start -0.364849 -0.782883) (end -0.359285 -0.771405) (layer F.SilkS) (width 0.153))
  (fp_line (start -0.359285 -0.771405) (end -0.353639 -0.760044) (layer F.SilkS) (width 0.153))
  (fp_line (start -0.353639 -0.760044) (end -0.347908 -0.74881) (layer F.SilkS) (width 0.153))
  (fp_line (start -0.347908 -0.74881) (end -0.342092 -0.73771) (layer F.SilkS) (width 0.153))
  (fp_line (start -0.342092 -0.73771) (end -0.340711 -0.738354) (layer F.SilkS) (width 0.153))
  (fp_line (start -0.340711 -0.738354) (end -0.336629 -0.740183) (layer F.SilkS) (width 0.153))
  (fp_line (start -0.336629 -0.740183) (end -0.329935 -0.743038) (layer F.SilkS) (width 0.153))
  (fp_line (start -0.329935 -0.743038) (end -0.32072 -0.746761) (layer F.SilkS) (width 0.153))
  (fp_line (start -0.131185 -0.200853) (end -0.13325 -0.152384) (layer F.SilkS) (width 0.153))
  (fp_line (start -0.474556 0.802454) (end -0.486549 0.804565) (layer F.SilkS) (width 0.153))
  (fp_line (start 0.714774 2.354636) (end 0.793097 2.335367) (layer F.SilkS) (width 0.153))
  (fp_line (start 0.793097 2.335367) (end 0.870843 2.314163) (layer F.SilkS) (width 0.153))
  (fp_line (start 0.870843 2.314163) (end 0.947977 2.291038) (layer F.SilkS) (width 0.153))
  (fp_line (start 0.947977 2.291038) (end 1.024465 2.266008) (layer F.SilkS) (width 0.153))
  (fp_line (start 1.024465 2.266008) (end 1.10027 2.239086) (layer F.SilkS) (width 0.153))
  (fp_line (start 1.10027 2.239086) (end 1.175357 2.21029) (layer F.SilkS) (width 0.153))
  (fp_line (start 1.175357 2.21029) (end 1.249691 2.179632) (layer F.SilkS) (width 0.153))
  (fp_line (start -0.592378 0.854511) (end -0.601215 0.862057) (layer F.SilkS) (width 0.153))
  (fp_line (start -0.617736 0.878345) (end -0.62539 0.887057) (layer F.SilkS) (width 0.153))
  (fp_line (start -0.191307 0.96509) (end -0.192058 0.965295) (layer F.SilkS) (width 0.153))
  (fp_line (start -0.532263 0.818554) (end -0.543051 0.823362) (layer F.SilkS) (width 0.153))
  (fp_line (start -0.192058 0.965295) (end -0.192807 0.965502) (layer F.SilkS) (width 0.153))
  (fp_line (start -0.143571 0.089963) (end -0.145635 0.138432) (layer F.SilkS) (width 0.153))
  (fp_line (start -0.192807 0.965502) (end -0.193556 0.96571) (layer F.SilkS) (width 0.153))
  (fp_line (start -0.678951 1.070598) (end -0.678479 1.073952) (layer F.SilkS) (width 0.153))
  (fp_line (start -0.678479 1.073952) (end -0.677961 1.07729) (layer F.SilkS) (width 0.153))
  (fp_line (start -0.677961 1.07729) (end -0.677396 1.080613) (layer F.SilkS) (width 0.153))
  (fp_line (start -0.716522 1.15502) (end -0.728128 1.158171) (layer F.SilkS) (width 0.153))
  (fp_line (start -0.728128 1.158171) (end -0.739619 1.161588) (layer F.SilkS) (width 0.153))
  (fp_line (start -0.739619 1.161588) (end -0.750991 1.165269) (layer F.SilkS) (width 0.153))
  (fp_line (start -0.750991 1.165269) (end -0.76224 1.169209) (layer F.SilkS) (width 0.153))
  (fp_line (start -0.193556 0.96571) (end -0.194304 0.96592) (layer F.SilkS) (width 0.153))
  (fp_line (start -0.194304 0.96592) (end -0.195051 0.966131) (layer F.SilkS) (width 0.153))
  (fp_line (start -0.195051 0.966131) (end -0.195797 0.966344) (layer F.SilkS) (width 0.153))
  (fp_line (start -0.195797 0.966344) (end -0.196543 0.966561) (layer F.SilkS) (width 0.153))
  (fp_line (start -0.196543 0.966561) (end -0.197287 0.966779) (layer F.SilkS) (width 0.153))
  (fp_line (start -0.197287 0.966779) (end -0.198031 0.966998) (layer F.SilkS) (width 0.153))
  (fp_line (start -0.95596 1.296977) (end -0.963802 1.305539) (layer F.SilkS) (width 0.153))
  (fp_line (start -0.963802 1.305539) (end -0.971441 1.31428) (layer F.SilkS) (width 0.153))
  (fp_line (start -0.971441 1.31428) (end -0.978875 1.323199) (layer F.SilkS) (width 0.153))
  (fp_line (start -0.978875 1.323199) (end -0.990248 1.314967) (layer F.SilkS) (width 0.153))
  (fp_line (start -0.198031 0.966998) (end -0.198774 0.967219) (layer F.SilkS) (width 0.153))
  (fp_line (start 0.051045 -3.528848) (end 0.042588 -3.532832) (layer F.SilkS) (width 0.153))
  (fp_line (start 0.042588 -3.532832) (end 0.033889 -3.536021) (layer F.SilkS) (width 0.153))
  (fp_line (start 0.033889 -3.536021) (end 0.025001 -3.538418) (layer F.SilkS) (width 0.153))
  (fp_line (start 0.025001 -3.538418) (end 0.015978 -3.540027) (layer F.SilkS) (width 0.153))
  (fp_line (start 0.015978 -3.540027) (end 0.006874 -3.540851) (layer F.SilkS) (width 0.153))
  (fp_line (start 0.006874 -3.540851) (end 0.006873 -3.540853) (layer F.SilkS) (width 0.153))
  (fp_line (start 0.155249 -2.778862) (end 0.199065 -2.74271) (layer F.SilkS) (width 0.153))
  (fp_line (start 0.199065 -2.74271) (end 0.235218 -2.698893) (layer F.SilkS) (width 0.153))
  (fp_line (start 0.235218 -2.698893) (end 0.262515 -2.648603) (layer F.SilkS) (width 0.153))
  (fp_line (start 0.262515 -2.648603) (end 0.279766 -2.593031) (layer F.SilkS) (width 0.153))
  (fp_line (start 0.279766 -2.593031) (end 0.285781 -2.533366) (layer F.SilkS) (width 0.153))
  (fp_line (start 0.285781 -2.533366) (end 0.279766 -2.473701) (layer F.SilkS) (width 0.153))
  (fp_line (start 0.279766 -2.473701) (end 0.262515 -2.418128) (layer F.SilkS) (width 0.153))
  (fp_line (start 0.262515 -2.418128) (end 0.235218 -2.367838) (layer F.SilkS) (width 0.153))
  (fp_line (start 0.235218 -2.367838) (end 0.199065 -2.324022) (layer F.SilkS) (width 0.153))
  (fp_line (start 0.199065 -2.324022) (end 0.155249 -2.28787) (layer F.SilkS) (width 0.153))
  (fp_line (start 0.155249 -2.28787) (end 0.104959 -2.260572) (layer F.SilkS) (width 0.153))
  (fp_line (start 0.104959 -2.260572) (end 0.049386 -2.243321) (layer F.SilkS) (width 0.153))
  (fp_line (start 0.049386 -2.243321) (end -0.010279 -2.237306) (layer F.SilkS) (width 0.153))
  (fp_line (start -0.010279 -2.237306) (end -0.069937 -2.243321) (layer F.SilkS) (width 0.153))
  (fp_line (start -0.069937 -2.243321) (end -0.125503 -2.260572) (layer F.SilkS) (width 0.153))
  (fp_line (start -0.125503 -2.260572) (end -0.175788 -2.28787) (layer F.SilkS) (width 0.153))
  (fp_line (start -0.175788 -2.28787) (end -0.2196 -2.324022) (layer F.SilkS) (width 0.153))
  (fp_line (start -0.2196 -2.324022) (end -0.255748 -2.367838) (layer F.SilkS) (width 0.153))
  (fp_line (start -0.255748 -2.367838) (end -0.283043 -2.418128) (layer F.SilkS) (width 0.153))
  (fp_line (start -0.283043 -2.418128) (end -0.300292 -2.473701) (layer F.SilkS) (width 0.153))
  (fp_line (start -0.300292 -2.473701) (end -0.306307 -2.533366) (layer F.SilkS) (width 0.153))
  (fp_line (start -0.306307 -2.533366) (end -0.300292 -2.593031) (layer F.SilkS) (width 0.153))
  (fp_line (start -0.300292 -2.593031) (end -0.283043 -2.648603) (layer F.SilkS) (width 0.153))
  (fp_line (start -0.283043 -2.648603) (end -0.255748 -2.698893) (layer F.SilkS) (width 0.153))
  (fp_line (start -0.255748 -2.698893) (end -0.2196 -2.74271) (layer F.SilkS) (width 0.153))
  (fp_line (start -0.2196 -2.74271) (end -0.175788 -2.778862) (layer F.SilkS) (width 0.153))
  (fp_line (start -0.175788 -2.778862) (end -0.125503 -2.806159) (layer F.SilkS) (width 0.153))
  (fp_line (start -0.670268 1.109776) (end -0.669257 1.112929) (layer F.SilkS) (width 0.153))
  (fp_line (start -0.669257 1.112929) (end -0.668204 1.116063) (layer F.SilkS) (width 0.153))
  (fp_line (start -0.668204 1.116063) (end -0.66711 1.119178) (layer F.SilkS) (width 0.153))
  (fp_line (start -0.66711 1.119178) (end -0.665973 1.122274) (layer F.SilkS) (width 0.153))
  (fp_line (start -0.110084 -0.662828) (end -0.060181 -0.662828) (layer F.SilkS) (width 0.153))
  (fp_line (start -0.060181 -0.662828) (end -0.010278 -0.662828) (layer F.SilkS) (width 0.153))
  (fp_line (start -0.010278 -0.662828) (end 0.039625 -0.662828) (layer F.SilkS) (width 0.153))
  (fp_line (start 0.039625 -0.662828) (end 0.089528 -0.662828) (layer F.SilkS) (width 0.153))
  (fp_line (start 0.089528 -0.662828) (end 0.139431 -0.662828) (layer F.SilkS) (width 0.153))
  (fp_line (start 0.139431 -0.662828) (end 0.189334 -0.662828) (layer F.SilkS) (width 0.153))
  (fp_line (start 0.189334 -0.662828) (end 0.195121 -0.663327) (layer F.SilkS) (width 0.153))
  (fp_line (start 0.195121 -0.663327) (end 0.200617 -0.664775) (layer F.SilkS) (width 0.153))
  (fp_line (start 0.200617 -0.664775) (end 0.205729 -0.667095) (layer F.SilkS) (width 0.153))
  (fp_line (start 0.205729 -0.667095) (end 0.210361 -0.670212) (layer F.SilkS) (width 0.153))
  (fp_line (start 0.210361 -0.670212) (end 0.214418 -0.674049) (layer F.SilkS) (width 0.153))
  (fp_line (start 0.214418 -0.674049) (end 0.217804 -0.678531) (layer F.SilkS) (width 0.153))
  (fp_line (start 0.217804 -0.678531) (end 0.220426 -0.68358) (layer F.SilkS) (width 0.153))
  (fp_line (start 0.220426 -0.68358) (end 0.222187 -0.689123) (layer F.SilkS) (width 0.153))
  (fp_line (start 0.222187 -0.689123) (end 0.224323 -0.698538) (layer F.SilkS) (width 0.153))
  (fp_line (start 0.224323 -0.698538) (end 0.226459 -0.707953) (layer F.SilkS) (width 0.153))
  (fp_line (start 0.226459 -0.707953) (end 0.228595 -0.717369) (layer F.SilkS) (width 0.153))
  (fp_line (start 0.228595 -0.717369) (end 0.230732 -0.726784) (layer F.SilkS) (width 0.153))
  (fp_line (start 0.230732 -0.726784) (end 0.232868 -0.7362) (layer F.SilkS) (width 0.153))
  (fp_line (start 0.232868 -0.7362) (end 0.235004 -0.745615) (layer F.SilkS) (width 0.153))
  (fp_line (start 0.235004 -0.745615) (end 0.23714 -0.755031) (layer F.SilkS) (width 0.153))
  (fp_line (start 0.23714 -0.755031) (end 0.239276 -0.764446) (layer F.SilkS) (width 0.153))
  (fp_line (start 0.239276 -0.764446) (end 0.248655 -0.761548) (layer F.SilkS) (width 0.153))
  (fp_line (start -0.677396 1.080613) (end -0.676784 1.08392) (layer F.SilkS) (width 0.153))
  (fp_line (start -0.676784 1.08392) (end -0.676126 1.087211) (layer F.SilkS) (width 0.153))
  (fp_line (start -0.676126 1.087211) (end -0.675422 1.090485) (layer F.SilkS) (width 0.153))
  (fp_line (start 1.158244 1.247761) (end 1.141721 1.238907) (layer F.SilkS) (width 0.153))
  (fp_line (start 1.141721 1.238907) (end 1.124788 1.230727) (layer F.SilkS) (width 0.153))
  (fp_line (start 1.124788 1.230727) (end 1.107463 1.223239) (layer F.SilkS) (width 0.153))
  (fp_line (start 1.107463 1.223239) (end 1.089764 1.216463) (layer F.SilkS) (width 0.153))
  (fp_line (start 1.089764 1.216463) (end 1.07171 1.210415) (layer F.SilkS) (width 0.153))
  (fp_line (start 1.07171 1.210415) (end 1.05332 1.205114) (layer F.SilkS) (width 0.153))
  (fp_line (start 1.05332 1.205114) (end 1.034611 1.200579) (layer F.SilkS) (width 0.153))
  (fp_line (start 1.034611 1.200579) (end 1.015602 1.196828) (layer F.SilkS) (width 0.153))
  (fp_line (start 1.015602 1.196828) (end 0.996312 1.193878) (layer F.SilkS) (width 0.153))
  (fp_line (start 0.548309 1.270927) (end 0.548373 1.269973) (layer F.SilkS) (width 0.153))
  (fp_line (start 0.548373 1.269973) (end 0.548438 1.269019) (layer F.SilkS) (width 0.153))
  (fp_line (start 0.548438 1.269019) (end 0.548502 1.268065) (layer F.SilkS) (width 0.153))
  (fp_line (start 0.548502 1.268065) (end 0.548551 1.26711) (layer F.SilkS) (width 0.153))
  (fp_line (start 0.548551 1.26711) (end 0.548599 1.266154) (layer F.SilkS) (width 0.153))
  (fp_line (start 0.548599 1.266154) (end 0.548648 1.265197) (layer F.SilkS) (width 0.153))
  (fp_line (start 0.548648 1.265197) (end 0.548696 1.264239) (layer F.SilkS) (width 0.153))
  (fp_line (start 0.548696 1.264239) (end 0.548745 1.263282) (layer F.SilkS) (width 0.153))
  (fp_line (start 0.548745 1.263282) (end 0.548793 1.262323) (layer F.SilkS) (width 0.153))
  (fp_line (start 0.548793 1.262323) (end 0.548825 1.261364) (layer F.SilkS) (width 0.153))
  (fp_line (start 0.548825 1.261364) (end 0.548858 1.260404) (layer F.SilkS) (width 0.153))
  (fp_line (start -1.367095 1.19023) (end -1.382117 1.190032) (layer F.SilkS) (width 0.153))
  (fp_line (start -1.382117 1.190032) (end -1.39721 1.190161) (layer F.SilkS) (width 0.153))
  (fp_line (start -1.39721 1.190161) (end -1.412371 1.190619) (layer F.SilkS) (width 0.153))
  (fp_line (start -1.412371 1.190619) (end -1.437643 1.192117) (layer F.SilkS) (width 0.153))
  (fp_line (start -1.437643 1.192117) (end -1.462642 1.194511) (layer F.SilkS) (width 0.153))
  (fp_line (start -0.198774 0.967219) (end -0.199516 0.967442) (layer F.SilkS) (width 0.153))
  (fp_line (start -0.176597 0.865473) (end -0.178662 0.913942) (layer F.SilkS) (width 0.153))
  (fp_line (start 0.698778 1.257783) (end 0.690227 1.26324) (layer F.SilkS) (width 0.153))
  (fp_line (start 0.690227 1.26324) (end 0.681811 1.268883) (layer F.SilkS) (width 0.153))
  (fp_line (start 0.681811 1.268883) (end 0.673533 1.274707) (layer F.SilkS) (width 0.153))
  (fp_line (start 0.673533 1.274707) (end 0.665396 1.280711) (layer F.SilkS) (width 0.153))
  (fp_line (start 0.665396 1.280711) (end 0.657404 1.286891) (layer F.SilkS) (width 0.153))
  (fp_line (start 0.657404 1.286891) (end 0.649559 1.293245) (layer F.SilkS) (width 0.153))
  (fp_line (start 0.649559 1.293245) (end 0.641863 1.299768) (layer F.SilkS) (width 0.153))
  (fp_line (start 0.641863 1.299768) (end 0.634321 1.30646) (layer F.SilkS) (width 0.153))
  (fp_line (start 0.634321 1.30646) (end 0.631671 1.305469) (layer F.SilkS) (width 0.153))
  (fp_line (start -0.886378 1.235422) (end -0.895708 1.242409) (layer F.SilkS) (width 0.153))
  (fp_line (start -0.895708 1.242409) (end -0.904864 1.249605) (layer F.SilkS) (width 0.153))
  (fp_line (start -0.904864 1.249605) (end -0.913843 1.257007) (layer F.SilkS) (width 0.153))
  (fp_line (start -0.913843 1.257007) (end -0.922642 1.264611) (layer F.SilkS) (width 0.153))
  (fp_line (start -0.199516 0.967442) (end -0.200257 0.967668) (layer F.SilkS) (width 0.153))
  (fp_line (start -0.922642 1.264611) (end -0.931257 1.272413) (layer F.SilkS) (width 0.153))
  (fp_line (start -0.931257 1.272413) (end -0.939684 1.280411) (layer F.SilkS) (width 0.153))
  (fp_line (start -0.939684 1.280411) (end -0.94792 1.2886) (layer F.SilkS) (width 0.153))
  (fp_line (start -0.94792 1.2886) (end -0.95596 1.296977) (layer F.SilkS) (width 0.153))
  (fp_line (start -0.151827 0.283841) (end -0.153891 0.33231) (layer F.SilkS) (width 0.153))
  (fp_line (start -0.63262 0.896127) (end -0.639409 0.90554) (layer F.SilkS) (width 0.153))
  (fp_line (start 2.122081 1.388872) (end 2.109944 1.386387) (layer F.SilkS) (width 0.153))
  (fp_line (start 2.109944 1.386387) (end 2.097752 1.384055) (layer F.SilkS) (width 0.153))
  (fp_line (start 2.097752 1.384055) (end 2.085506 1.381876) (layer F.SilkS) (width 0.153))
  (fp_line (start 2.085506 1.381876) (end 2.073206 1.379851) (layer F.SilkS) (width 0.153))
  (fp_line (start 2.073206 1.379851) (end 2.060853 1.377981) (layer F.SilkS) (width 0.153))
  (fp_line (start 2.060853 1.377981) (end 2.048449 1.376269) (layer F.SilkS) (width 0.153))
  (fp_line (start 2.048449 1.376269) (end 2.035994 1.374714) (layer F.SilkS) (width 0.153))
  (fp_line (start 2.035994 1.374714) (end 2.023489 1.373318) (layer F.SilkS) (width 0.153))
  (fp_line (start -0.200257 0.967668) (end -0.200998 0.967896) (layer F.SilkS) (width 0.153))
  (fp_line (start -0.13325 -0.152384) (end -0.135314 -0.103914) (layer F.SilkS) (width 0.153))
  (fp_line (start -0.583179 0.847384) (end -0.592378 0.854511) (layer F.SilkS) (width 0.153))
  (fp_line (start -0.153891 0.33231) (end -0.155956 0.380779) (layer F.SilkS) (width 0.153))
  (fp_line (start -0.521204 0.814255) (end -0.532263 0.818554) (layer F.SilkS) (width 0.153))
  (fp_line (start -0.162148 0.526187) (end -0.164212 0.574657) (layer F.SilkS) (width 0.153))
  (fp_line (start -0.486549 0.804565) (end -0.498331 0.807246) (layer F.SilkS) (width 0.153))
  (fp_line (start -0.147699 0.186902) (end -0.149763 0.235371) (layer F.SilkS) (width 0.153))
  (fp_line (start -1.462642 1.194511) (end -1.487351 1.197785) (layer F.SilkS) (width 0.153))
  (fp_line (start -1.487351 1.197785) (end -1.511756 1.201922) (layer F.SilkS) (width 0.153))
  (fp_line (start -1.511756 1.201922) (end -1.535841 1.206905) (layer F.SilkS) (width 0.153))
  (fp_line (start -1.535841 1.206905) (end -1.55959 1.212717) (layer F.SilkS) (width 0.153))
  (fp_line (start -1.55959 1.212717) (end -1.582987 1.219342) (layer F.SilkS) (width 0.153))
  (fp_line (start -0.847401 1.209639) (end -0.857387 1.215753) (layer F.SilkS) (width 0.153))
  (fp_line (start -0.857387 1.215753) (end -0.867214 1.22209) (layer F.SilkS) (width 0.153))
  (fp_line (start -0.867214 1.22209) (end -0.876879 1.228648) (layer F.SilkS) (width 0.153))
  (fp_line (start -0.876879 1.228648) (end -0.886378 1.235422) (layer F.SilkS) (width 0.153))
  (fp_line (start -2.08926 1.558425) (end -2.097639 1.554679) (layer F.SilkS) (width 0.153))
  (fp_line (start -2.097639 1.554679) (end -2.106068 1.551014) (layer F.SilkS) (width 0.153))
  (fp_line (start -2.106068 1.551014) (end -2.114545 1.547431) (layer F.SilkS) (width 0.153))
  (fp_line (start -2.114545 1.547431) (end -2.123071 1.54393) (layer F.SilkS) (width 0.153))
  (fp_line (start -2.123071 1.54393) (end -2.131644 1.54051) (layer F.SilkS) (width 0.153))
  (fp_line (start -2.131644 1.54051) (end -2.140265 1.537174) (layer F.SilkS) (width 0.153))
  (fp_line (start -2.140265 1.537174) (end -2.148933 1.533921) (layer F.SilkS) (width 0.153))
  (fp_line (start -0.666223 0.957227) (end -0.670051 0.968383) (layer F.SilkS) (width 0.153))
  (fp_line (start -0.122929 -0.394731) (end -0.124993 -0.346261) (layer F.SilkS) (width 0.153))
  (fp_line (start -0.139442 -0.006976) (end -0.141506 0.041494) (layer F.SilkS) (width 0.153))
  (fp_line (start -0.651607 0.925336) (end -0.656986 0.935688) (layer F.SilkS) (width 0.153))
  (fp_line (start -0.124993 -0.346261) (end -0.127057 -0.297792) (layer F.SilkS) (width 0.153))
  (fp_line (start 1.285429 1.354782) (end 1.273432 1.34068) (layer F.SilkS) (width 0.153))
  (fp_line (start 1.273432 1.34068) (end 1.260858 1.327088) (layer F.SilkS) (width 0.153))
  (fp_line (start 1.260858 1.327088) (end 1.247726 1.314024) (layer F.SilkS) (width 0.153))
  (fp_line (start 1.247726 1.314024) (end 1.234054 1.301507) (layer F.SilkS) (width 0.153))
  (fp_line (start 1.234054 1.301507) (end 1.219861 1.289555) (layer F.SilkS) (width 0.153))
  (fp_line (start 1.219861 1.289555) (end 1.205164 1.278187) (layer F.SilkS) (width 0.153))
  (fp_line (start 1.205164 1.278187) (end 1.189984 1.267419) (layer F.SilkS) (width 0.153))
  (fp_line (start 1.189984 1.267419) (end 1.174338 1.257271) (layer F.SilkS) (width 0.153))
  (fp_line (start 1.174338 1.257271) (end 1.158244 1.247761) (layer F.SilkS) (width 0.153))
  (fp_line (start -2.032022 1.586865) (end -2.040044 1.582568) (layer F.SilkS) (width 0.153))
  (fp_line (start -2.040044 1.582568) (end -2.048118 1.578348) (layer F.SilkS) (width 0.153))
  (fp_line (start -2.048118 1.578348) (end -2.056245 1.574206) (layer F.SilkS) (width 0.153))
  (fp_line (start -2.056245 1.574206) (end -2.064422 1.570142) (layer F.SilkS) (width 0.153))
  (fp_line (start -2.064422 1.570142) (end -2.072651 1.566156) (layer F.SilkS) (width 0.153))
  (fp_line (start -2.072651 1.566156) (end -2.080931 1.562251) (layer F.SilkS) (width 0.153))
  (fp_line (start -2.080931 1.562251) (end -2.08926 1.558425) (layer F.SilkS) (width 0.153))
  (fp_line (start -0.200998 0.967896) (end -0.201737 0.968125) (layer F.SilkS) (width 0.153))
  (fp_line (start -0.669024 1.145153) (end -0.681052 1.147201) (layer F.SilkS) (width 0.153))
  (fp_line (start -0.681052 1.147201) (end -0.692981 1.149531) (layer F.SilkS) (width 0.153))
  (fp_line (start -0.692981 1.149531) (end -0.704806 1.152139) (layer F.SilkS) (width 0.153))
  (fp_line (start -0.704806 1.152139) (end -0.716522 1.15502) (layer F.SilkS) (width 0.153))
  (fp_line (start -0.805944 1.187492) (end -0.816528 1.192675) (layer F.SilkS) (width 0.153))
  (fp_line (start -0.816528 1.192675) (end -0.826968 1.198097) (layer F.SilkS) (width 0.153))
  (fp_line (start -0.826968 1.198097) (end -0.83726 1.203752) (layer F.SilkS) (width 0.153))
  (fp_line (start -0.83726 1.203752) (end -0.847401 1.209639) (layer F.SilkS) (width 0.153))
  (fp_line (start -0.155956 0.380779) (end -0.15802 0.429249) (layer F.SilkS) (width 0.153))
  (fp_line (start -1.087276 1.257694) (end -1.100106 1.251657) (layer F.SilkS) (width 0.153))
  (fp_line (start -1.100106 1.251657) (end -1.11308 1.245881) (layer F.SilkS) (width 0.153))
  (fp_line (start -1.11308 1.245881) (end -1.126194 1.240369) (layer F.SilkS) (width 0.153))
  (fp_line (start -1.126194 1.240369) (end -1.139445 1.235124) (layer F.SilkS) (width 0.153))
  (fp_line (start -1.139445 1.235124) (end -1.152829 1.23015) (layer F.SilkS) (width 0.153))
  (fp_line (start -0.201737 0.968125) (end -0.202477 0.968356) (layer F.SilkS) (width 0.153))
  (fp_line (start -1.454885 2.094795) (end -1.384353 2.129213) (layer F.SilkS) (width 0.153))
  (fp_line (start -1.384353 2.129213) (end -1.313024 2.161893) (layer F.SilkS) (width 0.153))
  (fp_line (start -1.313024 2.161893) (end -1.24093 2.192823) (layer F.SilkS) (width 0.153))
  (fp_line (start -1.24093 2.192823) (end -1.168104 2.221987) (layer F.SilkS) (width 0.153))
  (fp_line (start -1.168104 2.221987) (end -1.09458 2.249374) (layer F.SilkS) (width 0.153))
  (fp_line (start -1.09458 2.249374) (end -1.02039 2.274969) (layer F.SilkS) (width 0.153))
  (fp_line (start -1.02039 2.274969) (end -0.945567 2.298759) (layer F.SilkS) (width 0.153))
  (fp_line (start 1.629657 1.412974) (end 1.612468 1.418603) (layer F.SilkS) (width 0.153))
  (fp_line (start 1.612468 1.418603) (end 1.595424 1.424542) (layer F.SilkS) (width 0.153))
  (fp_line (start 1.595424 1.424542) (end 1.57853 1.430789) (layer F.SilkS) (width 0.153))
  (fp_line (start 1.57853 1.430789) (end 1.561789 1.437339) (layer F.SilkS) (width 0.153))
  (fp_line (start 1.561789 1.437339) (end 1.545204 1.444189) (layer F.SilkS) (width 0.153))
  (fp_line (start 1.545204 1.444189) (end 1.528779 1.451336) (layer F.SilkS) (width 0.153))
  (fp_line (start 1.528779 1.451336) (end 1.512517 1.458777) (layer F.SilkS) (width 0.153))
  (fp_line (start 1.512517 1.458777) (end 1.496422 1.466507) (layer F.SilkS) (width 0.153))
  (fp_line (start 1.496422 1.466507) (end 1.480496 1.474523) (layer F.SilkS) (width 0.153))
  (fp_line (start -0.76224 1.169209) (end -0.773364 1.173405) (layer F.SilkS) (width 0.153))
  (fp_line (start -0.773364 1.173405) (end -0.784359 1.177853) (layer F.SilkS) (width 0.153))
  (fp_line (start -0.784359 1.177853) (end -0.79522 1.18255) (layer F.SilkS) (width 0.153))
  (fp_line (start -0.79522 1.18255) (end -0.805944 1.187492) (layer F.SilkS) (width 0.153))
  (fp_line (start -0.202477 0.968356) (end -0.203215 0.96859) (layer F.SilkS) (width 0.153))
  (fp_line (start 1.921788 1.368007) (end 1.902723 1.368191) (layer F.SilkS) (width 0.153))
  (fp_line (start 1.902723 1.368191) (end 1.88375 1.368741) (layer F.SilkS) (width 0.153))
  (fp_line (start 1.88375 1.368741) (end 1.864872 1.369655) (layer F.SilkS) (width 0.153))
  (fp_line (start 1.864872 1.369655) (end 1.846092 1.370929) (layer F.SilkS) (width 0.153))
  (fp_line (start 1.846092 1.370929) (end 1.827414 1.372557) (layer F.SilkS) (width 0.153))
  (fp_line (start 1.827414 1.372557) (end 1.808842 1.374539) (layer F.SilkS) (width 0.153))
  (fp_line (start 1.808842 1.374539) (end 1.790378 1.37687) (layer F.SilkS) (width 0.153))
  (fp_line (start 1.790378 1.37687) (end 1.772027 1.379546) (layer F.SilkS) (width 0.153))
  (fp_line (start 0.996312 1.193878) (end 0.976759 1.191749) (layer F.SilkS) (width 0.153))
  (fp_line (start 0.976759 1.191749) (end 0.956962 1.190458) (layer F.SilkS) (width 0.153))
  (fp_line (start 0.956962 1.190458) (end 0.936939 1.190023) (layer F.SilkS) (width 0.153))
  (fp_line (start 0.936939 1.190023) (end 0.926025 1.190152) (layer F.SilkS) (width 0.153))
  (fp_line (start 0.926025 1.190152) (end 0.915175 1.190537) (layer F.SilkS) (width 0.153))
  (fp_line (start 0.915175 1.190537) (end 0.904393 1.191174) (layer F.SilkS) (width 0.153))
  (fp_line (start 0.904393 1.191174) (end 0.893681 1.192062) (layer F.SilkS) (width 0.153))
  (fp_line (start 0.893681 1.192062) (end 0.883043 1.193197) (layer F.SilkS) (width 0.153))
  (fp_line (start 0.883043 1.193197) (end 0.872481 1.194576) (layer F.SilkS) (width 0.153))
  (fp_line (start -0.182245 0.962775) (end -0.183004 0.962959) (layer F.SilkS) (width 0.153))
  (fp_line (start -0.678194 1.003217) (end -0.679742 1.015233) (layer F.SilkS) (width 0.153))
  (fp_line (start 0.548858 1.260404) (end 0.54889 1.259443) (layer F.SilkS) (width 0.153))
  (fp_line (start 0.54889 1.259443) (end 0.548922 1.258481) (layer F.SilkS) (width 0.153))
  (fp_line (start 0.548922 1.258481) (end 0.548954 1.257519) (layer F.SilkS) (width 0.153))
  (fp_line (start 0.548954 1.257519) (end 0.548987 1.256555) (layer F.SilkS) (width 0.153))
  (fp_line (start 0.548987 1.256555) (end 0.549003 1.255592) (layer F.SilkS) (width 0.153))
  (fp_line (start 0.549003 1.255592) (end 0.549019 1.254628) (layer F.SilkS) (width 0.153))
  (fp_line (start 0.549019 1.254628) (end 0.549035 1.253662) (layer F.SilkS) (width 0.153))
  (fp_line (start 0.549035 1.253662) (end 0.549049 1.252697) (layer F.SilkS) (width 0.153))
  (fp_line (start 0.549049 1.252697) (end 0.54906 1.251732) (layer F.SilkS) (width 0.153))
  (fp_line (start 0.54906 1.251732) (end 0.549068 1.250765) (layer F.SilkS) (width 0.153))
  (fp_line (start 0.549068 1.250765) (end 0.549073 1.249798) (layer F.SilkS) (width 0.153))
  (fp_line (start 0.444459 1.003079) (end 0.435071 0.994319) (layer F.SilkS) (width 0.153))
  (fp_line (start 0.435071 0.994319) (end 0.425359 0.985903) (layer F.SilkS) (width 0.153))
  (fp_line (start 0.425359 0.985903) (end 0.415334 0.97784) (layer F.SilkS) (width 0.153))
  (fp_line (start 0.415334 0.97784) (end 0.405005 0.970139) (layer F.SilkS) (width 0.153))
  (fp_line (start 0.405005 0.970139) (end 0.394383 0.962812) (layer F.SilkS) (width 0.153))
  (fp_line (start 0.394383 0.962812) (end 0.383478 0.955867) (layer F.SilkS) (width 0.153))
  (fp_line (start 0.383478 0.955867) (end 0.3723 0.949315) (layer F.SilkS) (width 0.153))
  (fp_line (start 0.3723 0.949315) (end 0.36086 0.943166) (layer F.SilkS) (width 0.153))
  (fp_line (start 0.36086 0.943166) (end 0.349166 0.937428) (layer F.SilkS) (width 0.153))
  (fp_line (start 0.349166 0.937428) (end 0.337229 0.932113) (layer F.SilkS) (width 0.153))
  (fp_line (start 0.337229 0.932113) (end 0.325059 0.927231) (layer F.SilkS) (width 0.153))
  (fp_line (start 0.248655 -0.761548) (end 0.258067 -0.758535) (layer F.SilkS) (width 0.153))
  (fp_line (start 0.258067 -0.758535) (end 0.267511 -0.755401) (layer F.SilkS) (width 0.153))
  (fp_line (start 0.267511 -0.755401) (end 0.276987 -0.75214) (layer F.SilkS) (width 0.153))
  (fp_line (start 0.276987 -0.75214) (end 0.286495 -0.748746) (layer F.SilkS) (width 0.153))
  (fp_line (start 0.286495 -0.748746) (end 0.296033 -0.745214) (layer F.SilkS) (width 0.153))
  (fp_line (start 0.296033 -0.745214) (end 0.305601 -0.741537) (layer F.SilkS) (width 0.153))
  (fp_line (start 0.305601 -0.741537) (end 0.315199 -0.737709) (layer F.SilkS) (width 0.153))
  (fp_line (start 0.315199 -0.737709) (end 0.316187 -0.739117) (layer F.SilkS) (width 0.153))
  (fp_line (start 0.316187 -0.739117) (end 0.319054 -0.743354) (layer F.SilkS) (width 0.153))
  (fp_line (start 0.319054 -0.743354) (end 0.323658 -0.75044) (layer F.SilkS) (width 0.153))
  (fp_line (start 0.323658 -0.75044) (end 0.329854 -0.760394) (layer F.SilkS) (width 0.153))
  (fp_line (start 0.329854 -0.760394) (end 0.3375 -0.773235) (layer F.SilkS) (width 0.153))
  (fp_line (start 0.3375 -0.773235) (end 0.346451 -0.788981) (layer F.SilkS) (width 0.153))
  (fp_line (start 0.346451 -0.788981) (end 0.356564 -0.807653) (layer F.SilkS) (width 0.153))
  (fp_line (start 0.356564 -0.807653) (end 0.367695 -0.82927) (layer F.SilkS) (width 0.153))
  (fp_line (start 0.367695 -0.82927) (end 0.496973 -0.772151) (layer F.SilkS) (width 0.153))
  (fp_line (start 0.496973 -0.772151) (end 0.603723 -0.696704) (layer F.SilkS) (width 0.153))
  (fp_line (start 0.603723 -0.696704) (end 0.689575 -0.610924) (layer F.SilkS) (width 0.153))
  (fp_line (start 0.689575 -0.610924) (end 0.75616 -0.522808) (layer F.SilkS) (width 0.153))
  (fp_line (start 0.75616 -0.522808) (end 0.80511 -0.440354) (layer F.SilkS) (width 0.153))
  (fp_line (start 0.80511 -0.440354) (end 0.838054 -0.371557) (layer F.SilkS) (width 0.153))
  (fp_line (start 0.838054 -0.371557) (end 0.856625 -0.324415) (layer F.SilkS) (width 0.153))
  (fp_line (start 0.856625 -0.324415) (end 0.862452 -0.306924) (layer F.SilkS) (width 0.153))
  (fp_line (start 0.862452 -0.306924) (end 0.910616 -0.555918) (layer F.SilkS) (width 0.153))
  (fp_line (start 0.910616 -0.555918) (end 0.913393 -0.769208) (layer F.SilkS) (width 0.153))
  (fp_line (start 0.913393 -0.769208) (end 0.880903 -0.948761) (layer F.SilkS) (width 0.153))
  (fp_line (start 0.880903 -0.948761) (end 0.823265 -1.096541) (layer F.SilkS) (width 0.153))
  (fp_line (start 0.823265 -1.096541) (end 0.750599 -1.214518) (layer F.SilkS) (width 0.153))
  (fp_line (start 0.750599 -1.214518) (end 0.673025 -1.304655) (layer F.SilkS) (width 0.153))
  (fp_line (start 0.673025 -1.304655) (end 0.600661 -1.368922) (layer F.SilkS) (width 0.153))
  (fp_line (start 0.600661 -1.368922) (end 0.543628 -1.409282) (layer F.SilkS) (width 0.153))
  (fp_line (start 0.543628 -1.409282) (end 0.548929 -1.442775) (layer F.SilkS) (width 0.153))
  (fp_line (start 0.548929 -1.442775) (end 0.553946 -1.477116) (layer F.SilkS) (width 0.153))
  (fp_line (start 0.553946 -1.477116) (end 0.558661 -1.512313) (layer F.SilkS) (width 0.153))
  (fp_line (start 0.558661 -1.512313) (end 0.563052 -1.548371) (layer F.SilkS) (width 0.153))
  (fp_line (start 0.563052 -1.548371) (end 0.5671 -1.585296) (layer F.SilkS) (width 0.153))
  (fp_line (start 0.5671 -1.585296) (end 0.570785 -1.623095) (layer F.SilkS) (width 0.153))
  (fp_line (start 0.570785 -1.623095) (end 0.574088 -1.661774) (layer F.SilkS) (width 0.153))
  (fp_line (start 0.574088 -1.661774) (end 0.576986 -1.701338) (layer F.SilkS) (width 0.153))
  (fp_line (start 0.576986 -1.701338) (end 0.58389 -1.84688) (layer F.SilkS) (width 0.153))
  (fp_line (start 0.58389 -1.84688) (end 0.585051 -1.996155) (layer F.SilkS) (width 0.153))
  (fp_line (start 0.585051 -1.996155) (end 0.580005 -2.14782) (layer F.SilkS) (width 0.153))
  (fp_line (start 0.580005 -2.14782) (end 0.568289 -2.300536) (layer F.SilkS) (width 0.153))
  (fp_line (start 0.568289 -2.300536) (end 0.549442 -2.45296) (layer F.SilkS) (width 0.153))
  (fp_line (start 0.549442 -2.45296) (end 0.523 -2.603751) (layer F.SilkS) (width 0.153))
  (fp_line (start 0.523 -2.603751) (end 0.488499 -2.751567) (layer F.SilkS) (width 0.153))
  (fp_line (start 0.488499 -2.751567) (end 0.445478 -2.895068) (layer F.SilkS) (width 0.153))
  (fp_line (start 0.445478 -2.895068) (end 0.413272 -2.984012) (layer F.SilkS) (width 0.153))
  (fp_line (start 0.413272 -2.984012) (end 0.377268 -3.070288) (layer F.SilkS) (width 0.153))
  (fp_line (start 0.377268 -3.070288) (end 0.337339 -3.153543) (layer F.SilkS) (width 0.153))
  (fp_line (start 0.337339 -3.153543) (end 0.29336 -3.233423) (layer F.SilkS) (width 0.153))
  (fp_line (start 0.29336 -3.233423) (end 0.245203 -3.309572) (layer F.SilkS) (width 0.153))
  (fp_line (start 0.245203 -3.309572) (end 0.192744 -3.381637) (layer F.SilkS) (width 0.153))
  (fp_line (start 0.192744 -3.381637) (end 0.135854 -3.449263) (layer F.SilkS) (width 0.153))
  (fp_line (start 0.135854 -3.449263) (end 0.07441 -3.512096) (layer F.SilkS) (width 0.153))
  (fp_line (start 0.07441 -3.512096) (end 0.067009 -3.518484) (layer F.SilkS) (width 0.153))
  (fp_line (start 0.067009 -3.518484) (end 0.059203 -3.524067) (layer F.SilkS) (width 0.153))
  (fp_line (start 0.059203 -3.524067) (end 0.051045 -3.528848) (layer F.SilkS) (width 0.153))
  (fp_line (start 0.549073 1.249798) (end 0.549075 1.248829) (layer F.SilkS) (width 0.153))
  (fp_line (start 0.549075 1.248829) (end 0.548803 1.235143) (layer F.SilkS) (width 0.153))
  (fp_line (start 0.548803 1.235143) (end 0.547998 1.221592) (layer F.SilkS) (width 0.153))
  (fp_line (start 0.547998 1.221592) (end 0.546668 1.208188) (layer F.SilkS) (width 0.153))
  (fp_line (start 0.546668 1.208188) (end 0.544823 1.194938) (layer F.SilkS) (width 0.153))
  (fp_line (start 0.544823 1.194938) (end 0.542473 1.181855) (layer F.SilkS) (width 0.153))
  (fp_line (start 0.542473 1.181855) (end 0.539628 1.168946) (layer F.SilkS) (width 0.153))
  (fp_line (start 0.539628 1.168946) (end 0.5363 1.156223) (layer F.SilkS) (width 0.153))
  (fp_line (start 0.5363 1.156223) (end 0.532496 1.143695) (layer F.SilkS) (width 0.153))
  (fp_line (start 0.532496 1.143695) (end 0.528228 1.131372) (layer F.SilkS) (width 0.153))
  (fp_line (start 0.528228 1.131372) (end 0.523507 1.119264) (layer F.SilkS) (width 0.153))
  (fp_line (start -0.207738 0.959948) (end -0.211145 0.950998) (layer F.SilkS) (width 0.153))
  (fp_line (start 1.772027 1.379546) (end 1.753791 1.382564) (layer F.SilkS) (width 0.153))
  (fp_line (start 1.753791 1.382564) (end 1.735673 1.385921) (layer F.SilkS) (width 0.153))
  (fp_line (start 1.735673 1.385921) (end 1.717678 1.389612) (layer F.SilkS) (width 0.153))
  (fp_line (start 1.717678 1.389612) (end 1.699809 1.393635) (layer F.SilkS) (width 0.153))
  (fp_line (start 1.699809 1.393635) (end 1.682069 1.397987) (layer F.SilkS) (width 0.153))
  (fp_line (start 1.682069 1.397987) (end 1.664461 1.402662) (layer F.SilkS) (width 0.153))
  (fp_line (start 1.664461 1.402662) (end 1.64699 1.407659) (layer F.SilkS) (width 0.153))
  (fp_line (start 1.64699 1.407659) (end 1.629657 1.412974) (layer F.SilkS) (width 0.153))
  (fp_line (start 2.023489 1.373318) (end 2.010936 1.372081) (layer F.SilkS) (width 0.153))
  (fp_line (start 2.010936 1.372081) (end 1.998335 1.371006) (layer F.SilkS) (width 0.153))
  (fp_line (start 1.998335 1.371006) (end 1.985687 1.370092) (layer F.SilkS) (width 0.153))
  (fp_line (start 1.985687 1.370092) (end 1.972995 1.369343) (layer F.SilkS) (width 0.153))
  (fp_line (start 1.972995 1.369343) (end 1.960257 1.368759) (layer F.SilkS) (width 0.153))
  (fp_line (start 1.960257 1.368759) (end 1.947476 1.368339) (layer F.SilkS) (width 0.153))
  (fp_line (start 1.947476 1.368339) (end 1.934653 1.368087) (layer F.SilkS) (width 0.153))
  (fp_line (start 1.934653 1.368087) (end 1.921788 1.368007) (layer F.SilkS) (width 0.153))
  (fp_line (start -0.673333 0.979777) (end -0.676052 0.991393) (layer F.SilkS) (width 0.153))
  (fp_line (start 0.125687 0.285125) (end 0.123866 0.24541) (layer F.SilkS) (width 0.153))
  (fp_line (start 0.123866 0.24541) (end 0.122046 0.205695) (layer F.SilkS) (width 0.153))
  (fp_line (start 0.122046 0.205695) (end 0.120225 0.16598) (layer F.SilkS) (width 0.153))
  (fp_line (start 0.120225 0.16598) (end 0.118404 0.126265) (layer F.SilkS) (width 0.153))
  (fp_line (start 0.118404 0.126265) (end 0.116583 0.08655) (layer F.SilkS) (width 0.153))
  (fp_line (start 0.116583 0.08655) (end 0.114762 0.046835) (layer F.SilkS) (width 0.153))
  (fp_line (start 0.114762 0.046835) (end 0.112941 0.00712) (layer F.SilkS) (width 0.153))
  (fp_line (start 0.112941 0.00712) (end 0.111121 -0.032595) (layer F.SilkS) (width 0.153))
  (fp_line (start 0.111121 -0.032595) (end 0.1093 -0.07231) (layer F.SilkS) (width 0.153))
  (fp_line (start 0.1093 -0.07231) (end 0.107479 -0.112025) (layer F.SilkS) (width 0.153))
  (fp_line (start 0.107479 -0.112025) (end 0.105658 -0.15174) (layer F.SilkS) (width 0.153))
  (fp_line (start 0.105658 -0.15174) (end 0.103837 -0.191455) (layer F.SilkS) (width 0.153))
  (fp_line (start 0.103837 -0.191455) (end 0.102017 -0.231171) (layer F.SilkS) (width 0.153))
  (fp_line (start 0.102017 -0.231171) (end 0.100196 -0.270886) (layer F.SilkS) (width 0.153))
  (fp_line (start 0.100196 -0.270886) (end 0.098375 -0.310601) (layer F.SilkS) (width 0.153))
  (fp_line (start -0.203215 0.96859) (end -0.203951 0.968825) (layer F.SilkS) (width 0.153))
  (fp_line (start 0.098375 -0.310601) (end 0.096554 -0.350316) (layer F.SilkS) (width 0.153))
  (fp_line (start 0.096554 -0.350316) (end 0.094733 -0.390031) (layer F.SilkS) (width 0.153))
  (fp_line (start 0.094733 -0.390031) (end 0.092913 -0.429746) (layer F.SilkS) (width 0.153))
  (fp_line (start 0.092913 -0.429746) (end 0.091092 -0.469461) (layer F.SilkS) (width 0.153))
  (fp_line (start 0.091092 -0.469461) (end 0.089271 -0.509176) (layer F.SilkS) (width 0.153))
  (fp_line (start 0.089271 -0.509176) (end 0.08745 -0.548891) (layer F.SilkS) (width 0.153))
  (fp_line (start 0.08745 -0.548891) (end 0.085629 -0.588606) (layer F.SilkS) (width 0.153))
  (fp_line (start 0.085629 -0.588606) (end 0.07937 -0.588606) (layer F.SilkS) (width 0.153))
  (fp_line (start 0.07937 -0.588606) (end 0.07311 -0.588606) (layer F.SilkS) (width 0.153))
  (fp_line (start 0.07311 -0.588606) (end 0.066851 -0.588606) (layer F.SilkS) (width 0.153))
  (fp_line (start 0.066851 -0.588606) (end 0.060591 -0.588606) (layer F.SilkS) (width 0.153))
  (fp_line (start 0.060591 -0.588606) (end 0.054332 -0.588606) (layer F.SilkS) (width 0.153))
  (fp_line (start 0.054332 -0.588606) (end 0.048072 -0.588606) (layer F.SilkS) (width 0.153))
  (fp_line (start 0.048072 -0.588606) (end 0.041813 -0.588606) (layer F.SilkS) (width 0.153))
  (fp_line (start 0.041813 -0.588606) (end 0.035553 -0.588606) (layer F.SilkS) (width 0.153))
  (fp_line (start 0.035553 -0.588606) (end 0.029293 -0.588606) (layer F.SilkS) (width 0.153))
  (fp_line (start -0.498331 0.807246) (end -0.509888 0.810481) (layer F.SilkS) (width 0.153))
  (fp_line (start -0.149763 0.235371) (end -0.151827 0.283841) (layer F.SilkS) (width 0.153))
  (fp_line (start 0.631671 1.305469) (end 0.629017 1.304487) (layer F.SilkS) (width 0.153))
  (fp_line (start 0.629017 1.304487) (end 0.626359 1.303514) (layer F.SilkS) (width 0.153))
  (fp_line (start 0.626359 1.303514) (end 0.623698 1.30255) (layer F.SilkS) (width 0.153))
  (fp_line (start 0.623698 1.30255) (end 0.621032 1.301596) (layer F.SilkS) (width 0.153))
  (fp_line (start 0.621032 1.301596) (end 0.618363 1.30065) (layer F.SilkS) (width 0.153))
  (fp_line (start 0.618363 1.30065) (end 0.61569 1.299714) (layer F.SilkS) (width 0.153))
  (fp_line (start 0.61569 1.299714) (end 0.613014 1.298787) (layer F.SilkS) (width 0.153))
  (fp_line (start 0.613014 1.298787) (end 0.610333 1.297868) (layer F.SilkS) (width 0.153))
  (fp_line (start 0.610333 1.297868) (end 0.607649 1.29696) (layer F.SilkS) (width 0.153))
  (fp_line (start 0.607649 1.29696) (end 0.604961 1.29606) (layer F.SilkS) (width 0.153))
  (fp_line (start -1.037467 1.284378) (end -1.049685 1.277333) (layer F.SilkS) (width 0.153))
  (fp_line (start -1.049685 1.277333) (end -1.062062 1.270535) (layer F.SilkS) (width 0.153))
  (fp_line (start -1.062062 1.270535) (end -1.074594 1.263987) (layer F.SilkS) (width 0.153))
  (fp_line (start -1.074594 1.263987) (end -1.087276 1.257694) (layer F.SilkS) (width 0.153))
  (fp_line (start -2.210885 1.513528) (end -2.219912 1.510961) (layer F.SilkS) (width 0.153))
  (fp_line (start -2.219912 1.510961) (end -2.228983 1.508481) (layer F.SilkS) (width 0.153))
  (fp_line (start -2.228983 1.508481) (end -2.238096 1.50609) (layer F.SilkS) (width 0.153))
  (fp_line (start -2.238096 1.50609) (end -2.247251 1.503787) (layer F.SilkS) (width 0.153))
  (fp_line (start -2.247251 1.503787) (end -2.256447 1.501574) (layer F.SilkS) (width 0.153))
  (fp_line (start -2.256447 1.501574) (end -2.265685 1.499451) (layer F.SilkS) (width 0.153))
  (fp_line (start -2.265685 1.499451) (end -2.274963 1.497418) (layer F.SilkS) (width 0.153))
  (fp_line (start 2.307864 1.448371) (end 2.296756 1.443609) (layer F.SilkS) (width 0.153))
  (fp_line (start 2.296756 1.443609) (end 2.285576 1.43898) (layer F.SilkS) (width 0.153))
  (fp_line (start 2.285576 1.43898) (end 2.274325 1.434487) (layer F.SilkS) (width 0.153))
  (fp_line (start 2.274325 1.434487) (end 2.263005 1.430129) (layer F.SilkS) (width 0.153))
  (fp_line (start 2.263005 1.430129) (end 2.251616 1.425909) (layer F.SilkS) (width 0.153))
  (fp_line (start 2.251616 1.425909) (end 2.240159 1.421828) (layer F.SilkS) (width 0.153))
  (fp_line (start 2.240159 1.421828) (end 2.228635 1.417885) (layer F.SilkS) (width 0.153))
  (fp_line (start 2.228635 1.417885) (end 2.217045 1.414084) (layer F.SilkS) (width 0.153))
  (fp_line (start -0.406836 2.413591) (end -0.32813 2.422447) (layer F.SilkS) (width 0.153))
  (fp_line (start -0.32813 2.422447) (end -0.249088 2.429375) (layer F.SilkS) (width 0.153))
  (fp_line (start -0.249088 2.429375) (end -0.16974 2.434361) (layer F.SilkS) (width 0.153))
  (fp_line (start -0.16974 2.434361) (end -0.090122 2.437392) (layer F.SilkS) (width 0.153))
  (fp_line (start -0.090122 2.437392) (end -0.010264 2.438454) (layer F.SilkS) (width 0.153))
  (fp_line (start -0.010264 2.438454) (end 0.071662 2.437286) (layer F.SilkS) (width 0.153))
  (fp_line (start 0.071662 2.437286) (end 0.153329 2.434046) (layer F.SilkS) (width 0.153))
  (fp_poly (pts (xy -0.1 -0.6) (xy -0.15 0.9) (xy -0.35 0.85) (xy -0.55 0.85)
    (xy -0.65 1) (xy -0.7 1.2) (xy -0.95 1.35) (xy -1.25 1.25)
    (xy -1.5 1.25) (xy -1.8 1.35) (xy -2 1.6) (xy -2.1 1.65)
    (xy -1.65 1.95) (xy -1.25 2.15) (xy -0.65 2.35) (xy 0.15 2.4)
    (xy 1.1 2.2) (xy 1.65 1.95) (xy 2.3 1.45) (xy 1.95 1.4)
    (xy 1.4 1.5) (xy 1 1.2) (xy 0.6 1.35) (xy 0.35 0.95)
    (xy 0.3 0.75) (xy 0.1 0.7) (xy 0.05 -0.6)) (layer F.SilkS) (width 0.15))
)
